[
{
  "fields": {
    "photo": "http://img2.rnkr-static.com/node_img/51/1006289/C350/ford-country-squire-automobile-models-photo-1.jpg", 
    "make": 7, 
    "type": "Full-size car, Station Wagon", 
    "name": "Ford Country Squire", 
    "description": "The Ford Country Squire is a full-size station wagon which was built by the Ford Motor Company in the United States from 1950 until 1991, encompassing seven model generations. It was the premium station wagon model in Ford's full-size car range throughout this period. The Country Squire was initially ...more "
  }, 
  "model": "cars.carmodel"
},
{
  "fields": {
    "photo": "http://img1.rnkr-static.com/node_img/51/1006428/C350/ford-model-a-automobile-models-photo-1.jpg", 
    "make": 7, 
    "type": "Sedan, Coup\u00e9, Roadster, Station Wagon, Pickup truck", 
    "name": "Ford Model A", 
    "description": "The Ford Model A of 1928\u20131931 was the second huge success for the Ford Motor Company, after its predecessor, the Model T. First produced on October 20, 1927, but not sold until December 2, it replaced the venerable Model T, which had been produced for 18 years. This new Model A was designated as a 1928 ...more "
  }, 
  "model": "cars.carmodel"
},
{
  "fields": {
    "photo": "http://img1.rnkr-static.com/node_img/2033/40645905/C350/ford-mustang-automobile-models-photo-1.jpg", 
    "make": 7, 
    "type": "", 
    "name": "Ford Mustang", 
    "description": "The third-generation Mustang was produced by Ford Motor Company from 1978 to 1993. Built on Ford\u2019s widely used Fox platform, it evolved through a number of sub-models, trim levels, and drivetrain combinations during its production life. It underwent updates for 1987, and for a time seemed destined for ...more "
  }, 
  "model": "cars.carmodel"
},
{
  "fields": {
    "photo": "http://img1.rnkr-static.com/node_img/51/1006536/C350/ford-taurus-x-automobile-models-photo-1.jpg", 
    "make": 7, 
    "type": "Sport utility vehicle, Crossover SUV", 
    "name": "Ford Taurus X", 
    "description": "The Ford Freestyle and Ford Taurus X was a 6- or 7-passenger full-size crossover SUV manufactured and marketed by Ford Motor Company in the United States. Together, the Freestyle and Taurus X superseded the Ford Taurus station wagon. The Freestyle and Taurus X are directly related to a group of rebadged ...more "
  }, 
  "model": "cars.carmodel"
},
{
  "fields": {
    "photo": "http://img1.rnkr-static.com/node_img/51/1006510/C350/ford-scorpio-automobile-models-photo-1.jpg", 
    "make": 7, 
    "type": "Hatchback, Sedan, Station Wagon", 
    "name": "Ford Scorpio", 
    "description": "The Ford Scorpio is an executive car that was produced by the Ford Motor Company from 1985 to 1998. It was the replacement for the European Ford Granada line. Like its predecessor, the Scorpio was targeted at the executive car market. A variant known as the Merkur Scorpio was sold briefly on the North ...more "
  }, 
  "model": "cars.carmodel"
},
{
  "fields": {
    "photo": "http://img2.rnkr-static.com/node_img/51/1006363/C350/ford-focus-c-max-automobile-models-photo-1.jpg", 
    "make": 7, 
    "type": "", 
    "name": "Ford C-Max", 
    "description": "The Ford C-Max is a compact MPV produced since 2003 for the European market by Ford in Saarlouis, Germany. Ford introduced the C-Max in the United States as its first hybrid-only line of vehicles, which includes the C-Max Hybrid, released in September 2012, and the C-Max Energi plug-in hybrid, launched ...more "
  }, 
  "model": "cars.carmodel"
},
{
  "fields": {
    "photo": "http://img3.rnkr-static.com/user_node_img/666/13307492/C350/ford-galaxie-500-automobile-models-photo-u1.jpg", 
    "make": 7, 
    "type": "", 
    "name": "Ford Galaxie 500", 
    "description": "Ford Galaxie 500 was a car produced by Ford.\u00a0more "
  }, 
  "model": "cars.carmodel"
},
{
  "fields": {
    "photo": "http://img1.rnkr-static.com/node_img/51/1006538/C350/ford-tempo-automobile-models-photo-1.jpg", 
    "make": 7, 
    "type": "Compact car", 
    "name": "Ford Tempo", 
    "description": "The Ford Tempo and its twin, the Mercury Topaz are compact cars that were produced by Ford Motor Company for model years 1984 to 1994. They were downsized successors to the boxy Ford Fairmont and Mercury Zephyr twins. The Tempo and Topaz were part of a rejuvenation plan by Ford to offer more ...more "
  }, 
  "model": "cars.carmodel"
}
]