[
{
  "fields": {
    "photo": "http://img1.rnkr-static.com/user_node_img/51/1006336/C350/ford-expedition-u2.jpg", 
    "make": 7, 
    "type": "Full-size car, Sport utility vehicle", 
    "name": "Ford Expedition", 
    "description": "The Ford Expedition is a full-size SUV built by the Ford Motor Company. Introduced in 1996 for the 1997 model year as a replacement to the Ford Bronco, it was previously slotted between the smaller Ford Explorer and the larger Ford Excursion, but as of the 2005 model year, it is Ford's largest and last ...more "
  }, 
  "model": "cars.carmodel"
},
{
  "fields": {
    "photo": "http://img1.rnkr-static.com/node_img/51/1006334/C350/ford-excursion-automobile-models-photo-1.jpg", 
    "make": 7, 
    "type": "Full-size car, Sport utility vehicle", 
    "name": "Ford Excursion", 
    "description": "The Ford Excursion was a heavy duty, full size sport utility vehicle produced by the Ford Motor Company from 2000 through 2005 for the North American market and through 2006 for Mexico. Based on the heavy-duty, full-size Super Duty line of trucks, the Excursion was Ford's largest SUV in its lineup, and ...more "
  }, 
  "model": "cars.carmodel"
},
{
  "fields": {
    "photo": "http://img1.rnkr-static.com/node_img/51/1006343/C350/ford-fairlane-automobile-models-photo-1.jpg", 
    "make": 7, 
    "type": "Mid-size car, Full-size car, Station Wagon, Convertible", 
    "name": "Ford Fairlane", 
    "description": "The Ford Fairlane was an automobile model sold between 1955 and 1970 by the Ford Motor Company in North America. The name was taken from Henry Ford's estate, Fair Lane, near Dearborn, Michigan. Over time, the name referred to a number of different cars in different classes; the Fairlane was initially a ...more "
  }, 
  "model": "cars.carmodel"
},
{
  "fields": {
    "photo": "http://img1.rnkr-static.com/node_img/51/1006541/C350/ford-thunderbird-automobile-models-photo-1.jpg", 
    "make": 7, 
    "type": "Personal luxury car", 
    "name": "Ford Thunderbird", 
    "description": "The Ford Thunderbird is an automobile which was manufactured by the Ford Motor Company in the United States over eleven model generations from 1955 through 2005. When introduced, it created the market niche eventually known as the personal luxury car.\u00a0more "
  }, 
  "model": "cars.carmodel"
},
{
  "fields": {
    "photo": "http://img2.rnkr-static.com/node_img/51/1006403/C350/ford-ka-automobile-models-photo-1.jpg", 
    "make": 7, 
    "type": "Hatchback", 
    "name": "Ford Ka", 
    "description": "The Ford Ka is a city car manufactured by the Ford Motor Company from 1996 to present. It entered its second generation in 2008, and is produced by Fiat in Tychy, Poland. In both generations it has a three-door hatchback body style, with the first generation also having a two-door convertible version ...more "
  }, 
  "model": "cars.carmodel"
},
{
  "fields": {
    "photo": "http://img2.rnkr-static.com/node_img/51/1006443/C350/ford-mondeo-automobile-models-photo-1.jpg", 
    "make": 7, 
    "type": "Large family car, Full-size car, Intermediate", 
    "name": "Ford Mondeo", 
    "description": "The Ford Mondeo is a mid-size or large family car manufactured by the Ford Motor Company from 1992 onwards. The name comes from Latin mundus, meaning \"world\". The Mondeo was designed to be a \"world car\"; the North American models were marketed as the Ford Contour and Mercury Mystique until 2000, and as ...more "
  }, 
  "model": "cars.carmodel"
},
{
  "fields": {
    "photo": "http://img2.rnkr-static.com/node_img/51/1006550/C350/ford-transit-connect-automobile-models-photo-1.jpg", 
    "make": 7, 
    "type": "", 
    "name": "Ford Transit Connect", 
    "description": "The Ford Transit Connect is a compact panel van/Compact Minivan developed by Ford Europe and derived from the Ford Focus. The first generation was designed by Peter Horbury and introduced in 2002 to replace the older Ford Escort and Fiesta-based Courier van ranges, which had ceased production in the ...more "
  }, 
  "model": "cars.carmodel"
},
{
  "fields": {
    "photo": "http://img2.rnkr-static.com/node_img/51/1006249/C350/ford-bronco-automobile-models-photo-1.jpg", 
    "make": 7, 
    "type": "Sport utility vehicle", 
    "name": "Ford Bronco", 
    "description": "The Ford Bronco is a sport utility vehicle that was produced from 1966 to 1996, with five distinct generations. Broncos can be divided into two categories: early Broncos and full-size Broncos. The Bronco was introduced in 1966 as a competitor to the small four-wheel-drive compact SUVs that included the ...more "
  }, 
  "model": "cars.carmodel"
}
]