[
{
  "fields": {
    "photo": "http://img1.rnkr-static.com/node_img/51/1006539/C350/ford-territory-automobile-models-photo-1.jpg", 
    "make": 7, 
    "type": "", 
    "name": "Ford Territory", 
    "description": "The Ford Territory is a crossover sport utility vehicle built by Ford Australia that was introduced in April 2004. It is based on the EA169 platform introduced by the 2002 Ford Falcon, and its internal project codename was E265. Winner of various automotive awards since its introduction, the Territory ...more "
  }, 
  "model": "cars.carmodel"
},
{
  "fields": {
    "photo": "http://img1.rnkr-static.com/node_img/51/1006420/C350/ford-maverick-automobile-models-photo-1.jpg", 
    "make": 7, 
    "type": "Compact car, Mid-size car, Sedan, Coup\u00e9, Station Wagon", 
    "name": "Ford Maverick", 
    "description": "The Ford Maverick was a compact car manufactured from April 1969 to 1977 in the United States, Venezuela, Canada, Mexico, and, from 1973 to 1979, in Brazil \u2014 employing a rear wheel drive platform dating to the original 1960 Falcon. Originally marketed as a two-door sedan at a price of $1,995, the ...more "
  }, 
  "model": "cars.carmodel"
},
{
  "fields": {
    "photo": "http://img1.rnkr-static.com/node_img/51/1006371/C350/ford-freestyle-automobile-models-photo-1.jpg", 
    "make": 7, 
    "type": "Full-size car, Sport utility vehicle", 
    "name": "Ford Freestyle", 
    "description": ""
  }, 
  "model": "cars.carmodel"
},
{
  "fields": {
    "photo": "http://img1.rnkr-static.com/node_img/51/1006283/C350/ford-contour-automobile-models-photo-1.jpg", 
    "make": 7, 
    "type": "Compact car, Sedan", 
    "name": "Ford Contour", 
    "description": "The Ford Contour, as well as its sister the Mercury Mystique, is a mid-size sedan that was based on the first-generation globally marketed Ford Mondeo. The Contour and Mystique replaced the Ford Tempo and Mercury Topaz in the U.S., and were based on Ford's mid-sized CDW27 platform. Both the Contour and ...more "
  }, 
  "model": "cars.carmodel"
},
{
  "fields": {
    "photo": "http://img1.rnkr-static.com/node_img/51/1006516/C350/ford-sierra-automobile-models-photo-1.jpg", 
    "make": 7, 
    "type": "Hatchback, Mid-size car, Sedan, Family car, Station Wagon", 
    "name": "Ford Sierra", 
    "description": "The Ford Sierra is a large family car that was built by Ford of Europe from 1982 to 1994. It was designed by Uwe Bahnsen, Robert Lutz and Patrick le Qu\u00e9ment. The code used during development was \"Project Toni\" The Ford Sierra was first unveiled on 22 September 1982 at the British International Motor ...more "
  }, 
  "model": "cars.carmodel"
},
{
  "fields": {
    "photo": "http://img2.rnkr-static.com/node_img/1842/36838744/C350/ford-prefect-automobile-models-photo-1.jpg", 
    "make": 7, 
    "type": "", 
    "name": "Ford Prefect", 
    "description": "The Ford Prefect is a line of British cars produced by the UK division of the Ford Motor Company, and a more upmarket version of its direct siblings the Ford Popular and Ford Anglia. It was introduced in October 1938 and remained in production until 1941; returning to the market in 1945, it was offered ...more "
  }, 
  "model": "cars.carmodel"
},
{
  "fields": {
    "photo": "http://img2.rnkr-static.com/node_img/51/1006480/C350/ford-probe-automobile-models-photo-1.jpg", 
    "make": 7, 
    "type": "", 
    "name": "Ford Probe", 
    "description": "The Ford Probe is a sports coupe produced by Ford, introduced in 1989 to replace the Ford EXP as the company's sport compact car. The Probe was fully based on the Mazda G-platform using unique sheet metal and interior. The instrument cluster and pop-up headlight mechanisms are borrowed from the FC ...more "
  }, 
  "model": "cars.carmodel"
},
{
  "fields": {
    "photo": "http://img2.rnkr-static.com/node_img/51/1006348/C350/ford-falcon-north-america-automobile-models-photo-1.jpg", 
    "make": 7, 
    "type": "Compact car, Sedan", 
    "name": "Ford Falcon (North America)", 
    "description": "The Ford Falcon is an automobile which was produced by Ford Motor Company from 1960 to 1970 across three generations. It was a sales success for Ford initially, outselling rival compacts from Chrysler and General Motors introduced at the same time. The Falcon was offered in two-door and four-door sedan, ...more "
  }, 
  "model": "cars.carmodel"
}
]