[
{
  "fields": {
    "photo": "http://img2.rnkr-static.com/node_img/118/2349278/C350/volvo-300-series-automobile-models-photo-1.jpg", 
    "make": 13, 
    "type": "Compact car, Hatchback, Sedan", 
    "name": "Volvo 300 Series", 
    "description": "The Volvo 300 Series is a rear wheel drive automobile sold as both a hatchback and a conventional saloon from 1976 to 1991. It was launched in the Netherlands shortly after Volvo acquired a major stake in the passenger car division of DAF in 1973. The series consisted of the Volvo 340 and the later ...more "
  }, 
  "model": "cars.carmodel"
},
{
  "fields": {
    "photo": "http://img1.rnkr-static.com/node_img/118/2349340/C350/volvo-p1800-automobile-models-photo-1.jpg", 
    "make": 13, 
    "type": "Coup\u00e9, Station Wagon, Sports car", 
    "name": "Volvo P1800", 
    "description": "The Volvo P1800 is a sports car from Volvo Cars.\u00a0more "
  }, 
  "model": "cars.carmodel"
},
{
  "fields": {
    "photo": "http://img1.rnkr-static.com/node_img/118/2349279/C350/volvo-440-automobile-models-photo-1.jpg", 
    "make": 13, 
    "type": "Compact car, Hatchback, Sedan", 
    "name": "Volvo 440/460", 
    "description": "The Volvo 440 and 460 are versions of a small family car produced by the Swedish manufacturer Volvo Cars between 1987 and 1997. They were built at the NedCar factory in Born, Netherlands, and released in Europe in 1987 and 1989 respectively. The 440 was a 5-door front wheel drive hatchback and the 460 a ...more "
  }, 
  "model": "cars.carmodel"
},
{
  "fields": {
    "photo": "http://img2.rnkr-static.com/node_img/118/2349341/C350/volvo-p1900-automobile-models-photo-1.jpg", 
    "make": 13, 
    "type": "Roadster", 
    "name": "Volvo P1900", 
    "description": "The Volvo Sport is a Swedish fiberglass-bodied roadster of which sixty-eight units were built between 1956 and 1957 by Volvo Cars. Assar Gabrielsson, Volvo's president and founder, got the idea for the car when he saw a Chevrolet Corvette in the United States and wanted to make something similar. He ...more "
  }, 
  "model": "cars.carmodel"
},
{
  "fields": {
    "photo": "http://img1.rnkr-static.com/node_img/118/2349281/C350/volvo-480-automobile-models-photo-1.jpg", 
    "make": 13, 
    "type": "Compact car, Hatchback", 
    "name": "Volvo 480", 
    "description": "The Volvo 480 was produced in the Netherlands by Volvo Cars from 1986 to 1995. It was the first front-wheel drive car made by Volvo. The 480 was available in only one body style on a automobile platform related to the Volvo 440/460 five-door hatchback and four-door sedan models. It features an unusual ...more "
  }, 
  "model": "cars.carmodel"
},
{
  "fields": {
    "photo": "http://img2.rnkr-static.com/node_img/118/2349282/C350/volvo-66-automobile-models-photo-1.jpg", 
    "make": 13, 
    "type": "Sedan, Station Wagon", 
    "name": "Volvo 66", 
    "description": "The Volvo 66 sprang directly from the DAF 66, which was originally styled by Giovanni Michelotti. The compact car was introduced in August 1975, almost exactly a year after Volvo Cars bought DAF, and before production of the Volvo 300 Series began. The Volvo 66 was known for its continuously variable ...more "
  }, 
  "model": "cars.carmodel"
},
{
  "fields": {
    "photo": "http://img2.rnkr-static.com/node_img/118/2349350/C350/volvo-s80-automobile-models-photo-1.jpg", 
    "make": 13, 
    "type": "Mid-size car, Sedan, Luxury vehicle", 
    "name": "Volvo S80", 
    "description": "The Volvo S80 is an executive car produced by the Swedish manufacturer Volvo Cars since 1998, introduced to take the place of the rear-wheel-drive Volvo 960 saloon in the model range. The Volvo S80 has been built at the Torslanda Works in Gothenburg, Sweden. Unlike most Volvo models, it did not have an ...more "
  }, 
  "model": "cars.carmodel"
},
{
  "fields": {
    "photo": "http://img1.rnkr-static.com/node_img/1713/34246213/C350/volvo-pv-60-automobile-models-photo-1.jpg", 
    "make": 13, 
    "type": "Sedan", 
    "name": "Volvo PV 60", 
    "description": "The Volvo PV60 is an automobile manufactured by Volvo between 1946 and 1950. It was the first car produced by the Swedish company at the end of the Second World War. The development of the PV60 had started in 1939 and the car was introduced to the public alongside the smaller PV444 in September 1944. It ...more "
  }, 
  "model": "cars.carmodel"
}
]