[
{
  "fields": {
    "photo": "http://img2.rnkr-static.com/node_img/50/987111/C350/ferrari-daytona-automobile-models-photo-1.jpg", 
    "make": 8, 
    "type": "Sports car", 
    "name": " Ferrari Daytona", 
    "description": "The Ferrari 365 GTB/4, better known by the unofficial name Ferrari Daytona, is a grand tourer automobile produced from 1968 to 1973. It was first introduced to the public at the Paris Auto Salon in 1968 and replaced the 275 GTB/4. The Daytona was replaced by the mid-engined 365 GT4 Berlinetta Boxer in ...more "
  }, 
  "model": "cars.carmodel"
},
{
  "fields": {
    "photo": "http://img2.rnkr-static.com/node_img/50/987084/C350/ferrari-250-gto-automobile-models-photo-1.jpg", 
    "make": 8, 
    "type": "Sports car", 
    "name": " Ferrari 250 GTO", 
    "description": "The Ferrari 250 GTO is a racing GT car which was produced by Ferrari from 1962 to 1964 for homologation into the FIA's Group 3 Grand Touring Car category. In May 2012 the 1962 250 GTO made for Stirling Moss became the world's most expensive car in the history, selling in a private transaction for ...more "
  }, 
  "model": "cars.carmodel"
},
{
  "fields": {
    "photo": "http://img2.rnkr-static.com/node_img/50/987086/C350/ferrari-275-automobile-models-photo-1.jpg", 
    "make": 8, 
    "type": "", 
    "name": " Ferrari 275", 
    "description": "The Ferrari 275 was a two-seat front-engined Gran Turismo automobile produced by Ferrari between 1964 and 1968. It used a 3.3 L Colombo 60\u00b0 V12 engine and produced 280-300 hp. The Pininfarina-designed body was a graceful evolution of the car's predecessor, the 250, and strongly contrasted with its ...more "
  }, 
  "model": "cars.carmodel"
},
{
  "fields": {
    "photo": "http://img1.rnkr-static.com/node_img/50/987105/C350/ferrari-599-gtb-fiorano-automobile-models-photo-1.jpg", 
    "make": 8, 
    "type": "Grand tourer", 
    "name": " Ferrari 599 GTB Fiorano", 
    "description": "The Ferrari 599 is an Italian sports car produced by Ferrari. It was the brand's two-seat flagship, replacing the 575M Maranello in 2006 as a 2007 model, but was replaced for the 2013 model year by the F12berlinetta. Styled by Pininfarina under the direction of Ferrari's Frank Stephenson, the 599 GTB ...more "
  }, 
  "model": "cars.carmodel"
},
{
  "fields": {
    "photo": "http://img2.rnkr-static.com/node_img/50/987120/C350/ferrari-f430-automobile-models-photo-1.jpg", 
    "make": 8, 
    "type": "Roadster, Sports car", 
    "name": " Ferrari F430", 
    "description": "The Ferrari F430 is a sports car that was produced by the Italian car manufacturer Ferrari from 2004 to 2009. A successor to the Ferrari 360, it debuted at the 2004 Paris Motor Show. Its replacement, the Ferrari 458, was unveiled on 28 July 2009.\u00a0more "
  }, 
  "model": "cars.carmodel"
},
{
  "fields": {
    "photo": "http://img1.rnkr-static.com/node_img/50/987083/C350/ferrari-250-automobile-models-photo-1.jpg", 
    "make": 8, 
    "type": "", 
    "name": " Ferrari 250", 
    "description": "The Ferrari 250 is a sports car built by Ferrari from 1953 to 1964. The company's most successful early line, the 250 series included several variants. It was replaced by the 275 and the 330.\u00a0more "
  }, 
  "model": "cars.carmodel"
},
{
  "fields": {
    "photo": "http://img2.rnkr-static.com/node_img/50/987119/C350/ferrari-f40-automobile-models-photo-1.jpg", 
    "make": 8, 
    "type": "Coup\u00e9, Sports car", 
    "name": " Ferrari F40", 
    "description": "The Ferrari F40 is a mid-engine, rear-wheel drive, two-door coup\u00e9 sports car built from 1987 to 1992. The successor to the Ferrari 288 GTO, it was designed to celebrate Ferrari's 40th anniversary and was the last Ferrari automobile personally approved by Enzo Ferrari. At the time it was the fastest, ...more "
  }, 
  "model": "cars.carmodel"
},
{
  "fields": {
    "photo": "http://img2.rnkr-static.com/node_img/48/944985/C350/ferrari-enzo-automobile-models-photo-1.jpg", 
    "make": 8, 
    "type": "Sports car", 
    "name": " Enzo Ferrari", 
    "description": "The Enzo Ferrari is a 12 cylinder mid-engine berlinetta supercar named after the company's founder, Enzo Ferrari. It was built in 2002 using Formula One technology, such as a carbon-fibre body, F1-style electrohydraulic shift transmission, and carbon fibre-reinforced silicon carbide ceramic composite ...more "
  }, 
  "model": "cars.carmodel"
},
{
  "fields": {
    "photo": "http://img1.rnkr-static.com/node_img/50/987101/C350/ferrari-456-gt-automobile-models-photo-1.jpg", 
    "make": 8, 
    "type": "Sedan, 2+2, Coup\u00e9, Roadster, Station Wagon, + more", 
    "name": " Ferrari 456 GT", 
    "description": "The Ferrari 456 and 456 M is a front-engined grand tourer. The 456 was produced from 1992 until 2003. It was an overdue replacement for the defunct front-engined 412 as the company's V12 four seater. The updated 456M was replaced in 2004 by the 612 Scaglietti. It was the last Ferrari model to use pop-up ...more "
  }, 
  "model": "cars.carmodel"
},
{
  "fields": {
    "photo": "http://img1.rnkr-static.com/node_img/50/987087/C350/ferrari-288-gto-automobile-models-photo-1.jpg", 
    "make": 8, 
    "type": "Sports car", 
    "name": " Ferrari 288 GTO", 
    "description": "The Ferrari GTO is an exotic homologation of the Ferrari 308 GTB produced from 1984 through 1987, designated GT for Gran Turismo and O for Omologato.\u00a0more "
  }, 
  "model": "cars.carmodel"
},
{
  "fields": {
    "photo": "http://img2.rnkr-static.com/node_img/50/987106/C350/ferrari-612-scaglietti-automobile-models-photo-1.jpg", 
    "make": 8, 
    "type": "Coup\u00e9, Grand tourer", 
    "name": " Ferrari 612 Scaglietti", 
    "description": "The Ferrari 612 Scaglietti is a grand tourer produced by Ferrari between 2004 and 2010. It is a large two door fastback coup\u00e9. The 612 Scaglietti was designed to replace the smaller 456 M; its larger size makes it a true 4 seater with adequate space in the rear seats for adults. The design, especially ...more "
  }, 
  "model": "cars.carmodel"
},
{
  "fields": {
    "photo": "http://img2.rnkr-static.com/node_img/1596/31910231/C350/ferrari-california-automobile-models-photo-1.jpg", 
    "make": 8, 
    "type": "Grand tourer, Convertible", 
    "name": " Ferrari California", 
    "description": "The Ferrari California is a grand touring sports car produced by the Italian manufacturer Ferrari. It is a two door \"2+2\" hard top convertible. When originally released, the California was powered by a front-mid mounted gasoline direct injection 4.3 L V8 with 460 PS. The car revives the \"California\" ...more "
  }, 
  "model": "cars.carmodel"
},
{
  "fields": {
    "photo": "http://img2.rnkr-static.com/node_img/50/987088/C350/ferrari-308-gtb-automobile-models-photo-1.jpg", 
    "make": 8, 
    "type": "Sports car", 
    "name": " Ferrari 308 GTB/GTS", 
    "description": "The Ferrari 308 GTB berlinetta and targa topped 308 GTS are V8 mid-engined, 2-seater sports cars manufactured by the Italian company Ferrari from 1975 to 1985. The 308 replaced the Dino 246 in 1975 and was updated as the 328 in 1985. The similar 208 GTB and GTS were equipped with a smaller 2-litre ...more "
  }, 
  "model": "cars.carmodel"
},
{
  "fields": {
    "photo": "http://img2.rnkr-static.com/node_img/50/987104/C350/ferrari-575m-maranello-automobile-models-photo-1.jpg", 
    "make": 8, 
    "type": "Coup\u00e9, Grand tourer", 
    "name": " Ferrari 575M Maranello", 
    "description": "The Ferrari 575M Maranello is a two-seat, two-door, grand tourer built by Ferrari. Launched in 2002, it is essentially an updated 550 Maranello featuring minor styling changes from Pininfarina. The 575M was replaced by the 599 GTB in the first half of 2006. Updates from the 550 included a renewed ...more "
  }, 
  "model": "cars.carmodel"
},
{
  "fields": {
    "photo": "http://img1.rnkr-static.com/node_img/50/987125/C350/ferrari-fxx-automobile-models-photo-1.jpg", 
    "make": 8, 
    "type": "", 
    "name": " Ferrari FXX", 
    "description": "The Ferrari FXX is a high performance race car and prototype built by automobile manufacturer Ferrari in Maranello, Italy. The FXX is based on the street-legal Enzo. Production of the FXX began in 2005.\u00a0more "
  }, 
  "model": "cars.carmodel"
},
{
  "fields": {
    "photo": "http://img1.rnkr-static.com/node_img/3171/63407125/C350/ferrari-458-italia-automobile-models-photo-1.jpg", 
    "make": 8, 
    "type": "", 
    "name": " Ferrari 458 Italia", 
    "description": "The Ferrari 458 is a mid-engined sports car produced by the Italian sports car manufacturer Ferrari. The 458 replaced the Ferrari F430, and was first officially unveiled at the 2009 Frankfurt Motor Show. It is now being replaced by the Ferrari 488 GTB, which was unveiled at the Geneva Motor Show 2015.more "
  }, 
  "model": "cars.carmodel"
},
{
  "fields": {
    "photo": "http://img2.rnkr-static.com/node_img/50/987117/C350/ferrari-f355-automobile-models-photo-1.jpg", 
    "make": 8, 
    "type": "Roadster, Sports car", 
    "name": " Ferrari F355", 
    "description": "The Ferrari F355 is a sports car built by Ferrari from May 1994 to 1999. It is an evolution of the Ferrari 348 and was replaced by the Ferrari 360. It is a mid-engined, rear wheel drive, V8-powered two-seat coupe, targa, or convertible. Design emphasis for the F355 was placed on significantly improved ...more "
  }, 
  "model": "cars.carmodel"
},
{
  "fields": {
    "photo": "http://img2.rnkr-static.com/node_img/50/987091/C350/ferrari-328-automobile-models-photo-1.jpg", 
    "make": 8, 
    "type": "Sports car", 
    "name": " Ferrari 328", 
    "description": "The Ferrari 328 GTB and GTS was the successor to the Ferrari 308 GTB and GTS. While largely based on the 308 GTB and GTS respectively, small modifications were made to the body style and engine, including an increase in engine displacement to 3.2 L. 7,400 Ferrari 328s were produced by the time the model ...more "
  }, 
  "model": "cars.carmodel"
},
{
  "fields": {
    "photo": "http://img1.rnkr-static.com/node_img/50/987103/C350/ferrari-550-automobile-models-photo-1.jpg", 
    "make": 8, 
    "type": "Coup\u00e9, Grand tourer, Convertible, Sports car", 
    "name": " Ferrari 550", 
    "description": "The Ferrari 550 Maranello and 550 Barchetta Pininfarina are 2-seat grand tourers built by Ferrari. Introduced in 1996, the 550 was an upmarket front-engined V12 coupe of the kind not seen since the Daytona. It shared its platform and 5.5 L engine with the 2+2 456 but was positioned as the company's ...more "
  }, 
  "model": "cars.carmodel"
},
{
  "fields": {
    "photo": "http://img1.rnkr-static.com/node_img/50/987107/C350/ferrari-america-automobile-models-photo-1.jpg", 
    "make": 8, 
    "type": "Grand tourer", 
    "name": " Ferrari America", 
    "description": "Ferrari America is a series of top-end Ferrari models built in the 1950s and 1960s. They were large touring cars with the largest V12 engines and often had custom bodywork. All America models used a live axle in the rear, were front-engined, and had worm and sector steering. Two of the series, the 400 ...more "
  }, 
  "model": "cars.carmodel"
},
{
  "fields": {
    "photo": "http://img2.rnkr-static.com/node_img/50/987137/C350/ferrari-testarossa-automobile-models-photo-1.jpg", 
    "make": 8, 
    "type": "Sports car", 
    "name": " Ferrari Testarossa", 
    "description": "The Ferrari Testarossa is a 12-cylinder mid-engine sports car manufactured by Ferrari, which went into production in 1984 as the successor to the Ferrari Berlinetta Boxer. The Pininfarina-designed car was originally produced from 1984 to 1991, with two model revisions following the ending of Testarossa ...more "
  }, 
  "model": "cars.carmodel"
},
{
  "fields": {
    "photo": "http://img1.rnkr-static.com/node_img/43/859888/C350/dino-automobile-models-photo-1.jpg", 
    "make": 8, 
    "type": "Sports car", 
    "name": " Dino", 
    "description": "Dino was a marque for mid-engined, rear-drive sports cars produced by Ferrari from 1968 to 1976. Used for models with engines with fewer than 12 cylinders, it was an attempt by the company to offer a relatively low-cost sports car. The Ferrari name remained reserved for its premium V-12 and flat 12 ...more "
  }, 
  "model": "cars.carmodel"
},
{
  "fields": {
    "photo": "http://img1.rnkr-static.com/node_img/50/987092/C350/ferrari-330-automobile-models-photo-1.jpg", 
    "make": 8, 
    "type": "Sports car", 
    "name": " Ferrari 330", 
    "description": "The Ferrari 330 cars are the successor of the 250, first introduced by Ferrari in 1963. The first 330 America was simply a 250 GT/E with a larger engine, and the 330 GTC/GTS shared their chassis with the 275. Only the 330 GT 2+2 was a truly unique product. Production ended in 1968 with the introduction ...more "
  }, 
  "model": "cars.carmodel"
},
{
  "fields": {
    "photo": "http://img1.rnkr-static.com/node_img/50/987074/C350/ferrari-125-s-automobile-models-photo-1.jpg", 
    "make": 8, 
    "type": "Sports car", 
    "name": " Ferrari 125 S", 
    "description": "The Ferrari 125 S was the first vehicle produced and built by automaker Ferrari of Modena, Italy. Although preceded by Enzo Ferrari's Auto Avio Costruzioni 815 of 1940, the 125 S was the first vehicle to bear the Ferrari name when it debuted on May 11, 1947 at the Piacenza racing circuit. Like the 815, ...more "
  }, 
  "model": "cars.carmodel"
},
{
  "fields": {
    "photo": "http://img1.rnkr-static.com/node_img/50/987132/C350/ferrari-mythos-automobile-models-photo-1.jpg", 
    "make": 8, 
    "type": "Coup\u00e9", 
    "name": " Ferrari Mythos", 
    "description": "The Ferrari Mythos was a mid-engine, rear wheel drive concept car designed by Pininfarina and produced by Ferrari in 1989. The radical design was implemented on the platform of the Ferrari Testarossa, which dictated the car's wedge shape and large air intake ahead of the rear wheels. Although not ...more "
  }, 
  "model": "cars.carmodel"
},
{
  "fields": {
    "photo": "http://img1.rnkr-static.com/node_img/50/987121/C350/ferrari-f50-automobile-models-photo-1.jpg", 
    "make": 8, 
    "type": "", 
    "name": " Ferrari F50", 
    "description": "The Ferrari F50 is a mid-engined range-topping sports car made by Ferrari. The F50 was introduced in 1995. The car is a two-door, two seat roadster with a removable hardtop. It has a 4.7 L naturally aspirated 60-valve V12 engine that was developed from the 3.5 L V12 used in the 1990 Ferrari 641 Formula ...more "
  }, 
  "model": "cars.carmodel"
},
{
  "fields": {
    "photo": "http://img1.rnkr-static.com/node_img/50/987134/C350/ferrari-p4-and-5-automobile-models-photo-1.jpg", 
    "make": 8, 
    "type": "Sports car", 
    "name": " Ferrari P4/5 by Pininfarina", 
    "description": "The Ferrari P4/5 is a one-off sports car made by Italian sports car manufacturer Ferrari but redesigned by Pininfarina for film director and stock exchange magnate James Glickenhaus. The car was an Enzo Ferrari but the owner James Glickenhaus preferred the styling of Ferrari's 1960s race cars, the P ...more "
  }, 
  "model": "cars.carmodel"
},
{
  "fields": {
    "photo": "http://img1.rnkr-static.com/node_img/26/516371/C350/auto-avio-costruzioni-815-automobile-models-photo-1.jpg", 
    "make": 8, 
    "type": "Sports car", 
    "name": " Auto Avio Costruzioni 815", 
    "description": "The Auto Avio Costruzioni 815 was the first car to be fully designed and built by Enzo Ferrari. Legal issues with former associates Alfa Romeo prevented Ferrari from creating the Ferrari marque. The 815 raced at the 1940 Brescia Grand Prix, where both entries failed to finish due to engine problems. One ...more "
  }, 
  "model": "cars.carmodel"
},
{
  "fields": {
    "photo": "http://img2.rnkr-static.com/node_img/50/987108/C350/ferrari-berlinetta-boxer-automobile-models-photo-1.jpg", 
    "make": 8, 
    "type": "Sports car", 
    "name": " Ferrari Berlinetta Boxer", 
    "description": "A Ferrari Berlinetta Boxer is one of a series of cars produced by Ferrari in Italy between 1973 and 1984. They used a mid-mounted flat-12 engine, replacing the FR layout Daytona, and were succeeded in the Ferrari stable by the Testarossa. It was designed by Leonardo Fioravanti. Production of the BB was ...more "
  }, 
  "model": "cars.carmodel"
},
{
  "fields": {
    "photo": "http://img2.rnkr-static.com/node_img/50/987139/C350/ferrari-tr-automobile-models-photo-1.jpg", 
    "make": 8, 
    "type": "Sports car", 
    "name": " Ferrari TR", 
    "description": "The Ferrari TR, or 250 Testa Rossa, is a race car model built by Ferrari in the 1950s and 60s. These cars dominated their competitors, with variations winning the 24 Hours of Le Mans in 1958, 1960, and 1961. They were closely related to the rest of the Ferrari 250 line, especially the legendary 250 GTO.more "
  }, 
  "model": "cars.carmodel"
},
{
  "fields": {
    "photo": "http://img2.rnkr-static.com/node_img/50/987095/C350/ferrari-348-automobile-models-photo-1.jpg", 
    "make": 8, 
    "type": "Roadster, Sports car", 
    "name": " Ferrari 348", 
    "description": "The Ferrari 348 is a mid-engined, rear-wheel-drive V8-powered 2-seat sports car by Ferrari S.p.A., replacing the 328 in 1989 and continuing until 1995.\u00a0more "
  }, 
  "model": "cars.carmodel"
},
{
  "fields": {
    "photo": "http://img2.rnkr-static.com/node_img/50/987077/C350/ferrari-166-inter-automobile-models-photo-1.jpg", 
    "make": 8, 
    "type": "Coup\u00e9, Grand tourer", 
    "name": " Ferrari 166 Inter", 
    "description": "The Ferrari 166 Inter was Ferrari's first true grand tourer. An evolution of the 125 S and 166 S racing cars, it was a sports car for the street with coachbuilt bodies. The Inter name commemorated the victories claimed in 166 S models by Scuderia Inter. 37 166 Inters were built from 1948 through 1950.more "
  }, 
  "model": "cars.carmodel"
}
]