[
{
  "fields": {
    "type": "I", 
    "id": 58, 
    "name": "Rear View Mirrors"
  }, 
  "model": "products.productcatalog"
},
{
  "fields": {
    "updated": "2016-10-18T01:46:35.797Z", 
    "name": "Gentex K2 Auto-Dimming Rear View Mirror", 
    "created": "2016-10-18T01:46:35.797Z", 
    "photo": "http://b.cdnbrm.com/images/products/small/driving_accessories/mito_autodim.gif?Lo0P=a21b1faa6035f7024ccfa5f5b4014fa91971", 
    "catalog": 58, 
    "cost": "$139.90", 
    "quantum": 10
  }, 
  "model": "products.product"
},
{
  "fields": {
    "updated": "2016-10-18T01:46:35.797Z", 
    "name": "Gentex K5 Auto-Dimming Rear View Mirror w/Compass", 
    "created": "2016-10-18T01:46:35.797Z", 
    "photo": "http://b.cdnbrm.com/images/products/small/mirrors/mito_k5_auto_dimming_rear_view_mirror.gif?Lo0P=e888cd868c7ce4ec677d95f7ef3af2df3665", 
    "catalog": 58, 
    "cost": "$223.50", 
    "quantum": 10
  }, 
  "model": "products.product"
},
{
  "fields": {
    "updated": "2016-10-18T01:46:35.797Z", 
    "name": "CIPA Rear View Mirror", 
    "created": "2016-10-18T01:46:35.797Z", 
    "photo": "http://b.cdnbrm.com/images/products/small/mirrors/cipa_hero_32000_10_in_rear_view_day-night.gif?Lo0P=424301905e906d7b3c0c9c4b08cf97721867", 
    "catalog": 58, 
    "cost": "$20.99 each", 
    "quantum": 10
  }, 
  "model": "products.product"
},
{
  "fields": {
    "updated": "2016-10-18T01:46:35.797Z", 
    "name": "K-Source Rear View Mirror", 
    "created": "2016-10-18T01:46:35.797Z", 
    "photo": "http://b.cdnbrm.com/images/products/small/side_view_mirrors/k_source_rear_view_mirror_hero.gif?Lo0P=99f837cde6aec6997b18a62334e6301c5689", 
    "catalog": 58, 
    "cost": "$16.99 each", 
    "quantum": 10
  }, 
  "model": "products.product"
},
{
  "fields": {
    "updated": "2016-10-18T01:46:35.797Z", 
    "name": "CIPA Day/Night Rear View Mirror With Map Lights", 
    "created": "2016-10-18T01:46:35.797Z", 
    "photo": "http://b.cdnbrm.com/images/products/small/driving_accessories/cipa_DayNight-Rear-View-Mirror-With-Map-Lights_36000.gif?Lo0P=4313e8031cac842f52997fa004ea1f5d2839", 
    "catalog": 58, 
    "cost": "$54.99", 
    "quantum": 10
  }, 
  "model": "products.product"
},
{
  "fields": {
    "updated": "2016-10-18T01:46:35.797Z", 
    "name": "K-Source Clip-On Rear View Mirror", 
    "created": "2016-10-18T01:46:35.797Z", 
    "photo": "http://b.cdnbrm.com/images/products/small/side_view_mirrors/k_source_clip_on_rear_view_mirror_hero.gif?Lo0P=5b080f6fd48153225f23c76bf75a65e13728", 
    "catalog": 58, 
    "cost": "$12.99 each", 
    "quantum": 10
  }, 
  "model": "products.product"
},
{
  "fields": {
    "updated": "2016-10-18T01:46:35.797Z", 
    "name": "CIPA Panoramic Rear View Mirror", 
    "created": "2016-10-18T01:46:35.797Z", 
    "photo": "http://b.cdnbrm.com/images/products/small/mirrors/cipa_panoramic_rearview_mirror.gif?Lo0P=75347e7226fb353ddcef06c9d7a057e52626", 
    "catalog": 58, 
    "cost": "$19.99 each", 
    "quantum": 10
  }, 
  "model": "products.product"
},
{
  "fields": {
    "updated": "2016-10-18T01:46:35.797Z", 
    "name": "Gentex Rearview Camera Display Mirror", 
    "created": "2016-10-18T01:46:35.797Z", 
    "photo": "http://b.cdnbrm.com/images/products/small/mirrors/mito_rcd_mirror.gif?Lo0P=e78836032ff826871b1f25ed07ffec9d1793", 
    "catalog": 58, 
    "cost": "$380.95", 
    "quantum": 10
  }, 
  "model": "products.product"
},
{
  "fields": {
    "updated": "2016-10-18T01:46:35.797Z", 
    "name": "CIPA Auto-Dimming Rear View Mirrors", 
    "created": "2016-10-18T01:46:35.797Z", 
    "photo": "http://b.cdnbrm.com/images/products/small/mirrors/cipa_hero_auto_dimming_mirror_36500.gif?Lo0P=b2f4efbbb72ed808adb6a2283ef0fe1b2937", 
    "catalog": 58, 
    "cost": "$199.99 each", 
    "quantum": 10
  }, 
  "model": "products.product"
}
]