[
{
  "fields": {
    "type": "O", 
    "id": 75, 
    "name": "Car Horns"
  }, 
  "model": "products.productcatalog"
},
{
  "fields": {
    "updated": "2016-10-18T01:46:35.797Z", 
    "name": "Kleinn Pro Blaster Compact Air Horn Kits", 
    "created": "2016-10-18T01:46:35.797Z", 
    "photo": "http://b.cdnbrm.com/images/products/small/car_horns/kleinn_horns_8673_hk4-1.gif?Lo0P=c1c9db8ec2745a9bb8c2c1a897383e965499", 
    "catalog": 75, 
    "cost": "$254.95 /kit", 
    "quantum": 10
  }, 
  "model": "products.product"
},
{
  "fields": {
    "updated": "2016-10-18T01:46:35.797Z", 
    "name": "Kleinn Bolt-On Air Horn Kits", 
    "created": "2016-10-18T01:46:35.797Z", 
    "photo": "http://b.cdnbrm.com/images/products/small/car_horns/kleinn_bolt_on_air_horn_kits_hero1.gif?Lo0P=cf2873b66c1fa28171a5d482bd1382c24640", 
    "catalog": 75, 
    "cost": "$399.95 /kit", 
    "quantum": 10
  }, 
  "model": "products.product"
},
{
  "fields": {
    "updated": "2016-10-18T01:46:35.797Z", 
    "name": "Kleinn Pro Blaster Train Air Horn Kits", 
    "created": "2016-10-18T01:46:35.797Z", 
    "photo": "http://b.cdnbrm.com/images/products/small/car_horns/kleinn_horns_8674_hk9.gif?Lo0P=3a4784655cb4dea82b275a0dcb5a59d36189", 
    "catalog": 75, 
    "cost": "$449.95 /kit", 
    "quantum": 10
  }, 
  "model": "products.product"
},
{
  "fields": {
    "updated": "2016-10-18T01:46:35.797Z", 
    "name": "Wolo Big Bad Max Air Horn", 
    "created": "2016-10-18T01:46:35.797Z", 
    "photo": "http://b.cdnbrm.com/images/products/small/car_horns/wolo_big_bad_max_air_horn_hero.gif?Lo0P=7205b611eec425ac546315601bbfdddc5030", 
    "catalog": 75, 
    "cost": "$54.99 each", 
    "quantum": 10
  }, 
  "model": "products.product"
},
{
  "fields": {
    "updated": "2016-10-18T01:46:35.797Z", 
    "name": "Hella Supertone Horn", 
    "created": "2016-10-18T01:46:35.797Z", 
    "photo": "http://b.cdnbrm.com/images/products/small/car_horns/hella_supertone_horn_hero.gif?Lo0P=cbccd5170c3dcc78a746d902199be47f5602", 
    "catalog": 75, 
    "cost": "$54.39 /pair", 
    "quantum": 10
  }, 
  "model": "products.product"
},
{
  "fields": {
    "updated": "2016-10-18T01:46:35.797Z", 
    "name": "Wolo Loud One Horn", 
    "created": "2016-10-18T01:46:35.797Z", 
    "photo": "http://b.cdnbrm.com/images/products/small/car_horns/wolo_loud_one_horn_hero.gif?Lo0P=b8079bb26592dce416de83d43a010b864042", 
    "catalog": 75, 
    "cost": "$14.99 each", 
    "quantum": 10
  }, 
  "model": "products.product"
},
{
  "fields": {
    "updated": "2016-10-18T01:46:35.797Z", 
    "name": "Wolo Dukes of Hazzard Air Horn", 
    "created": "2016-10-18T01:46:35.797Z", 
    "photo": "http://b.cdnbrm.com/images/products/small/car_horns/wolo_dukes_of_hazzard_air_horn_hero.gif?Lo0P=a7835163611b4e2ea33ab1eeeca0558c3964", 
    "catalog": 75, 
    "cost": "$79.99 each", 
    "quantum": 10
  }, 
  "model": "products.product"
},
{
  "fields": {
    "updated": "2016-10-18T01:46:35.797Z", 
    "name": "Trigger Horns Evac Trumpet Train Horn Kit", 
    "created": "2016-10-18T01:46:35.797Z", 
    "photo": "http://b.cdnbrm.com/images/products/small/car_horns/trigger_horns_evac_trumpet_train_horn_kit.gif?Lo0P=f769bbca45d7307acb7e31909dbcadd93405", 
    "catalog": 75, 
    "cost": "$62.44 each", 
    "quantum": 10
  }, 
  "model": "products.product"
},
{
  "fields": {
    "updated": "2016-10-18T01:46:35.797Z", 
    "name": "Hella Twin Tone Air Horn", 
    "created": "2016-10-18T01:46:35.797Z", 
    "photo": "http://b.cdnbrm.com/images/products/small/car_horns/hella_twin_tone_air_horn_hero.gif?Lo0P=f6e53d0d19e9275f959ff114c4a088bd3866", 
    "catalog": 75, 
    "cost": "$27.19 /pair", 
    "quantum": 10
  }, 
  "model": "products.product"
},
{
  "fields": {
    "updated": "2016-10-18T01:46:35.797Z", 
    "name": "Wolo Juke Box Horn", 
    "created": "2016-10-18T01:46:35.797Z", 
    "photo": "http://b.cdnbrm.com/images/products/small/car_horns/wolo_juke_box_horn_hero.gif?Lo0P=0ea3115c62ae6a2804f7c21b28eb3d9c4653", 
    "catalog": 75, 
    "cost": "$39.99 each", 
    "quantum": 10
  }, 
  "model": "products.product"
},
{
  "fields": {
    "updated": "2016-10-18T01:46:35.797Z", 
    "name": "Hella Trumpet Horn", 
    "created": "2016-10-18T01:46:35.797Z", 
    "photo": "http://b.cdnbrm.com/images/products/small/car_horns/hella_trumpet_horn_hero.gif?Lo0P=eb06eee0a5eb93f951f63413242fa6583563", 
    "catalog": 75, 
    "cost": "$25.07 /pair", 
    "quantum": 10
  }, 
  "model": "products.product"
},
{
  "fields": {
    "updated": "2016-10-18T01:46:35.797Z", 
    "name": "Trigger Horns The Boss 2-Trumpet Dual-Tone Train Horns", 
    "created": "2016-10-18T01:46:35.797Z", 
    "photo": "http://b.cdnbrm.com/images/products/small/car_horns/trigger_horns_the_boss_2_hero.gif?Lo0P=dda47957b5a9dc9d63f3916b9c27d6b34607", 
    "catalog": 75, 
    "cost": "$111.25 each", 
    "quantum": 10
  }, 
  "model": "products.product"
},
{
  "fields": {
    "updated": "2016-10-18T01:46:35.797Z", 
    "name": "Trigger Horns The Chiti Chiti Vintage Ooogah Electric Horn", 
    "created": "2016-10-18T01:46:35.797Z", 
    "photo": "http://b.cdnbrm.com/images/products/small/car_horns/Trigger_Horns_The_Chiti_Chiti_Vintage_Ooogah_Horn_Kit.gif?Lo0P=dd134ee12d4f722ac053a85fe5c3f08a4433", 
    "catalog": 75, 
    "cost": "$48.75 each", 
    "quantum": 10
  }, 
  "model": "products.product"
},
{
  "fields": {
    "updated": "2016-10-18T01:46:35.797Z", 
    "name": "Trigger Horns V1 Buzz Bomb Vintage Air Raid Siren", 
    "created": "2016-10-18T01:46:35.797Z", 
    "photo": "http://b.cdnbrm.com/images/products/small/car_horns/Trigger_Horns_V1_Buzz_Bomb_Vintage_Air_Raid_Siren.gif?Lo0P=09dfd36b7992467808f19a1c53bae2083817", 
    "catalog": 75, 
    "cost": "$89.99 each", 
    "quantum": 10
  }, 
  "model": "products.product"
},
{
  "fields": {
    "updated": "2016-10-18T01:46:35.797Z", 
    "name": "Hella Triple Tone Air Horn", 
    "created": "2016-10-18T01:46:35.797Z", 
    "photo": "http://b.cdnbrm.com/images/products/small/car_horns/hella_triple_tone_air_horn_hero.gif?Lo0P=6540bd24fb443232542e1fce3f3798d54247", 
    "catalog": 75, 
    "cost": "$36.54", 
    "quantum": 10
  }, 
  "model": "products.product"
},
{
  "fields": {
    "updated": "2016-10-18T01:46:35.797Z", 
    "name": "Trigger Horns Yakaz Super Disc Electric Horns", 
    "created": "2016-10-18T01:46:35.797Z", 
    "photo": "http://b.cdnbrm.com/images/products/small/car_horns/trigger_horns_yakaz_12v_super_disc_horn_kit.gif?Lo0P=47d7c1d6e50ee3645c619fa151b71eb85497", 
    "catalog": 75, 
    "cost": "$43.75 each", 
    "quantum": 10
  }, 
  "model": "products.product"
},
{
  "fields": {
    "updated": "2016-10-18T01:46:35.797Z", 
    "name": "Trigger Horns El Toro Electric Bull Horn", 
    "created": "2016-10-18T01:46:35.797Z", 
    "photo": "http://b.cdnbrm.com/images/products/small/car_horns/trigger_horns_el_toro_electric_bull_hero.gif?Lo0P=ba05fa2a73365503cfacb65919e916694090", 
    "catalog": 75, 
    "cost": "$87.44 each", 
    "quantum": 10
  }, 
  "model": "products.product"
},
{
  "fields": {
    "updated": "2016-10-18T01:46:35.797Z", 
    "name": "Wolo Sonic Blast Horn", 
    "created": "2016-10-18T01:46:35.797Z", 
    "photo": "http://b.cdnbrm.com/images/products/small/car_horns/wolo_sonic_blast_horn_hero.gif?Lo0P=9b0ecb69438a1e1fcd1bf06d2f600ba75159", 
    "catalog": 75, 
    "cost": "$34.99 /pair", 
    "quantum": 10
  }, 
  "model": "products.product"
},
{
  "fields": {
    "updated": "2016-10-18T01:46:35.797Z", 
    "name": "Wolo Back-Up Alarm", 
    "created": "2016-10-18T01:46:35.797Z", 
    "photo": "http://b.cdnbrm.com/images/products/small/car_horns/wolo_back_up_alarm_hero.gif?Lo0P=99b102da9050a3b339ed766ce6c9dda64818", 
    "catalog": 75, 
    "cost": "$19.99 each", 
    "quantum": 10
  }, 
  "model": "products.product"
},
{
  "fields": {
    "updated": "2016-10-18T01:46:35.797Z", 
    "name": "Trigger Horns Installation Relay & Harness Kit", 
    "created": "2016-10-18T01:46:35.797Z", 
    "photo": "http://b.cdnbrm.com/images/products/small/car_horns/trigger_horns_horn_installation_relay_and_harness_kit.gif?Lo0P=e2e24c16d666cbcfaf7b5772aa4159705314", 
    "catalog": 75, 
    "cost": "$49.95 each", 
    "quantum": 10
  }, 
  "model": "products.product"
},
{
  "fields": {
    "updated": "2016-10-18T01:46:35.797Z", 
    "name": "Wolo Long Horns", 
    "created": "2016-10-18T01:46:35.797Z", 
    "photo": "http://b.cdnbrm.com/images/products/small/car_horns/wolo_long_horns_hero.gif?Lo0P=dd9731f89c8a9acadd4e76e0a4c09a5d3309", 
    "catalog": 75, 
    "cost": "$29.99 /kit", 
    "quantum": 10
  }, 
  "model": "products.product"
},
{
  "fields": {
    "updated": "2016-10-18T01:46:35.797Z", 
    "name": "Beck Arnley Horn Relay", 
    "created": "2016-10-18T01:46:35.797Z", 
    "photo": "http://b.cdnbrm.com/images/products/small/car_horns/beck_arnley_horn_relay_hero.gif?Lo0P=e45f9f76375598c0ab92f2e62a3f78e12789", 
    "catalog": 75, 
    "cost": "$8.99 each", 
    "quantum": 10
  }, 
  "model": "products.product"
},
{
  "fields": {
    "updated": "2016-10-18T01:46:35.797Z", 
    "name": "Wolo Air Horn Wiring Kit", 
    "created": "2016-10-18T01:46:35.797Z", 
    "photo": "http://b.cdnbrm.com/images/products/small/car_horns/wolo_air_horn_wiring_kit_hero.gif?Lo0P=d7b48ba30cd316cb8a1db45c60c19e5f4338", 
    "catalog": 75, 
    "cost": "$14.99 /kit", 
    "quantum": 10
  }, 
  "model": "products.product"
},
{
  "fields": {
    "updated": "2016-10-18T01:46:35.797Z", 
    "name": "Wolo Horn Button", 
    "created": "2016-10-18T01:46:35.797Z", 
    "photo": "http://b.cdnbrm.com/images/products/small/car_horns/wolo_horn_button_hero.gif?Lo0P=66d50fec95ff0740d2ce75d23980688e4656", 
    "catalog": 75, 
    "cost": "$10.99 each", 
    "quantum": 10
  }, 
  "model": "products.product"
},
{
  "fields": {
    "updated": "2016-10-18T01:46:35.797Z", 
    "name": "ACDelco Horn Relay", 
    "created": "2016-10-18T01:46:35.797Z", 
    "photo": "http://b.cdnbrm.com/images/products/small/car_audio/acdelco_horn_relay_hero.gif?Lo0P=5eec8c2cc1c4a9c3cec46706aa4003334156", 
    "catalog": 75, 
    "cost": "$7.99 each", 
    "quantum": 10
  }, 
  "model": "products.product"
},
{
  "fields": {
    "updated": "2016-10-18T01:46:35.797Z", 
    "name": "Wolo Cannon Ball Express Train Horns", 
    "created": "2016-10-18T01:46:35.797Z", 
    "photo": "http://b.cdnbrm.com/images/products/small/car_horns/wolo_canon_ball_express_air_horn_hero.gif", 
    "catalog": 75, 
    "cost": "$249.99", 
    "quantum": 10
  }, 
  "model": "products.product"
},
{
  "fields": {
    "updated": "2016-10-18T01:46:35.797Z", 
    "name": "Trigger Horns Los Lobos Vintage Wolf Whistle Horn", 
    "created": "2016-10-18T01:46:35.797Z", 
    "photo": "http://b.cdnbrm.com/images/products/small/car_horns/Trigger_Horns_Los-_Lobos_Vintage_Wolf_Whistle_Horn_Kit.gif?Lo0P=d5ccd32eb730894f2f939fec462ab5174718", 
    "catalog": 75, 
    "cost": "$74.94 each", 
    "quantum": 10
  }, 
  "model": "products.product"
},
{
  "fields": {
    "updated": "2016-10-18T01:46:35.797Z", 
    "name": "Wolo Turbo Compressor & Tank System", 
    "created": "2016-10-18T01:46:35.797Z", 
    "photo": "http://b.cdnbrm.com/images/products/small/car_horns/wolo_turbo_compressor_tank_system_hero.gif?Lo0P=28ace5db0fc6992047a64702c4bfc64a4438", 
    "catalog": 75, 
    "cost": "$279.99 /kit", 
    "quantum": 10
  }, 
  "model": "products.product"
},
{
  "fields": {
    "updated": "2016-10-18T01:46:35.797Z", 
    "name": "Trigger Horns Southern Belle Dixie Horn Kit", 
    "created": "2016-10-18T01:46:35.797Z", 
    "photo": "http://b.cdnbrm.com/images/products/small/car_horns/Trigger_Horns_Southern_Belle_Southern_Dixie_Horn_Kit_v2.gif", 
    "catalog": 75, 
    "cost": "$112.44 each", 
    "quantum": 10
  }, 
  "model": "products.product"
},
{
  "fields": {
    "updated": "2016-10-18T01:46:35.797Z", 
    "name": "Trigger Horns Convoy Single Trumpet Train Horn", 
    "created": "2016-10-18T01:46:35.797Z", 
    "photo": "http://b.cdnbrm.com/images/products/small/car_horns/trigger_horns_convoy_single_trumpet_train_horn_kit.gif?Lo0P=8d79b8121ebfc4dadbb98c5eac3a58232786", 
    "catalog": 75, 
    "cost": "$111.25 each", 
    "quantum": 10
  }, 
  "model": "products.product"
},
{
  "fields": {
    "updated": "2016-10-18T01:46:35.797Z", 
    "name": "Trigger Horns Sniper 2-Trumpet High Output Train Horns", 
    "created": "2016-10-18T01:46:35.797Z", 
    "photo": "http://b.cdnbrm.com/images/products/small/car_horns/trigger_horns_sniper_2_hero.gif?Lo0P=25b728b28cffa2824045d48c5117a7934096", 
    "catalog": 75, 
    "cost": "$111.25 each", 
    "quantum": 10
  }, 
  "model": "products.product"
},
{
  "fields": {
    "updated": "2016-10-18T01:46:35.797Z", 
    "name": "Wolo Mini But Loud Horn", 
    "created": "2016-10-18T01:46:35.797Z", 
    "photo": "http://b.cdnbrm.com/images/products/small/car_horns/wolo_mini_but_loud_horn_hero.gif?Lo0P=1e4d4681cc0e2fe16d5301ee342f1e035210", 
    "catalog": 75, 
    "cost": "$19.99 each", 
    "quantum": 10
  }, 
  "model": "products.product"
},
{
  "fields": {
    "updated": "2016-10-18T01:46:35.797Z", 
    "name": "Trigger Horns The Pods Dual-Tone Turbine Electric Horns", 
    "created": "2016-10-18T01:46:35.797Z", 
    "photo": "http://b.cdnbrm.com/images/products/small/car_horns/trigger_horns_the_pods_electric_dual_tone_turbine_horn_kit.gif?Lo0P=65b8f0c6f6ff2ae1333131ca29df19394132", 
    "catalog": 75, 
    "cost": "$111.25 each", 
    "quantum": 10
  }, 
  "model": "products.product"
},
{
  "fields": {
    "updated": "2016-10-18T01:46:35.797Z", 
    "name": "Trigger Horns The Roach Coach La Cucaracha Air Horn Kit", 
    "created": "2016-10-18T01:46:35.797Z", 
    "photo": "http://b.cdnbrm.com/images/products/small/car_horns/Trigger_Horns_The_Roach_Coach_La_Cucaracha_Air_Horn_Kit.gif?Lo0P=cb1b55384abf1bfa1769105003c5c8c34555", 
    "catalog": 75, 
    "cost": "$74.94 each", 
    "quantum": 10
  }, 
  "model": "products.product"
},
{
  "fields": {
    "updated": "2016-10-18T01:46:35.797Z", 
    "name": "Trigger Horns Trigger Billet Buttons", 
    "created": "2016-10-18T01:46:35.797Z", 
    "photo": "http://b.cdnbrm.com/images/products/small/car_horns/trigger_horns_trigger_billet_buttons.gif?Lo0P=2caa5b91d1d0c95e6d7dae68f1504d514861", 
    "catalog": 75, 
    "cost": "$59.95 each", 
    "quantum": 10
  }, 
  "model": "products.product"
},
{
  "fields": {
    "updated": "2016-10-18T01:46:35.797Z", 
    "name": "Wolo Power Play", 
    "created": "2016-10-18T01:46:35.797Z", 
    "photo": "http://b.cdnbrm.com/images/products/small/car_horns/wolo_power_play_hero.gif?Lo0P=2455c96af4f59a2a77f6222a16e0e6f44717", 
    "catalog": 75, 
    "cost": "$59.99 /kit", 
    "quantum": 10
  }, 
  "model": "products.product"
},
{
  "fields": {
    "updated": "2016-10-18T01:46:35.797Z", 
    "name": "Wolo Beep Beep Horn", 
    "created": "2016-10-18T01:46:35.797Z", 
    "photo": "http://b.cdnbrm.com/images/products/small/car_horns/wolo_beep_beep_horn_hero.gif?Lo0P=44c2fbb5147042bcd7718d98edb8a37b3545", 
    "catalog": 75, 
    "cost": "$39.99 each", 
    "quantum": 10
  }, 
  "model": "products.product"
},
{
  "fields": {
    "updated": "2016-10-18T01:46:35.797Z", 
    "name": "Wolo Bad Boy Dual Tone Air Horn", 
    "created": "2016-10-18T01:46:35.797Z", 
    "photo": "http://b.cdnbrm.com/images/products/small/car_horns/wolo_bad_boy_dual_air_horn_hero.gif", 
    "catalog": 75, 
    "cost": "$52.99 each", 
    "quantum": 10
  }, 
  "model": "products.product"
},
{
  "fields": {
    "updated": "2016-10-18T01:46:35.797Z", 
    "name": "Trigger Horns The Olsen Dual-Tone Twin Disc Electric Horns", 
    "created": "2016-10-18T01:46:35.797Z", 
    "photo": "http://b.cdnbrm.com/images/products/small/car_horns/trigger_horns_the_olsen_dual_tone_twin_disc_horn_kit.gif?Lo0P=4ea102f368c2002cb78b5aca7f233d4d6127", 
    "catalog": 75, 
    "cost": "$43.75 each", 
    "quantum": 10
  }, 
  "model": "products.product"
}
]