[
{
  "fields": {
    "photo": "http://img3.rnkr-static.com/user_node_img/608/12149037/C350/u1.jpg", 
    "make": 11, 
    "type": "Coup\u00e9, Roadster, Sports car", 
    "name": "Nissan 350Z", 
    "description": "The Nissan 350Z is a sports car made by Nissan.\u00a0more "
  }, 
  "model": "cars.carmodel"
},
{
  "fields": {
    "photo": "http://img1.rnkr-static.com/node_img/85/1683767/C350/nissan-maxima-automobile-models-photo-1.jpg", 
    "make": 11, 
    "type": "Compact car, Mid-size car, Full-size car", 
    "name": "Nissan Maxima", 
    "description": "The Nissan Maxima is an executive car manufactured by Nissan, marketed as the \"four-door sports car\". The origins of the Maxima began in July 1976 as the Datsun 810, an upscale six-cylinder version of the Nissan Bluebird, and was spun into its own line in 1981, having been made continuously since then.more "
  }, 
  "model": "cars.carmodel"
},
{
  "fields": {
    "photo": "http://img1.rnkr-static.com/user_node_img/3162/63233044/C350/nissan-leaf-u3.jpg", 
    "make": 11, 
    "type": "Electric car", 
    "name": "Nissan Leaf", 
    "description": "The Nissan Leaf is a compact five-door hatchback electric car manufactured by Nissan and introduced in Japan and the United States in December 2010. The US Environmental Protection Agency official range for the 2013 model year Leaf is 121 km and rated the Leaf's combined fuel economy at 115 miles per US ...more "
  }, 
  "model": "cars.carmodel"
},
{
  "fields": {
    "photo": "http://img1.rnkr-static.com/node_img/85/1683773/C350/nissan-murano-automobile-models-photo-2.jpg", 
    "make": 11, 
    "type": "Mid-size car, Sport utility vehicle, Crossover SUV", 
    "name": "Nissan Murano", 
    "description": "The Nissan Murano is a mid-size crossover SUV first sold by Nissan in December 2002 as a 2003 model. Nissan introduced the Murano as its first crossover SUV for the United States and Canada. Initially designed at Nissan America in La Jolla, California, the first generation Murano was based on the Nissan ...more "
  }, 
  "model": "cars.carmodel"
},
{
  "fields": {
    "photo": "http://img2.rnkr-static.com/node_img/85/1683838/C350/datsun-and-nissan-z-car-automobile-models-photo-1.jpg", 
    "make": 11, 
    "type": "Grand tourer, Sports car", 
    "name": "Datsun/Nissan Z-car", 
    "description": "The Z-car is a series of sports cars manufactured by Nissan Motors Ltd.. The original Z was sold in October 1969 in Japan as the Nissan Fairlady Z and was sold in Japan at Nissan Exhibition dealerships that previously sold the Nissan Bluebird. It was exported as the Datsun 240Z. Since 2009 Nissan has ...more "
  }, 
  "model": "cars.carmodel"
},
{
  "fields": {
    "photo": "http://img2.rnkr-static.com/node_img/85/1683792/C350/nissan-primera-automobile-models-photo-1.jpg", 
    "make": 11, 
    "type": "Large family car, Hatchback, Sedan, Family car, Station Wagon", 
    "name": "Nissan Primera", 
    "description": "The Nissan Primera was a large family car produced by the Japanese automaker Nissan for the Japanese and European markets. In Japan, it replaced the Nissan Langley, and was exclusive to Nissan Prince Store locations. It was a platform upgrade, with engine performance and suspension modifications of the ...more "
  }, 
  "model": "cars.carmodel"
},
{
  "fields": {
    "photo": "http://img1.rnkr-static.com/node_img/85/1683807/C350/nissan-s-cargo-automobile-models-photo-1.jpg", 
    "make": 11, 
    "type": "Van", 
    "name": "Nissan S-Cargo", 
    "description": "The Nissan S-Cargo is a small retro commercial van manufactured by Nissan. The styling of the S-Cargo was directly inspired by the appearance of the small postwar French Citro\u00ebn 2CV Fourgonnette delivery van; it even used a Citro\u00ebn style single spoke steering wheel. The 2CV was in its final years of ...more "
  }, 
  "model": "cars.carmodel"
},
{
  "fields": {
    "photo": "http://img1.rnkr-static.com/node_img/85/1683710/C350/nissan-almera-automobile-models-photo-1.jpg", 
    "make": 11, 
    "type": "Compact car", 
    "name": "Nissan Almera", 
    "description": "The Nissan Almera was a small family car produced by the Japanese manufacturer Nissan from 1995 to 2006. It was essentially the European export-market version of the contemporary Nissan Pulsar, the first generation, and of the Nissan Bluebird Sylphy, the second generation. The name is currently also ...more "
  }, 
  "model": "cars.carmodel"
}
]