[
{
  "fields": {
    "photo": "http://img2.rnkr-static.com/node_img/85/1683825/C350/nissan-titan-automobile-models-photo-1.jpg", 
    "make": 11, 
    "type": "Full-size car, Pickup truck", 
    "name": "Nissan Titan", 
    "description": "The Nissan Titan is a full-size pickup truck manufactured in the United States for the North American market by Nissan. The Titan was introduced in 2003 and introduced the full-size Nissan F-Alpha platform, shared with the Nissan Armada and Infiniti QX56 SUVs, which are both derived from the Titan with ...more "
  }, 
  "model": "cars.carmodel"
},
{
  "fields": {
    "photo": "http://img2.rnkr-static.com/node_img/85/1683783/C350/nissan-pathfinder-automobile-models-photo-1.jpg", 
    "make": 11, 
    "type": "Compact sport utility vehicle, Mid-size car, Sport utility vehicle, Crossover SUV", 
    "name": "Nissan Pathfinder", 
    "description": "The Nissan Pathfinder is a CUV manufactured by Nissan Motors since 1985, derived from Nissan's compact pickup truck platform. The Pathfinder is slotted in size between the Murano and Armada or Patrol, but in price between the Xterra and Murano. The Pathfinder's traditional Japanese competitor is the ...more "
  }, 
  "model": "cars.carmodel"
},
{
  "fields": {
    "photo": "http://img2.rnkr-static.com/node_img/85/1683836/C350/nissan-xterra-automobile-models-photo-1.jpg", 
    "make": 11, 
    "type": "Compact sport utility vehicle, Sport utility vehicle", 
    "name": "Nissan Xterra", 
    "description": "The Nissan Xterra is an SUV built on the Nissan F-Alpha platform by Nissan Motors. It is based on the Nissan Frontier pickup and is named after the XTERRA off-road triathlon race series that Nissan sponsored from 1998 to 2006.\u00a0more "
  }, 
  "model": "cars.carmodel"
},
{
  "fields": {
    "photo": "http://img2.rnkr-static.com/node_img/85/1683814/C350/nissan-skyline-automobile-models-photo-1.jpg", 
    "make": 11, 
    "type": "Compact car, Mid-size car, Coup\u00e9, Sports car", 
    "name": "Nissan Skyline", 
    "description": "The Nissan Skyline is a line of compact cars, sports cars and compact executive cars originally produced by the Prince Motor Company starting in 1955, and then by Nissan after the two companies merged in 1966. After the merger, the Skyline and its larger counterpart, the Nissan Gloria, were sold in ...more "
  }, 
  "model": "cars.carmodel"
},
{
  "fields": {
    "photo": "http://img1.rnkr-static.com/node_img/85/1683793/C350/nissan-pulsar-automobile-models-photo-1.jpg", 
    "make": 11, 
    "type": "Hatchback, Sedan, Coup\u00e9", 
    "name": "Nissan Pulsar", 
    "description": "The Nissan Pulsar is a compact car produced by the Japanese automaker Nissan from 1978 until 2000, when it was replaced by the Nissan Bluebird Sylphy in the Japanese market. Between 2000 and 2005, and then since 2012, the name \"Pulsar\" has been used in Australia and select Asian countries on rebadged ...more "
  }, 
  "model": "cars.carmodel"
},
{
  "fields": {
    "photo": "http://img2.rnkr-static.com/node_img/85/1683704/C350/nissan-240z-automobile-models-photo-1.jpg", 
    "make": 11, 
    "type": "Hatchback, Sports car", 
    "name": "Nissan S30", 
    "description": "The Nissan S30 was the first generation of Z GT two-seat coupe, produced by Nissan Motors, Ltd. of Japan from 1969 to 1978. It was designed by a team led by Mr. Yoshihiko Matsuo, the head of Nissan's Sports Car Styling Studio. HLS30 was the designation of the left-hand drive model and HS30 for the ...more "
  }, 
  "model": "cars.carmodel"
},
{
  "fields": {
    "photo": "http://img1.rnkr-static.com/node_img/85/1683821/C350/nissan-sunny-automobile-models-photo-1.jpg", 
    "make": 11, 
    "type": "Sedan, Subcompact car, Coup\u00e9, Station Wagon, Van", 
    "name": "Nissan Sunny", 
    "description": "The Nissan Sunny is a compact car built by the Japanese automaker Nissan from 1966 to 2006. It was launched in 1966 as the Datsun 1000 and although production in Japan ended in 2006, the name remains in use in the Chinese market. In the US, the later models were known as the Nissan Sentra; in Mexico, ...more "
  }, 
  "model": "cars.carmodel"
},
{
  "fields": {
    "photo": "http://img3.rnkr-static.com/user_node_img/85/1683707/C350/the-third-generation-_z31_-300zx-u1.jpg", 
    "make": 11, 
    "type": "", 
    "name": "The Third Generation (Z31): 300ZX", 
    "description": "300ZX is the name given, in much of the world, to the \"Z31\" and \"Z32\" generations of Nissan's Z sports car. Like all other versions of the Z-Car, it was sold in Japan as the Fairlady Z, regardless of model year. Sold on the Japanese market exclusively at Nissan Bluebird Store locations from 1983 through ...more "
  }, 
  "model": "cars.carmodel"
}
]