[
{
  "fields": {
    "photo": "http://img2.rnkr-static.com/node_img/85/1683750/C350/nissan-gt-r-automobile-models-photo-1.jpg", 
    "make": 11, 
    "type": "Coup\u00e9, Sports car", 
    "name": "Nissan GT-R", 
    "description": "The Nissan GT-R is a 2-door 2+2 sports coup\u00e9 produced by Nissan and first released in Japan in 2007. It is the successor to the Nissan Skyline GT-R although it is no longer part of the Skyline range.\u00a0more "
  }, 
  "model": "cars.carmodel"
},
{
  "fields": {
    "photo": "http://img2.rnkr-static.com/node_img/85/1683711/C350/nissan-altima-automobile-models-photo-1.jpg", 
    "make": 11, 
    "type": "Compact car, Mid-size car", 
    "name": "Nissan Altima", 
    "description": "The Nissan Altima is a mid-size car manufactured by Nissan, and is a continuation of the Nissan Bluebird line, which began in 1957. It is the #1 selling Nissan model. The Altima primarily competes in the mainstream mid-size sedan class in the United States against its main rivals, the Toyota Camry and ...more "
  }, 
  "model": "cars.carmodel"
},
{
  "fields": {
    "photo": "http://img1.rnkr-static.com/node_img/1654/33068449/C350/nissan-370z-automobile-models-photo-2.jpg", 
    "make": 11, 
    "type": "Coup\u00e9, Roadster, Sports car", 
    "name": "Nissan 370Z", 
    "description": "The Nissan 370Z is a sports car manufactured by Nissan Motors. It was announced on October 29, 2008 and was first shown at an event in Los Angeles ahead of the 2008 Greater LA Auto Show, before being officially unveiled at the show itself. The 370Z is the sixth-generation of the Nissan Z-car line, ...more "
  }, 
  "model": "cars.carmodel"
},
{
  "fields": {
    "photo": "http://img2.rnkr-static.com/node_img/85/1683730/C350/nissan-cube-automobile-models-photo-1.jpg", 
    "make": 11, 
    "type": "Hatchback, Subcompact car", 
    "name": "Nissan Cube", 
    "description": "The Nissan Cube is a mini MPV produced by Japanese carmaker Nissan since 1998. Initially sold only in Japan, the Cube has been sold in North American and European markets since 2009, although discontinued in Europe in 2011. In Japan, it is exclusive to Japanese Nissan dealerships called Nissan Red Stage ...more "
  }, 
  "model": "cars.carmodel"
},
{
  "fields": {
    "photo": "http://img2.rnkr-static.com/node_img/85/1683806/C350/nissan-rogue-automobile-models-photo-1.jpg", 
    "make": 11, 
    "type": "Compact sport utility vehicle, Hatchback, Sport utility vehicle, Crossover SUV", 
    "name": "Nissan Rogue", 
    "description": "The Nissan Rogue is a mid-size crossover SUV that debuted in October 2007 for the 2008 model year, produced by the Japanese automaker Nissan. It is the North American version of the European-designed Qashqai, known as the Dualis in Japan and Australia. The Nissan Rogue made its debut at the North ...more "
  }, 
  "model": "cars.carmodel"
},
{
  "fields": {
    "photo": "http://img1.rnkr-static.com/node_img/85/1683828/C350/nissan-versa-automobile-models-photo-1.jpg", 
    "make": 11, 
    "type": "", 
    "name": "Nissan Versa", 
    "description": ""
  }, 
  "model": "cars.carmodel"
},
{
  "fields": {
    "photo": "http://img1.rnkr-static.com/user_node_img/85/1683811/C350/nissan-sentra-u2.jpg", 
    "make": 11, 
    "type": "Compact car, Subcompact car", 
    "name": "Nissan Sentra", 
    "description": "The Nissan Sentra is a compact car produced by automaker Nissan Motors and is generally a rebadged export version of the Japanese Nissan Sunny until 2006. As of 2013 it is the rebadged export version of the Japanese Nissan Sylphy. The \"Nissan Sentra\" nameplate is not used in Japan. In the United States, ...more "
  }, 
  "model": "cars.carmodel"
},
{
  "fields": {
    "photo": "http://img2.rnkr-static.com/node_img/85/1683797/C350/nissan-quest-automobile-models-photo-1.jpg", 
    "make": 11, 
    "type": "Minivan", 
    "name": "Nissan Quest", 
    "description": "The Nissan Quest is a minivan manufactured since 1992 by Nissan, and is now in its fourth generation. The first two generations of the Quest were a joint venture with Ford, which marketed a rebadged variant as the Mercury Villager. The vans debuted at the 1992 North American International Auto Show in ...more "
  }, 
  "model": "cars.carmodel"
}
]