[
{
  "fields": {
    "type": "E", 
    "id": 31, 
    "name": "Bike Racks"
  }, 
  "model": "products.productcatalog"
},
{
  "fields": {
    "updated": "2016-10-18T01:46:35.797Z", 
    "name": "SeaSucker Talon Bike Rack", 
    "created": "2016-10-18T01:46:35.797Z", 
    "photo": "http://b.cdnbrm.com/images/products/small/bike_ski_racks/seasucker_talon_bike_rack_hero.gif", 
    "catalog": 31, 
    "cost": "$270.00 each", 
    "quantum": 10
  }, 
  "model": "products.product"
},
{
  "fields": {
    "updated": "2016-10-18T01:46:35.797Z", 
    "name": "Thule T2 Hitch Mount Bike Rack", 
    "created": "2016-10-18T01:46:35.797Z", 
    "photo": "http://b.cdnbrm.com/images/products/small/bike_ski_racks/thule_t2_pro_oc_01_9035_9034_hero.gif", 
    "catalog": 31, 
    "cost": "$399.95", 
    "quantum": 10
  }, 
  "model": "products.product"
},
{
  "fields": {
    "updated": "2016-10-18T01:46:35.797Z", 
    "name": "Yakima Ridgeback Hitch Mount Bike Rack", 
    "created": "2016-10-18T01:46:35.797Z", 
    "photo": "http://b.cdnbrm.com/images/products/small/bike_ski_racks/yakima_ridgeback_hitch_mount_bike_rack_hero.gif", 
    "catalog": 31, 
    "cost": "$207.20", 
    "quantum": 10
  }, 
  "model": "products.product"
},
{
  "fields": {
    "updated": "2016-10-18T01:46:35.797Z", 
    "name": "Kuat NV Hitch Mount Bike Rack", 
    "created": "2016-10-18T01:46:35.797Z", 
    "photo": "http://b.cdnbrm.com/images/products/small/bike_ski_racks/kuat_nv_hitchmountbikerack_angle_foldedup_hero.gif", 
    "catalog": 31, 
    "cost": "$429.00", 
    "quantum": 10
  }, 
  "model": "products.product"
},
{
  "fields": {
    "updated": "2016-10-18T01:46:35.797Z", 
    "name": "Yakima SwingDaddy Bike Rack", 
    "created": "2016-10-18T01:46:35.797Z", 
    "photo": "http://b.cdnbrm.com/images/products/small/bike_ski_racks/yakima_swingdaddy.gif", 
    "catalog": 31, 
    "cost": "$319.20", 
    "quantum": 10
  }, 
  "model": "products.product"
},
{
  "fields": {
    "updated": "2016-10-18T01:46:35.797Z", 
    "name": "SeaSucker Mini Bomber Bike Rack", 
    "created": "2016-10-18T01:46:35.797Z", 
    "photo": "http://b.cdnbrm.com/images/products/small/bike_ski_racks/seasucker_mini_bomber_bike_rack_hero.gif", 
    "catalog": 31, 
    "cost": "$400.00 each", 
    "quantum": 10
  }, 
  "model": "products.product"
},
{
  "fields": {
    "updated": "2016-10-18T01:46:35.797Z", 
    "name": "Yakima HoldUp Bike Rack", 
    "created": "2016-10-18T01:46:35.797Z", 
    "photo": "http://b.cdnbrm.com/images/products/small/bike_ski_racks/4013_yakima_hero2in.gif", 
    "catalog": 31, 
    "cost": "$359.20", 
    "quantum": 10
  }, 
  "model": "products.product"
},
{
  "fields": {
    "updated": "2016-10-18T01:46:35.797Z", 
    "name": "INNO Tire Hold Hitch Bike Rack", 
    "created": "2016-10-18T01:46:35.797Z", 
    "photo": "http://b.cdnbrm.com/images/products/small/bike_ski_racks/inno_tire_hold_hitch_bike_rack.gif", 
    "catalog": 31, 
    "cost": "$409.49 each", 
    "quantum": 10
  }, 
  "model": "products.product"
},
{
  "fields": {
    "updated": "2016-10-18T01:46:35.797Z", 
    "name": "Yakima TwoTimer Hitch Mount Bike Rack", 
    "created": "2016-10-18T01:46:35.797Z", 
    "photo": "http://b.cdnbrm.com/images/products/small/bike_ski_racks/yakima_twotimer_hitch_mount_bike_rack_hero.gif", 
    "catalog": 31, 
    "cost": "$239.20", 
    "quantum": 10
  }, 
  "model": "products.product"
},
{
  "fields": {
    "updated": "2016-10-18T01:46:35.797Z", 
    "name": "Yakima FourTimer Hitch Mount Bike Rack", 
    "created": "2016-10-18T01:46:35.797Z", 
    "photo": "http://b.cdnbrm.com/images/products/small/bike_ski_racks/yakima_fourtimer_hitch_mount_bike_rack_hero.gif", 
    "catalog": 31, 
    "cost": "$399.20", 
    "quantum": 10
  }, 
  "model": "products.product"
},
{
  "fields": {
    "updated": "2016-10-18T01:46:35.797Z", 
    "name": "RockyMounts TomaHawk Roof Bike Rack", 
    "created": "2016-10-18T01:46:35.797Z", 
    "photo": "http://b.cdnbrm.com/images/products/small/bike_ski_racks/rockymounts_tomahawk_roofrack_hero.gif", 
    "catalog": 31, 
    "cost": "$149.95 each", 
    "quantum": 10
  }, 
  "model": "products.product"
},
{
  "fields": {
    "updated": "2016-10-18T01:46:35.797Z", 
    "name": "Thule Parkway Bike Rack", 
    "created": "2016-10-18T01:46:35.797Z", 
    "photo": "http://b.cdnbrm.com/images/products/small/bike_ski_racks/thule_parkway_bike_rack_hero.gif", 
    "catalog": 31, 
    "cost": "$199.95", 
    "quantum": 10
  }, 
  "model": "products.product"
},
{
  "fields": {
    "updated": "2016-10-18T01:46:35.797Z", 
    "name": "Yakima FullSwing Hitch Mount Bike Rack", 
    "created": "2016-10-18T01:46:35.797Z", 
    "photo": "http://b.cdnbrm.com/images/products/small/bike_ski_racks/yakima_fullswing_hitch_mount_bike_rack_hero.gif", 
    "catalog": 31, 
    "cost": "$399.20", 
    "quantum": 10
  }, 
  "model": "products.product"
},
{
  "fields": {
    "updated": "2016-10-18T01:46:35.797Z", 
    "name": "Saris Bones Trunk Mount Bike Rack", 
    "created": "2016-10-18T01:46:35.797Z", 
    "photo": "http://b.cdnbrm.com/images/products/small/bike_ski_racks/saris_bones_trunk_mount_bike_rack_hero.gif", 
    "catalog": 31, 
    "cost": "$149.99", 
    "quantum": 10
  }, 
  "model": "products.product"
},
{
  "fields": {
    "updated": "2016-10-18T01:46:35.797Z", 
    "name": "Kuat Transfer Hitch Mount Bike Rack", 
    "created": "2016-10-18T01:46:35.797Z", 
    "photo": "http://b.cdnbrm.com/images/products/small/bike_ski_racks/kuat_transfer_hitch_mount_bike_rack_hero.gif", 
    "catalog": 31, 
    "cost": "$289.00", 
    "quantum": 10
  }, 
  "model": "products.product"
},
{
  "fields": {
    "updated": "2016-10-18T01:46:35.797Z", 
    "name": "Swagman XTC Cross Country Bike Rack", 
    "created": "2016-10-18T01:46:35.797Z", 
    "photo": "http://b.cdnbrm.com/images/products/small/bike_ski_racks/swagman_xtc_cross_country_bike_rack.gif", 
    "catalog": 31, 
    "cost": "$213.30", 
    "quantum": 10
  }, 
  "model": "products.product"
},
{
  "fields": {
    "updated": "2016-10-18T01:46:35.797Z", 
    "name": "INNO Velo Gripper Truck Bed Bike Rack", 
    "created": "2016-10-18T01:46:35.797Z", 
    "photo": "http://b.cdnbrm.com/images/products/small/bike_ski_racks/INNO_Velo_GRipper_truck_bed_bike_rack.gif", 
    "catalog": 31, 
    "cost": "$76.49 each", 
    "quantum": 10
  }, 
  "model": "products.product"
},
{
  "fields": {
    "updated": "2016-10-18T01:46:35.797Z", 
    "name": "Yakima SKS Lock Cores", 
    "created": "2016-10-18T01:46:35.797Z", 
    "photo": "http://b.cdnbrm.com/images/products/small/bike_ski_racks/yakima_sks_locks.gif", 
    "catalog": 31, 
    "cost": "$31.20 /kit", 
    "quantum": 10
  }, 
  "model": "products.product"
},
{
  "fields": {
    "updated": "2016-10-18T01:46:35.797Z", 
    "name": "Yakima FrontLoader Bike Rack", 
    "created": "2016-10-18T01:46:35.797Z", 
    "photo": "http://b.cdnbrm.com/images/products/small/bike_ski_racks/yakima_frontloader.gif", 
    "catalog": 31, 
    "cost": "$151.20", 
    "quantum": 10
  }, 
  "model": "products.product"
},
{
  "fields": {
    "updated": "2016-10-18T01:46:35.797Z", 
    "name": "INNO Tire Hold Roof Bike Rack", 
    "created": "2016-10-18T01:46:35.797Z", 
    "photo": "http://b.cdnbrm.com/images/products/small/bike_ski_racks/inno_tire_hold_roof_bike_rack.gif", 
    "catalog": 31, 
    "cost": "$206.99 each", 
    "quantum": 10
  }, 
  "model": "products.product"
},
{
  "fields": {
    "updated": "2016-10-18T01:46:35.797Z", 
    "name": "Yakima FullTilt Hitch Mount Bike Rack", 
    "created": "2016-10-18T01:46:35.797Z", 
    "photo": "http://b.cdnbrm.com/images/products/small/bike_ski_racks/yakima_fulltilt_hitch_mount_bike_rack_hero.gif", 
    "catalog": 31, 
    "cost": "$335.20", 
    "quantum": 10
  }, 
  "model": "products.product"
},
{
  "fields": {
    "updated": "2016-10-18T01:46:35.797Z", 
    "name": "Pro Series Q-Slot Hitch Mount Bike Rack", 
    "created": "2016-10-18T01:46:35.797Z", 
    "photo": "http://b.cdnbrm.com/images/products/small/bike_ski_racks/cequent_pro_series_q_slot_hero.gif", 
    "catalog": 31, 
    "cost": "$129.99", 
    "quantum": 10
  }, 
  "model": "products.product"
},
{
  "fields": {
    "updated": "2016-10-18T01:46:35.797Z", 
    "name": "Kuat Beta Hitch Mount Bike Rack", 
    "created": "2016-10-18T01:46:35.797Z", 
    "photo": "http://b.cdnbrm.com/images/products/small/bike_ski_racks/kuat_beta_hitch_mount_bike_rack_hero.gif", 
    "catalog": 31, 
    "cost": "$195.00", 
    "quantum": 10
  }, 
  "model": "products.product"
},
{
  "fields": {
    "updated": "2016-10-18T01:46:35.797Z", 
    "name": "RockyMounts DriveShaft Track Thru-Axle Bike Rack", 
    "created": "2016-10-18T01:46:35.797Z", 
    "photo": "http://b.cdnbrm.com/images/products/small/bike_ski_racks/rockymounts_driveshaft_track_thru_axle_bike_rack_hero.gif", 
    "catalog": 31, 
    "cost": "$79.95 each", 
    "quantum": 10
  }, 
  "model": "products.product"
},
{
  "fields": {
    "updated": "2016-10-18T01:46:35.797Z", 
    "name": "Thule Raceway Trunk Bike Rack", 
    "created": "2016-10-18T01:46:35.797Z", 
    "photo": "http://b.cdnbrm.com/images/products/small/bike_ski_racks/thule5368_raceway2_hero.gif", 
    "catalog": 31, 
    "cost": "$339.95", 
    "quantum": 10
  }, 
  "model": "products.product"
},
{
  "fields": {
    "updated": "2016-10-18T01:46:35.797Z", 
    "name": "Thule Lock Cylinders", 
    "created": "2016-10-18T01:46:35.797Z", 
    "photo": "http://b.cdnbrm.com/images/products/small/bike_ski_racks/thule_lock_cylinders_hero.gif", 
    "catalog": 31, 
    "cost": "$39.95", 
    "quantum": 10
  }, 
  "model": "products.product"
},
{
  "fields": {
    "updated": "2016-10-18T01:46:35.797Z", 
    "name": "Saris Freedom SuperClamp Hitch Mount Bike Rack", 
    "created": "2016-10-18T01:46:35.797Z", 
    "photo": "http://b.cdnbrm.com/images/products/small/bike_ski_racks/saris_freedom_superclamp_hitch_mount_bike_rack_hero.gif", 
    "catalog": 31, 
    "cost": "$429.99", 
    "quantum": 10
  }, 
  "model": "products.product"
},
{
  "fields": {
    "updated": "2016-10-18T01:46:35.797Z", 
    "name": "Thule EasyFold 9032 Hitch Mount Bike Rack", 
    "created": "2016-10-18T01:46:35.797Z", 
    "photo": "http://b.cdnbrm.com/images/products/small/bike_ski_racks/thule_easyfold_9032_hitch_mount_bike_rack_hero.gif", 
    "catalog": 31, 
    "cost": "$699.95", 
    "quantum": 10
  }, 
  "model": "products.product"
},
{
  "fields": {
    "updated": "2016-10-18T01:46:35.797Z", 
    "name": "Rhino-Rack Hitch Mounted Bike Carrier", 
    "created": "2016-10-18T01:46:35.797Z", 
    "photo": "http://b.cdnbrm.com/images/products/small/bike_ski_racks/rhino_rack_hitch_mounted_bike_rack_hero.gif", 
    "catalog": 31, 
    "cost": "$152.10 each", 
    "quantum": 10
  }, 
  "model": "products.product"
},
{
  "fields": {
    "updated": "2016-10-18T01:46:35.797Z", 
    "name": "Softride Access Dura 4-Bike Rack", 
    "created": "2016-10-18T01:46:35.797Z", 
    "photo": "http://b.cdnbrm.com/images/products/small/bike_ski_racks/softride_access_dura_4-Bike_rack2.gif", 
    "catalog": 31, 
    "cost": "$299.99", 
    "quantum": 10
  }, 
  "model": "products.product"
},
{
  "fields": {
    "updated": "2016-10-18T01:46:35.797Z", 
    "name": "Kuat Sherpa Hitch Mount Bike Rack", 
    "created": "2016-10-18T01:46:35.797Z", 
    "photo": "http://b.cdnbrm.com/images/products/small/bike_ski_racks/kuat_sherpa_hitch_mount_bike_rack_hero_1.gif", 
    "catalog": 31, 
    "cost": "$489.00", 
    "quantum": 10
  }, 
  "model": "products.product"
},
{
  "fields": {
    "updated": "2016-10-18T01:46:35.797Z", 
    "name": "INNO Multi Fork Lock Roof Bike Rack", 
    "created": "2016-10-18T01:46:35.797Z", 
    "photo": "http://b.cdnbrm.com/images/products/small/bike_ski_racks/inno_multi_fork_lock_roof_bike_rack.gif", 
    "catalog": 31, 
    "cost": "$143.99", 
    "quantum": 10
  }, 
  "model": "products.product"
},
{
  "fields": {
    "updated": "2016-10-18T01:46:35.797Z", 
    "name": "Yakima ForkLift Bike Rack", 
    "created": "2016-10-18T01:46:35.797Z", 
    "photo": "http://b.cdnbrm.com/images/products/small/bike_ski_racks/yakima_forklift.gif", 
    "catalog": 31, 
    "cost": "$127.20", 
    "quantum": 10
  }, 
  "model": "products.product"
},
{
  "fields": {
    "updated": "2016-10-18T01:46:35.797Z", 
    "name": "Yakima TubeTop Bike Frame Adapter", 
    "created": "2016-10-18T01:46:35.797Z", 
    "photo": "http://b.cdnbrm.com/images/products/small/bike_ski_racks/yakima_tubetop_bike_frame_adapter_1.gif", 
    "catalog": 31, 
    "cost": "$31.20", 
    "quantum": 10
  }, 
  "model": "products.product"
},
{
  "fields": {
    "updated": "2016-10-18T01:46:35.797Z", 
    "name": "Yakima LiteRider Hitch Mount Bike Rack", 
    "created": "2016-10-18T01:46:35.797Z", 
    "photo": "http://b.cdnbrm.com/images/products/small/bike_ski_racks/yakima_literider_hitch_mount_bike_rack_hero.gif", 
    "catalog": 31, 
    "cost": "$287.20", 
    "quantum": 10
  }, 
  "model": "products.product"
},
{
  "fields": {
    "updated": "2016-10-18T01:46:35.797Z", 
    "name": "Schwinn Trunk Mount Bike Rack", 
    "created": "2016-10-18T01:46:35.797Z", 
    "photo": "http://b.cdnbrm.com/images/products/small/bike_ski_racks/schwinn_trunk_mount_bike_rack_hero.gif", 
    "catalog": 31, 
    "cost": "$49.99 each", 
    "quantum": 10
  }, 
  "model": "products.product"
},
{
  "fields": {
    "updated": "2016-10-18T01:46:35.797Z", 
    "name": "Saris SuperBones Trunk Mount Bike Rack", 
    "created": "2016-10-18T01:46:35.797Z", 
    "photo": "http://b.cdnbrm.com/images/products/small/bike_ski_racks/saris_superbones_trunk_mount_bike_rack_hero.gif", 
    "catalog": 31, 
    "cost": "$399.99", 
    "quantum": 10
  }, 
  "model": "products.product"
},
{
  "fields": {
    "updated": "2016-10-18T01:46:35.797Z", 
    "name": "Thule Vertex Swing Away Hitch Bike Rack", 
    "created": "2016-10-18T01:46:35.797Z", 
    "photo": "http://b.cdnbrm.com/images/products/small/bike_ski_racks/vertex_swing_hitch_bike_rack__on_car.gif", 
    "catalog": 31, 
    "cost": "$399.95", 
    "quantum": 10
  }, 
  "model": "products.product"
},
{
  "fields": {
    "updated": "2016-10-18T01:46:35.797Z", 
    "name": "Swagman XC 2 Bike Platform Hitch Bike Rack", 
    "created": "2016-10-18T01:46:35.797Z", 
    "photo": "http://b.cdnbrm.com/images/products/small/bike_ski_racks/swagman_xc_2_bike_rack.gif", 
    "catalog": 31, 
    "cost": "$179.00", 
    "quantum": 10
  }, 
  "model": "products.product"
},
{
  "fields": {
    "updated": "2016-10-18T01:46:35.797Z", 
    "name": "Swagman G10 Platform Bike Rack", 
    "created": "2016-10-18T01:46:35.797Z", 
    "photo": "http://b.cdnbrm.com/images/products/small/roof_racks_bags/swagman_g10_platform_bike_rack_hero_2.gif", 
    "catalog": 31, 
    "cost": "$279.00 each", 
    "quantum": 10
  }, 
  "model": "products.product"
},
{
  "fields": {
    "updated": "2016-10-18T01:46:35.797Z", 
    "name": "Softride Shuttle Pad Truck Tailgate Pad", 
    "created": "2016-10-18T01:46:35.797Z", 
    "photo": "http://b.cdnbrm.com/images/products/small/bike_ski_racks/softride_shuttle_pad_truck_talgate_pad.gif", 
    "catalog": 31, 
    "cost": "$87.99", 
    "quantum": 10
  }, 
  "model": "products.product"
},
{
  "fields": {
    "updated": "2016-10-18T01:46:35.797Z", 
    "name": "Yakima SpareRide Spare Tire Bike Rack", 
    "created": "2016-10-18T01:46:35.797Z", 
    "photo": "http://b.cdnbrm.com/images/products/small/bike_ski_racks/yakima_spareride_spare_tire_bike_rack_hero.gif", 
    "catalog": 31, 
    "cost": "$183.20", 
    "quantum": 10
  }, 
  "model": "products.product"
},
{
  "fields": {
    "updated": "2016-10-18T01:46:35.797Z", 
    "name": "Thule Sidearm Roof Bike Rack", 
    "created": "2016-10-18T01:46:35.797Z", 
    "photo": "http://b.cdnbrm.com/images/products/small/bike_ski_racks/thule_sidearm_roof_bike_rack.gif", 
    "catalog": 31, 
    "cost": "$199.95", 
    "quantum": 10
  }, 
  "model": "products.product"
},
{
  "fields": {
    "updated": "2016-10-18T01:46:35.797Z", 
    "name": "Saris Bones Hitch Mount Bike Rack", 
    "created": "2016-10-18T01:46:35.797Z", 
    "photo": "http://b.cdnbrm.com/images/products/small/bike_ski_racks/saris_axis_steel_hitch_mount_bike_rack_hero.gif", 
    "catalog": 31, 
    "cost": "$199.99", 
    "quantum": 10
  }, 
  "model": "products.product"
},
{
  "fields": {
    "updated": "2016-10-18T01:46:35.797Z", 
    "name": "Saris Freedom Hitch Mount Bike Rack", 
    "created": "2016-10-18T01:46:35.797Z", 
    "photo": "http://b.cdnbrm.com/images/products/small/bike_ski_racks/saris_freedom_hitch_mount_bike_rack_hero.gif", 
    "catalog": 31, 
    "cost": "$269.99", 
    "quantum": 10
  }, 
  "model": "products.product"
},
{
  "fields": {
    "updated": "2016-10-18T01:46:35.797Z", 
    "name": "Trimax Receiver Lock", 
    "created": "2016-10-18T01:46:35.797Z", 
    "photo": "http://b.cdnbrm.com/images/products/small/hitch_accessories/trimax_receiver_locks_hero.gif", 
    "catalog": 31, 
    "cost": "$24.99 each", 
    "quantum": 10
  }, 
  "model": "products.product"
},
{
  "fields": {
    "updated": "2016-10-18T01:46:35.797Z", 
    "name": "Thule Raceway Platform 9003PRO Trunk Mount Bike Rack", 
    "created": "2016-10-18T01:46:35.797Z", 
    "photo": "http://b.cdnbrm.com/images/products/small/bike_ski_racks/thule_raceway_platform_9003pro_trunk_mount_bike_rack_hero.gif", 
    "catalog": 31, 
    "cost": "$449.95", 
    "quantum": 10
  }, 
  "model": "products.product"
},
{
  "fields": {
    "updated": "2016-10-18T01:46:35.797Z", 
    "name": "Advantage SportsRack Truck Bed Bike Rack", 
    "created": "2016-10-18T01:46:35.797Z", 
    "photo": "http://b.cdnbrm.com/images/products/small/bike_ski_racks/advantage_bedrack_bike_rack.gif", 
    "catalog": 31, 
    "cost": "$124.99", 
    "quantum": 10
  }, 
  "model": "products.product"
},
{
  "fields": {
    "updated": "2016-10-18T01:46:35.797Z", 
    "name": "SeaSucker Hornet Bike Rack", 
    "created": "2016-10-18T01:46:35.797Z", 
    "photo": "http://b.cdnbrm.com/images/products/small/bike_ski_racks/seasucker_hornet_bike_rack_hero.gif", 
    "catalog": 31, 
    "cost": "$175.00", 
    "quantum": 10
  }, 
  "model": "products.product"
},
{
  "fields": {
    "updated": "2016-10-18T01:46:35.797Z", 
    "name": "Whispbar WB201 Frame Mount Roof Bike Rack", 
    "created": "2016-10-18T01:46:35.797Z", 
    "photo": "http://b.cdnbrm.com/images/products/small/bike_ski_racks/whispbar_wb201_frame_mount_roof_bike_rack_hero.gif", 
    "catalog": 31, 
    "cost": "$329.00 each", 
    "quantum": 10
  }, 
  "model": "products.product"
},
{
  "fields": {
    "updated": "2016-10-18T01:46:35.797Z", 
    "name": "Thule Vertex Hitch Bike Rack", 
    "created": "2016-10-18T01:46:35.797Z", 
    "photo": "http://b.cdnbrm.com/images/products/small/bike_ski_racks/thule_vertex_hitch_bike_rack.gif", 
    "catalog": 31, 
    "cost": "$259.95", 
    "quantum": 10
  }, 
  "model": "products.product"
},
{
  "fields": {
    "updated": "2016-10-18T01:46:35.797Z", 
    "name": "Rhino-Rack Spare Wheel Bike Rack", 
    "created": "2016-10-18T01:46:35.797Z", 
    "photo": "http://b.cdnbrm.com/images/products/small/bike_ski_racks/rhino_rack_spare_wheel_bike_rack_hero.gif", 
    "catalog": 31, 
    "cost": "$143.10", 
    "quantum": 10
  }, 
  "model": "products.product"
},
{
  "fields": {
    "updated": "2016-10-18T01:46:35.797Z", 
    "name": "Whispbar WB200 Fork Mount Roof Bike Rack", 
    "created": "2016-10-18T01:46:35.797Z", 
    "photo": "http://b.cdnbrm.com/images/products/small/bike_ski_racks/whispbar_wb200_fork_mount_roof_bike_rack_hero.gif", 
    "catalog": 31, 
    "cost": "$289.00 each", 
    "quantum": 10
  }, 
  "model": "products.product"
},
{
  "fields": {
    "updated": "2016-10-18T01:46:35.797Z", 
    "name": "ROLA TX Hitch Mount Bike Rack", 
    "created": "2016-10-18T01:46:35.797Z", 
    "photo": "http://b.cdnbrm.com/images/products/small/bike_ski_racks/rola_tx_4_hero.gif", 
    "catalog": 31, 
    "cost": "$116.99", 
    "quantum": 10
  }, 
  "model": "products.product"
},
{
  "fields": {
    "updated": "2016-10-18T01:46:35.797Z", 
    "name": "RockyMounts Lock Cores", 
    "created": "2016-10-18T01:46:35.797Z", 
    "photo": "http://b.cdnbrm.com/images/products/small/bike_ski_racks/rockymounts_lock_cores_hero.gif", 
    "catalog": 31, 
    "cost": "$8.95", 
    "quantum": 10
  }, 
  "model": "products.product"
},
{
  "fields": {
    "updated": "2016-10-18T01:46:35.797Z", 
    "name": "Saris Sentinel Trunk Mount Bike Rack", 
    "created": "2016-10-18T01:46:35.797Z", 
    "photo": "http://b.cdnbrm.com/images/products/small/bike_ski_racks/saris_sentinel_trunk_mount_bike_rack_hero.gif", 
    "catalog": 31, 
    "cost": "$74.99", 
    "quantum": 10
  }, 
  "model": "products.product"
},
{
  "fields": {
    "updated": "2016-10-18T01:46:35.797Z", 
    "name": "Yakima Fullback Trunk Mount Bike Rack", 
    "created": "2016-10-18T01:46:35.797Z", 
    "photo": "http://b.cdnbrm.com/images/products/small/bike_ski_racks/yakima_fullback_trunk_mount_bike_rack_hero_2.gif", 
    "catalog": 31, 
    "cost": "$167.20 each", 
    "quantum": 10
  }, 
  "model": "products.product"
},
{
  "fields": {
    "updated": "2016-10-18T01:46:35.797Z", 
    "name": "Thule 963PRO Spare Me Tire Bike Rack", 
    "created": "2016-10-18T01:46:35.797Z", 
    "photo": "http://b.cdnbrm.com/images/products/small/bike_ski_racks/thule_spare_me_bike_on_rack.gif", 
    "catalog": 31, 
    "cost": "$229.95 each", 
    "quantum": 10
  }, 
  "model": "products.product"
},
{
  "fields": {
    "updated": "2016-10-18T01:46:35.797Z", 
    "name": "Yakima SprocketRocket Roof Mount Bike Rack", 
    "created": "2016-10-18T01:46:35.797Z", 
    "photo": "http://b.cdnbrm.com/images/products/small/bike_ski_racks/yakima_sprocketrocket_roof_mount_bike_rack_hero.gif", 
    "catalog": 31, 
    "cost": "$151.20 each", 
    "quantum": 10
  }, 
  "model": "products.product"
},
{
  "fields": {
    "updated": "2016-10-18T01:46:35.797Z", 
    "name": "RockyMounts LoBall Fork Mount Bike Rack", 
    "created": "2016-10-18T01:46:35.797Z", 
    "photo": "http://b.cdnbrm.com/images/products/small/bike_ski_racks/rockymounts_loball_fork_mount_bike_rack_hero_2.gif", 
    "catalog": 31, 
    "cost": "$22.95 each", 
    "quantum": 10
  }, 
  "model": "products.product"
},
{
  "fields": {
    "updated": "2016-10-18T01:46:35.797Z", 
    "name": "Black Horse Off Road Trailer Hitch Lock", 
    "created": "2016-10-18T01:46:35.797Z", 
    "photo": "http://b.cdnbrm.com/images/products/small/trailer_hitches/black_horse_off_road_trailer_hitch_lock_hero.gif", 
    "catalog": 31, 
    "cost": "$15.30 each", 
    "quantum": 10
  }, 
  "model": "products.product"
},
{
  "fields": {
    "updated": "2016-10-18T01:46:35.797Z", 
    "name": "Swagman Chinook Hitch Mount Bike Rack", 
    "created": "2016-10-18T01:46:35.797Z", 
    "photo": "http://b.cdnbrm.com/images/products/small/roof_racks_bags/swagman_chinook_hitch_mount_bike_rack_hero_2.gif", 
    "catalog": 31, 
    "cost": "$243.00", 
    "quantum": 10
  }, 
  "model": "products.product"
},
{
  "fields": {
    "updated": "2016-10-18T01:46:35.797Z", 
    "name": "Swagman Patrol Truck Bed Bike Rack", 
    "created": "2016-10-18T01:46:35.797Z", 
    "photo": "http://b.cdnbrm.com/images/products/small/bike_ski_racks/swagman_patrol_truck_bed_bike_rack_hero.gif", 
    "catalog": 31, 
    "cost": "$243.00", 
    "quantum": 10
  }, 
  "model": "products.product"
},
{
  "fields": {
    "updated": "2016-10-18T01:46:35.797Z", 
    "name": "Yakima KingJoe Bike Rack", 
    "created": "2016-10-18T01:46:35.797Z", 
    "photo": "http://b.cdnbrm.com/images/products/small/bike_ski_racks/yakima_king_joe.gif", 
    "catalog": 31, 
    "cost": "$111.20", 
    "quantum": 10
  }, 
  "model": "products.product"
}
]