[
{
  "fields": {
    "type": "E", 
    "id": 34, 
    "name": "Body Kits"
  }, 
  "model": "products.productcatalog"
},
{
  "fields": {
    "updated": "2016-10-18T01:46:35.797Z", 
    "name": "Fit System Replacement Mirrors", 
    "created": "2016-10-18T01:46:35.797Z", 
    "photo": "http://b.cdnbrm.com/images/products/small/mirrors/k_source_replacement_mirrors_hero.gif?Lo0P=10f213fe445b0d071b72429a913047703922", 
    "catalog": 34, 
    "cost": "$19.99", 
    "quantum": 10
  }, 
  "model": "products.product"
},
{
  "fields": {
    "updated": "2016-10-18T01:46:35.797Z", 
    "name": "Spec-D Towing Mirrors", 
    "created": "2016-10-18T01:46:35.797Z", 
    "photo": "http://b.cdnbrm.com/images/products/small/mirrors/spec_d_towing_mirrors_hero.gif?Lo0P=c33129113e9b4e70290b7c0c10f0dade4499", 
    "catalog": 34, 
    "cost": "$249.99 /pair", 
    "quantum": 10
  }, 
  "model": "products.product"
},
{
  "fields": {
    "updated": "2016-10-18T01:46:35.797Z", 
    "name": "Longview Towing Slip-On-Mirrors", 
    "created": "2016-10-18T01:46:35.797Z", 
    "photo": "http://b.cdnbrm.com/images/products/small/side_view_mirrors/longview_towing_slip_on_mirrors_hero.gif?Lo0P=1e816ad4ce9d32d2410188b6d66b93552706", 
    "catalog": 34, 
    "cost": "$64.99 /pair", 
    "quantum": 10
  }, 
  "model": "products.product"
},
{
  "fields": {
    "updated": "2016-10-18T01:46:35.797Z", 
    "name": "ProZ Rocker Panel Trim", 
    "created": "2016-10-18T01:46:35.797Z", 
    "photo": "http://b.cdnbrm.com/images/products/small/chrome_accessories/qaa_rocker_panel_trim_hero.gif?Lo0P=78a4052d2d9449d44e5319e59712c6353308", 
    "catalog": 34, 
    "cost": "$73.49 /kit", 
    "quantum": 10
  }, 
  "model": "products.product"
},
{
  "fields": {
    "updated": "2016-10-18T01:46:35.797Z", 
    "name": "ICI Rocker Panels", 
    "created": "2016-10-18T01:46:35.797Z", 
    "photo": "http://b.cdnbrm.com/images/products/small/chrome_accessories/ici_rocker_panels_hero.gif?Lo0P=4ad761f1306c3aacc23a8ff5b563e2b55384", 
    "catalog": 34, 
    "cost": "$103.99 /kit", 
    "quantum": 10
  }, 
  "model": "products.product"
},
{
  "fields": {
    "updated": "2016-10-18T01:46:35.797Z", 
    "name": "Dorman Side View Mirror", 
    "created": "2016-10-18T01:46:35.797Z", 
    "photo": "http://b.cdnbrm.com/images/products/small/side_view_mirrors/dorman_side_view_mirror_hero.gif?Lo0P=56dff1d28874c97d9701ec28b2367e723608", 
    "catalog": 34, 
    "cost": "$8.99 each", 
    "quantum": 10
  }, 
  "model": "products.product"
},
{
  "fields": {
    "updated": "2016-10-18T01:46:35.797Z", 
    "name": "Putco Stainless Steel Rocker Panels", 
    "created": "2016-10-18T01:46:35.797Z", 
    "photo": "http://b.cdnbrm.com/images/products/small/chrome_accessories/putco_stainless_steel_rocker_panels.gif?Lo0P=ee22d6f182107dfeaa84118b9ce52adf5464", 
    "catalog": 34, 
    "cost": "$155.99 /kit", 
    "quantum": 10
  }, 
  "model": "products.product"
},
{
  "fields": {
    "updated": "2016-10-18T01:46:35.797Z", 
    "name": "B&I; Rocker Panels", 
    "created": "2016-10-18T01:46:35.797Z", 
    "photo": "http://b.cdnbrm.com/images/products/small/body_styling/bi_aa_rocker_panels.gif?Lo0P=872fbe957acdd8c46888c99fbbe218f76431", 
    "catalog": 34, 
    "cost": "$114.95 /kit", 
    "quantum": 10
  }, 
  "model": "products.product"
},
{
  "fields": {
    "updated": "2016-10-18T01:46:35.797Z", 
    "name": "RKSport Ram Air Hoods", 
    "created": "2016-10-18T01:46:35.797Z", 
    "photo": "http://b.cdnbrm.com/images/products/small/body_styling/rk_sport_ram_air_hoods.gif?Lo0P=1bea1edc028e76b867bdfe072eaf3ff36413", 
    "catalog": 34, 
    "cost": "$44.63", 
    "quantum": 10
  }, 
  "model": "products.product"
},
{
  "fields": {
    "updated": "2016-10-18T01:46:35.797Z", 
    "name": "Smittybilt XRC Flux Flared Fenders", 
    "created": "2016-10-18T01:46:35.797Z", 
    "photo": "http://b.cdnbrm.com/images/products/small/body_styling/smittybilt_xrc_flux_flared_fenders_hero.gif?Lo0P=c309bba56fa95c66664a32a559a0010c7561", 
    "catalog": 34, 
    "cost": "$399.99", 
    "quantum": 10
  }, 
  "model": "products.product"
},
{
  "fields": {
    "updated": "2016-10-18T01:46:35.797Z", 
    "name": "CIPA Custom Towing Mirrors", 
    "created": "2016-10-18T01:46:35.797Z", 
    "photo": "http://b.cdnbrm.com/images/products/small/mirrors/cipa_custom_towing_04_ford_f150_hero.gif?Lo0P=663e34544f6f296ff010fe73bcac714a4453", 
    "catalog": 34, 
    "cost": "$35.99", 
    "quantum": 10
  }, 
  "model": "products.product"
},
{
  "fields": {
    "updated": "2016-10-18T01:46:35.797Z", 
    "name": "K-Source Snap & Zap Clip-On Towing Mirrors", 
    "created": "2016-10-18T01:46:35.797Z", 
    "photo": "http://b.cdnbrm.com/images/products/small/side_view_mirrors/k_source_snap_zap_clip_on_towing_mirrors_hero.gif?Lo0P=0295ff443c86cd9d0353a9ae127705004066", 
    "catalog": 34, 
    "cost": "$59.99 /pair", 
    "quantum": 10
  }, 
  "model": "products.product"
},
{
  "fields": {
    "updated": "2016-10-18T01:46:35.797Z", 
    "name": "K-Source Universal Truck Side View Mirrors", 
    "created": "2016-10-18T01:46:35.797Z", 
    "photo": "http://b.cdnbrm.com/images/products/small/side_view_mirrors/k_source_universal_truck_side_view_mirrors_hero.gif?Lo0P=3afd8722491efd9fb2717a321a03aa664065", 
    "catalog": 34, 
    "cost": "$29.99 each", 
    "quantum": 10
  }, 
  "model": "products.product"
},
{
  "fields": {
    "updated": "2016-10-18T01:46:35.797Z", 
    "name": "ICI U-Cut Universal Rocker Armor", 
    "created": "2016-10-18T01:46:35.797Z", 
    "photo": "http://b.cdnbrm.com/images/products/small/body_styling/ici_u_cut_universal_rocker_armor_hero.gif?Lo0P=3e4b6766ea0272285d260ce484452f3e6311", 
    "catalog": 34, 
    "cost": "$109.99 /kit", 
    "quantum": 10
  }, 
  "model": "products.product"
},
{
  "fields": {
    "updated": "2016-10-18T01:46:35.797Z", 
    "name": "Anzo LED Tailgate Spoiler", 
    "created": "2016-10-18T01:46:35.797Z", 
    "photo": "http://b.cdnbrm.com/images/products/small/lights/anzo_led_tailgate_spoiler_7120.gif?Lo0P=272dfcc3fc93db7513115a8fee1876cf5628", 
    "catalog": 34, 
    "cost": "$170.99", 
    "quantum": 10
  }, 
  "model": "products.product"
},
{
  "fields": {
    "updated": "2016-10-18T01:46:35.797Z", 
    "name": "Street Scene Cal-Vu Sport Mirrors", 
    "created": "2016-10-18T01:46:35.797Z", 
    "photo": "http://b.cdnbrm.com/images/products/small/driving_accessories/street_scene_cal_vu_sport_mirrors.gif?Lo0P=cc6478ab6cab0791a821c968b92aa60c2642", 
    "catalog": 34, 
    "cost": "$104.99 /pair", 
    "quantum": 10
  }, 
  "model": "products.product"
},
{
  "fields": {
    "updated": "2016-10-18T01:46:35.797Z", 
    "name": "Mach-Speed ABS Rear Window Louvers", 
    "created": "2016-10-18T01:46:35.797Z", 
    "photo": "http://b.cdnbrm.com/images/products/small/body_styling/mach-speed_inc__abs_rear_window_louvers.gif?Lo0P=e1b3a2faab0b43c405f7ccaec40a928c5767", 
    "catalog": 34, 
    "cost": "$99.99", 
    "quantum": 10
  }, 
  "model": "products.product"
},
{
  "fields": {
    "updated": "2016-10-18T01:46:35.797Z", 
    "name": "K-Source Universal Clip-On Towing Mirrors", 
    "created": "2016-10-18T01:46:35.797Z", 
    "photo": "http://b.cdnbrm.com/images/products/small/side_view_mirrors/k_source_universal_clip_on_towing_mirrors_hero.gif?Lo0P=fe8e70f3d6946b38cbefddbccc0f489b5369", 
    "catalog": 34, 
    "cost": "$22.99 each", 
    "quantum": 10
  }, 
  "model": "products.product"
},
{
  "fields": {
    "updated": "2016-10-18T01:46:35.797Z", 
    "name": "Elite Spoilers", 
    "created": "2016-10-18T01:46:35.797Z", 
    "photo": "http://b.cdnbrm.com/images/products/small/wings/elite_spoilers_hero_ford_mustang_abs130xl.gif?Lo0P=936a647eb932f671d1f092151cd0c9e83151", 
    "catalog": 34, 
    "cost": "$139.95 each", 
    "quantum": 10
  }, 
  "model": "products.product"
},
{
  "fields": {
    "updated": "2016-10-18T01:46:35.797Z", 
    "name": "RKSport Full Body Kits", 
    "created": "2016-10-18T01:46:35.797Z", 
    "photo": "http://b.cdnbrm.com/images/products/small/body_styling/rksport_full_body_kits.gif?Lo0P=c3936d265c006ce857327a3dbf15d11a5436", 
    "catalog": 34, 
    "cost": "$647.91 /kit", 
    "quantum": 10
  }, 
  "model": "products.product"
},
{
  "fields": {
    "updated": "2016-10-18T01:46:35.797Z", 
    "name": "ICI U-Cut Universal Rocker Panels", 
    "created": "2016-10-18T01:46:35.797Z", 
    "photo": "http://b.cdnbrm.com/images/products/small/chrome_accessories/ici_u_cut_universal_rocker_panels_hero.gif?Lo0P=524e488e6f17d50ca653afea840a4aac4788", 
    "catalog": 34, 
    "cost": "$109.99 /kit", 
    "quantum": 10
  }, 
  "model": "products.product"
},
{
  "fields": {
    "updated": "2016-10-18T01:46:35.797Z", 
    "name": "Street Scene Roll Pans", 
    "created": "2016-10-18T01:46:35.797Z", 
    "photo": "http://b.cdnbrm.com/images/products/small/body_styling/street_scene_roll_pans.gif?Lo0P=f9bbc0a671a3e29264a5f30e2c56a4885451", 
    "catalog": 34, 
    "cost": "$164.99", 
    "quantum": 10
  }, 
  "model": "products.product"
},
{
  "fields": {
    "updated": "2016-10-18T01:46:35.797Z", 
    "name": "Street Scene Front Spoilers", 
    "created": "2016-10-18T01:46:35.797Z", 
    "photo": "http://b.cdnbrm.com/images/products/small/body_styling/street_scene_front_spoilers.gif?Lo0P=de84a7cac4ca506906dc3679069845d45132", 
    "catalog": 34, 
    "cost": "$194.99 each", 
    "quantum": 10
  }, 
  "model": "products.product"
},
{
  "fields": {
    "updated": "2016-10-18T01:46:35.797Z", 
    "name": "ProZ Chrome Emblems", 
    "created": "2016-10-18T01:46:35.797Z", 
    "photo": "http://b.cdnbrm.com/images/products/small/chrome_accessories/proz_chrome_emblems_hero.gif", 
    "catalog": 34, 
    "cost": "$14.24 each", 
    "quantum": 10
  }, 
  "model": "products.product"
},
{
  "fields": {
    "updated": "2016-10-18T01:46:35.797Z", 
    "name": "CIPA Universal Towing Mirror", 
    "created": "2016-10-18T01:46:35.797Z", 
    "photo": "http://b.cdnbrm.com/images/products/small/mirrors/cipa_11960_universal_towing_mirror_hero.gif?Lo0P=15ee3a4395b1b2ed2e7677af6038ebb22249", 
    "catalog": 34, 
    "cost": "$29.69 each", 
    "quantum": 10
  }, 
  "model": "products.product"
},
{
  "fields": {
    "updated": "2016-10-18T01:46:35.797Z", 
    "name": "CIPA Extendable Replacement Side View Mirrors", 
    "created": "2016-10-18T01:46:35.797Z", 
    "photo": "http://b.cdnbrm.com/images/products/small/mirrors/cipa_extendable_mirror_back_hero.gif?Lo0P=301e02d6af87c686245db925d52663002147", 
    "catalog": 34, 
    "cost": "$229.99 /pair", 
    "quantum": 10
  }, 
  "model": "products.product"
},
{
  "fields": {
    "updated": "2016-10-18T01:46:35.797Z", 
    "name": "ICI Rocker Armor Rocker Panels", 
    "created": "2016-10-18T01:46:35.797Z", 
    "photo": "http://b.cdnbrm.com/images/products/small/body_styling/ici_rocker_armor_rocker_panels_hero.gif?Lo0P=d5d73a7781ede327579b90c326be182a7341", 
    "catalog": 34, 
    "cost": "$109.99 /kit", 
    "quantum": 10
  }, 
  "model": "products.product"
},
{
  "fields": {
    "updated": "2016-10-18T01:46:35.797Z", 
    "name": "Dorman Body Mounts", 
    "created": "2016-10-18T01:46:35.797Z", 
    "photo": "http://b.cdnbrm.com/images/products/small/suspension/dorman_body_mounts_hero.gif?Lo0P=1ae27eeb7f0ac56d1542220b5e5b191f4342", 
    "catalog": 34, 
    "cost": "$3.99 each", 
    "quantum": 10
  }, 
  "model": "products.product"
},
{
  "fields": {
    "updated": "2016-10-18T01:46:35.797Z", 
    "name": "Street Scene Side Skirts", 
    "created": "2016-10-18T01:46:35.797Z", 
    "photo": "http://b.cdnbrm.com/images/products/small/body_styling/street_scene_side_skirt.jpg?Lo0P=132e5c3c21342e48c694d9cc296eca1d5829", 
    "catalog": 34, 
    "cost": "$189.99", 
    "quantum": 10
  }, 
  "model": "products.product"
},
{
  "fields": {
    "updated": "2016-10-18T01:46:35.797Z", 
    "name": "RKSport Valances", 
    "created": "2016-10-18T01:46:35.797Z", 
    "photo": "http://b.cdnbrm.com/images/products/small/body_styling/rksport_valances.gif?Lo0P=1afac28535d501aca25837c13b5806a06133", 
    "catalog": 34, 
    "cost": "$89.21 /kit", 
    "quantum": 10
  }, 
  "model": "products.product"
},
{
  "fields": {
    "updated": "2016-10-18T01:46:35.797Z", 
    "name": "CIPA Replacement Side View Mirrors", 
    "created": "2016-10-18T01:46:35.797Z", 
    "photo": "http://b.cdnbrm.com/images/products/small/mirrors/cipa_oe_mirrors_hero_42225_42224_Ford_Escort.gif", 
    "catalog": 34, 
    "cost": "$19.99 each", 
    "quantum": 10
  }, 
  "model": "products.product"
},
{
  "fields": {
    "updated": "2016-10-18T01:46:35.797Z", 
    "name": "K-Source Universal Car Side View Mirrors", 
    "created": "2016-10-18T01:46:35.797Z", 
    "photo": "http://b.cdnbrm.com/images/products/small/side_view_mirrors/k_source_universal_car_side_view_mirrors_hero.gif", 
    "catalog": 34, 
    "cost": "$14.99", 
    "quantum": 10
  }, 
  "model": "products.product"
},
{
  "fields": {
    "updated": "2016-10-18T01:46:35.797Z", 
    "name": "Poison Spyder Ricochet Rockers", 
    "created": "2016-10-18T01:46:35.797Z", 
    "photo": "http://b.cdnbrm.com/images/products/small/body_armor_protection/poison_spyder_ricochet_rockers_hero.gif", 
    "catalog": 34, 
    "cost": "$468.99 /pair", 
    "quantum": 10
  }, 
  "model": "products.product"
},
{
  "fields": {
    "updated": "2016-10-18T01:46:35.797Z", 
    "name": "Rugged Ridge Hood Catch Kits", 
    "created": "2016-10-18T01:46:35.797Z", 
    "photo": "http://b.cdnbrm.com/images/products/small/jeep_accessories/rugged_ridge_hood_catch_kits_hero.gif", 
    "catalog": 34, 
    "cost": "$9.99", 
    "quantum": 10
  }, 
  "model": "products.product"
},
{
  "fields": {
    "updated": "2016-10-18T01:46:35.797Z", 
    "name": "3D Carbon Spoilers", 
    "created": "2016-10-18T01:46:35.797Z", 
    "photo": "http://b.cdnbrm.com/images/products/small/body_styling/3d_carbon_spoiler_5731.gif?Lo0P=6c53f1e0f335b06b80c15e7ba2ea9a1c5019", 
    "catalog": 34, 
    "cost": "$160.65", 
    "quantum": 10
  }, 
  "model": "products.product"
},
{
  "fields": {
    "updated": "2016-10-18T01:46:35.797Z", 
    "name": "Poison Spyder Rocker Knockers", 
    "created": "2016-10-18T01:46:35.797Z", 
    "photo": "http://b.cdnbrm.com/images/products/small/body_armor_protection/poison_spyder_rocker_knockers_hero.gif", 
    "catalog": 34, 
    "cost": "$275.99 /pair", 
    "quantum": 10
  }, 
  "model": "products.product"
},
{
  "fields": {
    "updated": "2016-10-18T01:46:35.797Z", 
    "name": "Bushwacker Trail Armor Rocker Panels", 
    "created": "2016-10-18T01:46:35.797Z", 
    "photo": "http://b.cdnbrm.com/images/products/small/jeep_accessories/bushwacker_trail_armor_rocker_panels.gif", 
    "catalog": 34, 
    "cost": "$79.99 /pair", 
    "quantum": 10
  }, 
  "model": "products.product"
},
{
  "fields": {
    "updated": "2016-10-18T01:46:35.797Z", 
    "name": "CRE RockerFlares", 
    "created": "2016-10-18T01:46:35.797Z", 
    "photo": "http://b.cdnbrm.com/images/products/small/fender_trim/cre_rockerflare_new_hero.gif", 
    "catalog": 34, 
    "cost": "$169.95 /kit", 
    "quantum": 10
  }, 
  "model": "products.product"
},
{
  "fields": {
    "updated": "2016-10-18T01:46:35.797Z", 
    "name": "CIPA Original Style Jeep Replacement Mirrors", 
    "created": "2016-10-18T01:46:35.797Z", 
    "photo": "http://b.cdnbrm.com/images/products/small/mirrors/cipa_original_style_jeep_replacement_mirrors.gif", 
    "catalog": 34, 
    "cost": "$19.99 each", 
    "quantum": 10
  }, 
  "model": "products.product"
},
{
  "fields": {
    "updated": "2016-10-18T01:46:35.797Z", 
    "name": "Bushwacker Trail Armor Pocket Style Rocker Panels", 
    "created": "2016-10-18T01:46:35.797Z", 
    "photo": "http://b.cdnbrm.com/images/products/small/jeep_accessories/bushwacker_trail_armor_pocket_style_rocker_panels.gif", 
    "catalog": 34, 
    "cost": "$159.99 /pair", 
    "quantum": 10
  }, 
  "model": "products.product"
},
{
  "fields": {
    "updated": "2016-10-18T01:46:35.797Z", 
    "name": "CIPA Optic LED Side View Mirrors", 
    "created": "2016-10-18T01:46:35.797Z", 
    "photo": "http://b.cdnbrm.com/images/products/small/mirrors/cipa_optic_led_mirror_hero.gif", 
    "catalog": 34, 
    "cost": "$99.99 /pair", 
    "quantum": 10
  }, 
  "model": "products.product"
},
{
  "fields": {
    "updated": "2016-10-18T01:46:35.797Z", 
    "name": "CIPA CJ-Style Jeep Replacement Mirrors", 
    "created": "2016-10-18T01:46:35.797Z", 
    "photo": "http://b.cdnbrm.com/images/products/small/mirrors/cipa_cj-style_jeep_replacement_mirrors.gif", 
    "catalog": 34, 
    "cost": "$29.99 each", 
    "quantum": 10
  }, 
  "model": "products.product"
},
{
  "fields": {
    "updated": "2016-10-18T01:46:35.797Z", 
    "name": "CIPA Dual View Clip On Towing Mirror", 
    "created": "2016-10-18T01:46:35.797Z", 
    "photo": "http://b.cdnbrm.com/images/products/small/mirrors/cipa_dual_view_clip_on_towing_mirror.gif", 
    "catalog": 34, 
    "cost": "$29.69 each", 
    "quantum": 10
  }, 
  "model": "products.product"
},
{
  "fields": {
    "updated": "2016-10-18T01:46:35.797Z", 
    "name": "CIPA Clip On Towing Mirror", 
    "created": "2016-10-18T01:46:35.797Z", 
    "photo": "http://b.cdnbrm.com/images/products/small/mirrors/cipa_clip_on_towing_mirror.gif", 
    "catalog": 34, 
    "cost": "$20.69 each", 
    "quantum": 10
  }, 
  "model": "products.product"
},
{
  "fields": {
    "updated": "2016-10-18T01:46:35.797Z", 
    "name": "CIPA Lighted Euro Sport Side View Mirrors", 
    "created": "2016-10-18T01:46:35.797Z", 
    "photo": "http://b.cdnbrm.com/images/products/small/mirrors/cipa_lighted_euro_sport_mirror_hero.gif", 
    "catalog": 34, 
    "cost": "$19.99 each", 
    "quantum": 10
  }, 
  "model": "products.product"
},
{
  "fields": {
    "updated": "2016-10-18T01:46:35.797Z", 
    "name": "Poison Spyder Hood Decal", 
    "created": "2016-10-18T01:46:35.797Z", 
    "photo": "http://b.cdnbrm.com/images/products/small/body_kits/poison_spyder_hood_decal_hero.gif", 
    "catalog": 34, 
    "cost": "$50.99 each", 
    "quantum": 10
  }, 
  "model": "products.product"
},
{
  "fields": {
    "updated": "2016-10-18T01:46:35.797Z", 
    "name": "Daystar Hood Wranglers", 
    "created": "2016-10-18T01:46:35.797Z", 
    "photo": "http://b.cdnbrm.com/images/products/small/jeep_accessories/daystar_hood_wranglers.gif", 
    "catalog": 34, 
    "cost": "$24.95", 
    "quantum": 10
  }, 
  "model": "products.product"
},
{
  "fields": {
    "updated": "2016-10-18T01:46:35.797Z", 
    "name": "Street Scene Street Smart Electric Mirrors", 
    "created": "2016-10-18T01:46:35.797Z", 
    "photo": "http://b.cdnbrm.com/images/products/small/driving_accessories/street_scene_street_smart_coversion_kits.gif", 
    "catalog": 34, 
    "cost": "$254.99 /pair", 
    "quantum": 10
  }, 
  "model": "products.product"
},
{
  "fields": {
    "updated": "2016-10-18T01:46:35.797Z", 
    "name": "Rampage Hood Catch Kits", 
    "created": "2016-10-18T01:46:35.797Z", 
    "photo": "http://b.cdnbrm.com/images/products/small/travel_accessories/rampage_hood_catch_kits_hero.gif", 
    "catalog": 34, 
    "cost": "$14.99", 
    "quantum": 10
  }, 
  "model": "products.product"
},
{
  "fields": {
    "updated": "2016-10-18T01:46:35.797Z", 
    "name": "Street Scene Cal-Vu Signal Mirrors", 
    "created": "2016-10-18T01:46:35.797Z", 
    "photo": "http://b.cdnbrm.com/images/products/small/driving_accessories/street_scene_signal_mirrors_rear_facing_signal.gif", 
    "catalog": 34, 
    "cost": "$254.99 /pair", 
    "quantum": 10
  }, 
  "model": "products.product"
},
{
  "fields": {
    "updated": "2016-10-18T01:46:35.797Z", 
    "name": "Street Scene Smooth Wiper Cowl", 
    "created": "2016-10-18T01:46:35.797Z", 
    "photo": "http://b.cdnbrm.com/images/products/small/body_styling/street_scene_smooth_wiper_cowl.gif", 
    "catalog": 34, 
    "cost": "$189.99 each", 
    "quantum": 10
  }, 
  "model": "products.product"
},
{
  "fields": {
    "updated": "2016-10-18T01:46:35.797Z", 
    "name": "Xenon Full Body Kit", 
    "created": "2016-10-18T01:46:35.797Z", 
    "photo": "http://b.cdnbrm.com/images/products/small/body_styling/xenon_complete_body_kits_5610.gif", 
    "catalog": 34, 
    "cost": "$548.99 /kit", 
    "quantum": 10
  }, 
  "model": "products.product"
},
{
  "fields": {
    "updated": "2016-10-18T01:46:35.797Z", 
    "name": "N-Fab Harley Bars", 
    "created": "2016-10-18T01:46:35.797Z", 
    "photo": "http://b.cdnbrm.com/images/products/small/body_armor_protection/n_fab_harley_bars_hero.gif", 
    "catalog": 34, 
    "cost": "$367.37 /pair", 
    "quantum": 10
  }, 
  "model": "products.product"
},
{
  "fields": {
    "updated": "2016-10-18T01:46:35.797Z", 
    "name": "RKSport Bumper Covers", 
    "created": "2016-10-18T01:46:35.797Z", 
    "photo": "http://b.cdnbrm.com/images/products/small/body_styling/rksport_bumper_covers.gif", 
    "catalog": 34, 
    "cost": "$344.46 /kit", 
    "quantum": 10
  }, 
  "model": "products.product"
},
{
  "fields": {
    "updated": "2016-10-18T01:46:35.797Z", 
    "name": "Bushwacker Jeep Hood Scoop", 
    "created": "2016-10-18T01:46:35.797Z", 
    "photo": "http://b.cdnbrm.com/images/products/small/jeep_accessories/bushwacker_jeep_hood_scoop.gif", 
    "catalog": 34, 
    "cost": "$49.99", 
    "quantum": 10
  }, 
  "model": "products.product"
},
{
  "fields": {
    "updated": "2016-10-18T01:46:35.797Z", 
    "name": "3D Carbon Hood Scoops", 
    "created": "2016-10-18T01:46:35.797Z", 
    "photo": "http://b.cdnbrm.com/images/products/small/body_styling/3d_carbon_ram_air_hood.gif", 
    "catalog": 34, 
    "cost": "$197.13", 
    "quantum": 10
  }, 
  "model": "products.product"
},
{
  "fields": {
    "updated": "2016-10-18T01:46:35.797Z", 
    "name": "Street Scene Front Bumper Covers", 
    "created": "2016-10-18T01:46:35.797Z", 
    "photo": "http://b.cdnbrm.com/images/products/small/body_styling/street_scene_front_bumper_covers.gif", 
    "catalog": 34, 
    "cost": "$214.99", 
    "quantum": 10
  }, 
  "model": "products.product"
},
{
  "fields": {
    "updated": "2016-10-18T01:46:35.797Z", 
    "name": "Poison Spyder Hood Louver", 
    "created": "2016-10-18T01:46:35.797Z", 
    "photo": "http://b.cdnbrm.com/images/products/small/body_kits/poison_spyder_hood_louver_hero.gif", 
    "catalog": 34, 
    "cost": "$129.99 each", 
    "quantum": 10
  }, 
  "model": "products.product"
},
{
  "fields": {
    "updated": "2016-10-18T01:46:35.797Z", 
    "name": "ProZ Premium Rock Crawler Fenders", 
    "created": "2016-10-18T01:46:35.797Z", 
    "photo": "http://b.cdnbrm.com/images/products/small/body_armor_protection/proz_premium_rock_crawler_fenders_hero.gif", 
    "catalog": 34, 
    "cost": "$145.99", 
    "quantum": 10
  }, 
  "model": "products.product"
},
{
  "fields": {
    "updated": "2016-10-18T01:46:35.797Z", 
    "name": "ICI SE Series Rocker Panels", 
    "created": "2016-10-18T01:46:35.797Z", 
    "photo": "http://b.cdnbrm.com/images/products/small/chrome_accessories/ici_se_series_rocker_panels_hero.gif", 
    "catalog": 34, 
    "cost": "$160.99 /kit", 
    "quantum": 10
  }, 
  "model": "products.product"
},
{
  "fields": {
    "updated": "2016-10-18T01:46:35.797Z", 
    "name": "RKSport Ground Effects Kits", 
    "created": "2016-10-18T01:46:35.797Z", 
    "photo": "http://b.cdnbrm.com/images/products/small/body_styling/rksport_ground_effects_packages.gif", 
    "catalog": 34, 
    "cost": "$508.68 /kit", 
    "quantum": 10
  }, 
  "model": "products.product"
},
{
  "fields": {
    "updated": "2016-10-18T01:46:35.797Z", 
    "name": "Oracle Illuminated Emblems", 
    "created": "2016-10-18T01:46:35.797Z", 
    "photo": "http://b.cdnbrm.com/images/products/small/lights/oracle_illuminated_emblems_hero.gif", 
    "catalog": 34, 
    "cost": "$112.63 each", 
    "quantum": 10
  }, 
  "model": "products.product"
},
{
  "fields": {
    "updated": "2016-10-18T01:46:35.797Z", 
    "name": "Poison Spyder Inner Fenders", 
    "created": "2016-10-18T01:46:35.797Z", 
    "photo": "http://b.cdnbrm.com/images/products/small/fender_trim/poison_spyder_inner_fenders_hero.gif", 
    "catalog": 34, 
    "cost": "$99.99 /kit", 
    "quantum": 10
  }, 
  "model": "products.product"
},
{
  "fields": {
    "updated": "2016-10-18T01:46:35.797Z", 
    "name": "NightHawk Light Brow", 
    "created": "2016-10-18T01:46:35.797Z", 
    "photo": "http://b.cdnbrm.com/images/products/small/body_styling/nighthawk_light_brow_hero.gif", 
    "catalog": 34, 
    "cost": "$179.00 each", 
    "quantum": 10
  }, 
  "model": "products.product"
}
]