[
{
  "fields": {
    "type": "E", 
    "id": 35, 
    "name": "Bumpers"
  }, 
  "model": "products.productcatalog"
},
{
  "fields": {
    "updated": "2016-10-18T01:46:35.797Z", 
    "name": "ARB Deluxe Front Bumper Bull Bars", 
    "created": "2016-10-18T01:46:35.797Z", 
    "photo": "http://b.cdnbrm.com/images/products/small/grille_guards/arb_deluxe_bull_bars_5773.gif?Lo0P=6f5a4ccf032af5bdcdc1c0d3ed8624ee6667", 
    "catalog": 35, 
    "cost": "$729.60 ", 
    "quantum": 10
  }, 
  "model": "products.product"
},
{
  "fields": {
    "updated": "2016-10-18T01:46:35.797Z", 
    "name": "Iron Cross HD Front Bumpers", 
    "created": "2016-10-18T01:46:35.797Z", 
    "photo": "http://b.cdnbrm.com/images/products/small/bumpers/iron_cross_hd_front_bumpers_hero.gif?Lo0P=0a31a41c81e861cb417521820a0124c57159", 
    "catalog": 35, 
    "cost": "$1,058.40", 
    "quantum": 10
  }, 
  "model": "products.product"
},
{
  "fields": {
    "updated": "2016-10-18T01:46:35.797Z", 
    "name": "ICI Magnum Front Bumpers", 
    "created": "2016-10-18T01:46:35.797Z", 
    "photo": "http://b.cdnbrm.com/images/products/small/bumpers/ici_magnum_front_bumpers_hero.gif?Lo0P=a67e0ec63046845d66d125c9f5f295356341", 
    "catalog": 35, 
    "cost": "$1,200.00", 
    "quantum": 10
  }, 
  "model": "products.product"
},
{
  "fields": {
    "updated": "2016-10-18T01:46:35.797Z", 
    "name": "Go Rhino Rear Bumper", 
    "created": "2016-10-18T01:46:35.797Z", 
    "photo": "http://b.cdnbrm.com/images/products/small/bumpers/go_rhino_br20_rear_bumper_hero.gif?Lo0P=a1a90d45fa8bd639acacd98bf0ed23b06925", 
    "catalog": 35, 
    "cost": "$796.00", 
    "quantum": 10
  }, 
  "model": "products.product"
},
{
  "fields": {
    "updated": "2016-10-18T01:46:35.797Z", 
    "name": "Iron Cross HD Rear Bumpers", 
    "created": "2016-10-18T01:46:35.797Z", 
    "photo": "http://b.cdnbrm.com/images/products/small/bumpers/iron_cross_hd_rear_bumpers_hero.gif?Lo0P=46c3cde2a86bf87a0abedbe1c4997fdc6479", 
    "catalog": 35, 
    "cost": "$850.50", 
    "quantum": 10
  }, 
  "model": "products.product"
},
{
  "fields": {
    "updated": "2016-10-18T01:46:35.797Z", 
    "name": "Ranch Hand Legend Front Bumper", 
    "created": "2016-10-18T01:46:35.797Z", 
    "photo": "http://b.cdnbrm.com/images/products/small/grille_guards/ranch_hand_legend_front_bumper_hero.gif", 
    "catalog": 35, 
    "cost": "$850.00", 
    "quantum": 10
  }, 
  "model": "products.product"
},
{
  "fields": {
    "updated": "2016-10-18T01:46:35.797Z", 
    "name": "Go Rhino Front Bumper", 
    "created": "2016-10-18T01:46:35.797Z", 
    "photo": "http://b.cdnbrm.com/images/products/small/bumpers/go_rhino_br10_front_bumper_hero.gif?Lo0P=c5fb9330cfba052e458d6574319c7a947673", 
    "catalog": 35, 
    "cost": "$1,280.00", 
    "quantum": 10
  }, 
  "model": "products.product"
},
{
  "fields": {
    "updated": "2016-10-18T01:46:35.797Z", 
    "name": "FEY Perfect Match Bumper", 
    "created": "2016-10-18T01:46:35.797Z", 
    "photo": "http://b.cdnbrm.com/images/products/small/bumpers/fey_by_westin_perfect_match_bumpers.gif?Lo0P=0495ec129132605d75ec94a95c836ed05329", 
    "catalog": 35, 
    "cost": "$279.99", 
    "quantum": 10
  }, 
  "model": "products.product"
},
{
  "fields": {
    "updated": "2016-10-18T01:46:35.797Z", 
    "name": "Black Horse Off Road Rear Bumper Guard", 
    "created": "2016-10-18T01:46:35.797Z", 
    "photo": "http://b.cdnbrm.com/images/products/small/grille_guards/black_horse_off_road_rear_bumper_guard_hero.gif?Lo0P=6a4afe5e57e0cfa4b82f7399284884524604", 
    "catalog": 35, 
    "cost": "$206.10", 
    "quantum": 10
  }, 
  "model": "products.product"
},
{
  "fields": {
    "updated": "2016-10-18T01:46:35.797Z", 
    "name": "Smittybilt M1 Rear Bumper", 
    "created": "2016-10-18T01:46:35.797Z", 
    "photo": "http://b.cdnbrm.com/images/products/small/bumpers/smittybilt_m1_rear_bumper_hero.gif?Lo0P=ef2479fa024768094eb7a3fd6984b9ce5749", 
    "catalog": 35, 
    "cost": "$899.99 each", 
    "quantum": 10
  }, 
  "model": "products.product"
},
{
  "fields": {
    "updated": "2016-10-18T01:46:35.797Z", 
    "name": "Ranch Hand Summit Front Bumper", 
    "created": "2016-10-18T01:46:35.797Z", 
    "photo": "http://b.cdnbrm.com/images/products/small/bumpers/ranch_hand_summit_front_bumper_hero.gif", 
    "catalog": 35, 
    "cost": "$775.00", 
    "quantum": 10
  }, 
  "model": "products.product"
},
{
  "fields": {
    "updated": "2016-10-18T01:46:35.797Z", 
    "name": "Go Rhino Jeep Front Bumper", 
    "created": "2016-10-18T01:46:35.797Z", 
    "photo": "http://b.cdnbrm.com/images/products/small/bumpers/go_rhino_jeep_front_bumper_hero.gif?Lo0P=a4fb44c7c1c979d2022c88cfcf86858f7992", 
    "catalog": 35, 
    "cost": "$689.95 each", 
    "quantum": 10
  }, 
  "model": "products.product"
},
{
  "fields": {
    "updated": "2016-10-18T01:46:35.797Z", 
    "name": "ICI Magnum Rear Bumpers", 
    "created": "2016-10-18T01:46:35.797Z", 
    "photo": "http://b.cdnbrm.com/images/products/small/bumpers/ici_magnum_rear_bumpers_hero.gif?Lo0P=c998c69ff844099e6211febcafe93d766659", 
    "catalog": 35, 
    "cost": "$799.00", 
    "quantum": 10
  }, 
  "model": "products.product"
},
{
  "fields": {
    "updated": "2016-10-18T01:46:35.797Z", 
    "name": "Smittybilt M1 Front Winch Bumper", 
    "created": "2016-10-18T01:46:35.797Z", 
    "photo": "http://b.cdnbrm.com/images/products/small/bumpers/smittybilt_m1_winch_bumper_6206.gif?Lo0P=6387c073a30f7f1f2e8f4f8314cac4a57819", 
    "catalog": 35, 
    "cost": "$799.99 each", 
    "quantum": 10
  }, 
  "model": "products.product"
},
{
  "fields": {
    "updated": "2016-10-18T01:46:35.797Z", 
    "name": "Broadfeet Front Runner Bumper Guard", 
    "created": "2016-10-18T01:46:35.797Z", 
    "photo": "http://b.cdnbrm.com/images/products/small/grille_guards/broadfeet_front_runner_bumper_guard_hero.gif?Lo0P=7067eb21963fb44417216eba4687513f7081", 
    "catalog": 35, 
    "cost": "$295.00", 
    "quantum": 10
  }, 
  "model": "products.product"
},
{
  "fields": {
    "updated": "2016-10-18T01:46:35.797Z", 
    "name": "Ranch Hand Sport Rear Bumper", 
    "created": "2016-10-18T01:46:35.797Z", 
    "photo": "http://b.cdnbrm.com/images/products/small/bumpers/ranch_hand_sport_rear_bumper_hero.gif?Lo0P=400c0049ff4373fd956fe3a0e1d028896420", 
    "catalog": 35, 
    "cost": "$515.00", 
    "quantum": 10
  }, 
  "model": "products.product"
},
{
  "fields": {
    "updated": "2016-10-18T01:46:35.797Z", 
    "name": "Iron Cross HD Low Profile Front Bumper", 
    "created": "2016-10-18T01:46:35.797Z", 
    "photo": "http://b.cdnbrm.com/images/products/small/bumpers/iron_cross_hd_low_profile_front_bumper_hero_2.gif?Lo0P=4ae4212fc62556d679b2ad2a864877a66546", 
    "catalog": 35, 
    "cost": "$1,058.40", 
    "quantum": 10
  }, 
  "model": "products.product"
},
{
  "fields": {
    "updated": "2016-10-18T01:46:35.797Z", 
    "name": "FEY Surestep Bumper", 
    "created": "2016-10-18T01:46:35.797Z", 
    "photo": "http://b.cdnbrm.com/images/products/small/bumpers/fey_by_westin_sure_step_bumper.gif?Lo0P=0ab618b0b61547022afeeb2b12fc12bd5808", 
    "catalog": 35, 
    "cost": "$294.99", 
    "quantum": 10
  }, 
  "model": "products.product"
},
{
  "fields": {
    "updated": "2016-10-18T01:46:35.797Z", 
    "name": "Westin HDX Front Bumper", 
    "created": "2016-10-18T01:46:35.797Z", 
    "photo": "http://b.cdnbrm.com/images/products/small/bumpers/westin_hdx_front_bumper_hero_3.gif", 
    "catalog": 35, 
    "cost": "$1,599.99", 
    "quantum": 10
  }, 
  "model": "products.product"
},
{
  "fields": {
    "updated": "2016-10-18T01:46:35.797Z", 
    "name": "Iron Cross Jeep Rear Bumpers", 
    "created": "2016-10-18T01:46:35.797Z", 
    "photo": "http://b.cdnbrm.com/images/products/small/bumpers/iron_cross_jeep_rear_bumpers_hero.gif?Lo0P=4f58f39fd2742055e92ef4204ef8084a6893", 
    "catalog": 35, 
    "cost": "$495.00", 
    "quantum": 10
  }, 
  "model": "products.product"
},
{
  "fields": {
    "updated": "2016-10-18T01:46:35.797Z", 
    "name": "Iron Cross D-Ring Shackles", 
    "created": "2016-10-18T01:46:35.797Z", 
    "photo": "http://b.cdnbrm.com/images/products/small/winches/iron_cross_d_ring_shackles_hero.gif?Lo0P=5585cf9eb8b9ecbf5bbde10126cfe1d63704", 
    "catalog": 35, 
    "cost": "$15.00 each", 
    "quantum": 10
  }, 
  "model": "products.product"
},
{
  "fields": {
    "updated": "2016-10-18T01:46:35.797Z", 
    "name": "Steelcraft HD Front Bumper", 
    "created": "2016-10-18T01:46:35.797Z", 
    "photo": "http://b.cdnbrm.com/images/products/small/bumpers/steelcraft_frontbumper_hd11370_hero.gif?Lo0P=7539088298e5784f54950c9cd5b4d24f5986", 
    "catalog": 35, 
    "cost": "$881.10", 
    "quantum": 10
  }, 
  "model": "products.product"
},
{
  "fields": {
    "updated": "2016-10-18T01:46:35.797Z", 
    "name": "Iron Cross Jeep Front Bumpers", 
    "created": "2016-10-18T01:46:35.797Z", 
    "photo": "http://b.cdnbrm.com/images/products/small/bumpers/iron_cross_jeep_front_bumpers_hero.gif?Lo0P=5dcbc5d5ccaa6af49506d91de51c0d4e7557", 
    "catalog": 35, 
    "cost": "$405.00", 
    "quantum": 10
  }, 
  "model": "products.product"
},
{
  "fields": {
    "updated": "2016-10-18T01:46:35.797Z", 
    "name": "Street Scene Front Spoilers", 
    "created": "2016-10-18T01:46:35.797Z", 
    "photo": "http://b.cdnbrm.com/images/products/small/body_styling/street_scene_front_spoilers.gif?Lo0P=de84a7cac4ca506906dc3679069845d45132", 
    "catalog": 35, 
    "cost": "$194.99 each", 
    "quantum": 10
  }, 
  "model": "products.product"
},
{
  "fields": {
    "updated": "2016-10-18T01:46:35.797Z", 
    "name": "N-Fab RSP Front Bumper", 
    "created": "2016-10-18T01:46:35.797Z", 
    "photo": "http://b.cdnbrm.com/images/products/small/bumpers/n_fab_rsp_front_bumper_hero_2.gif?Lo0P=628ce110d0144e5be4d8f04ecb2b156e7624", 
    "catalog": 35, 
    "cost": "$577.89 each", 
    "quantum": 10
  }, 
  "model": "products.product"
},
{
  "fields": {
    "updated": "2016-10-18T01:46:35.797Z", 
    "name": "Broadfeet Rear Bumper Guard", 
    "created": "2016-10-18T01:46:35.797Z", 
    "photo": "http://b.cdnbrm.com/images/products/small/grille_guards/broadfeet_rear_bumper_guard_hero.gif?Lo0P=7ca2ebc626a3027dd878aef6f3de41f66094", 
    "catalog": 35, 
    "cost": "$230.00", 
    "quantum": 10
  }, 
  "model": "products.product"
},
{
  "fields": {
    "updated": "2016-10-18T01:46:35.797Z", 
    "name": "FEY Diamondstep Bumper", 
    "created": "2016-10-18T01:46:35.797Z", 
    "photo": "http://b.cdnbrm.com/images/products/small/bumpers/fey_by_westin_diamond_plate_step_bumper.gif?Lo0P=deb41b81fd3f66f51e0b6347c004f9026134", 
    "catalog": 35, 
    "cost": "$234.99", 
    "quantum": 10
  }, 
  "model": "products.product"
},
{
  "fields": {
    "updated": "2016-10-18T01:46:35.797Z", 
    "name": "Smittybilt GEN2 XRC Rear Bumper", 
    "created": "2016-10-18T01:46:35.797Z", 
    "photo": "http://b.cdnbrm.com/images/products/small/bumpers/smittybilt_gen2_xrc_rear_bumper_hero.gif?Lo0P=b01408d6180d64c7528e8ff4b903dbf05769", 
    "catalog": 35, 
    "cost": "$699.99", 
    "quantum": 10
  }, 
  "model": "products.product"
},
{
  "fields": {
    "updated": "2016-10-18T01:46:35.797Z", 
    "name": "Go Rhino Jeep Rear Bumper", 
    "created": "2016-10-18T01:46:35.797Z", 
    "photo": "http://b.cdnbrm.com/images/products/small/bumpers/go_rhino_jeep_rear_bumper_hero.gif?Lo0P=d888bdc17dff32ee5824937412751c7f6473", 
    "catalog": 35, 
    "cost": "$649.95 each", 
    "quantum": 10
  }, 
  "model": "products.product"
},
{
  "fields": {
    "updated": "2016-10-18T01:46:35.797Z", 
    "name": "Steelcraft HD Rear Bumper", 
    "created": "2016-10-18T01:46:35.797Z", 
    "photo": "http://b.cdnbrm.com/images/products/small/bumpers/steelcraft_hd_rear_bumper_hero.gif?Lo0P=7f76fbf300e9d99f9a7b1eb240600f534839", 
    "catalog": 35, 
    "cost": "$521.10", 
    "quantum": 10
  }, 
  "model": "products.product"
},
{
  "fields": {
    "updated": "2016-10-18T01:46:35.797Z", 
    "name": "N-Fab RBS Rear Bumper", 
    "created": "2016-10-18T01:46:35.797Z", 
    "photo": "http://b.cdnbrm.com/images/products/small/bumpers/n-fab_rbs_rear_bumper_hero.gif?Lo0P=7909f004c11e84f0409d9d8faeca84236355", 
    "catalog": 35, 
    "cost": "$472.63 each", 
    "quantum": 10
  }, 
  "model": "products.product"
},
{
  "fields": {
    "updated": "2016-10-18T01:46:35.797Z", 
    "name": "Ranch Hand Legend Rear Bumper", 
    "created": "2016-10-18T01:46:35.797Z", 
    "photo": "http://b.cdnbrm.com/images/products/small/bumpers/ranch_hand_legend_rear_bumper_hero.gif", 
    "catalog": 35, 
    "cost": "$525.00", 
    "quantum": 10
  }, 
  "model": "products.product"
},
{
  "fields": {
    "updated": "2016-10-18T01:46:35.797Z", 
    "name": "Smittybilt GEN2 Bumper Tire Carrier", 
    "created": "2016-10-18T01:46:35.797Z", 
    "photo": "http://b.cdnbrm.com/images/products/small/bumpers/smittybilt_gen2_bumper_tire_carrier_hero.gif", 
    "catalog": 35, 
    "cost": "$499.99", 
    "quantum": 10
  }, 
  "model": "products.product"
},
{
  "fields": {
    "updated": "2016-10-18T01:46:35.797Z", 
    "name": "Smittybilt XRC Rear Bumper", 
    "created": "2016-10-18T01:46:35.797Z", 
    "photo": "http://b.cdnbrm.com/images/products/small/bumpers/smittybilt_xrc_rear_bumper_hero.gif", 
    "catalog": 35, 
    "cost": "$274.99 each", 
    "quantum": 10
  }, 
  "model": "products.product"
},
{
  "fields": {
    "updated": "2016-10-18T01:46:35.797Z", 
    "name": "Poison Spyder RockBrawler Front Bumpers", 
    "created": "2016-10-18T01:46:35.797Z", 
    "photo": "http://b.cdnbrm.com/images/products/small/bumpers/poison_spyder_rockbrawler_front_bumpers_hero.gif", 
    "catalog": 35, 
    "cost": "$375.99", 
    "quantum": 10
  }, 
  "model": "products.product"
},
{
  "fields": {
    "updated": "2016-10-18T01:46:35.797Z", 
    "name": "Smittybilt XRC Front Bumpers", 
    "created": "2016-10-18T01:46:35.797Z", 
    "photo": "http://b.cdnbrm.com/images/products/small/jeep_accessories/smittybilt_xrc_jeep_bumpers.gif", 
    "catalog": 35, 
    "cost": "$419.99 each", 
    "quantum": 10
  }, 
  "model": "products.product"
},
{
  "fields": {
    "updated": "2016-10-18T01:46:35.797Z", 
    "name": "Smittybilt XRC Black Box Hitch Mount Winch Cradle", 
    "created": "2016-10-18T01:46:35.797Z", 
    "photo": "http://b.cdnbrm.com/images/products/small/winches/smittybilt_xrc_black_box_hitch_mount_winch_cradle_hero.gif", 
    "catalog": 35, 
    "cost": "$399.99 each", 
    "quantum": 10
  }, 
  "model": "products.product"
},
{
  "fields": {
    "updated": "2016-10-18T01:46:35.797Z", 
    "name": "Pro Comp Rear Jeep Crawler Bumpers", 
    "created": "2016-10-18T01:46:35.797Z", 
    "photo": "http://b.cdnbrm.com/images/products/small/lights/pro_comp_rear_jeep_crawler_bumpers_hero.gif", 
    "catalog": 35, 
    "cost": "$125.99 each", 
    "quantum": 10
  }, 
  "model": "products.product"
},
{
  "fields": {
    "updated": "2016-10-18T01:46:35.797Z", 
    "name": "Rugged Ridge Tube Bumpers", 
    "created": "2016-10-18T01:46:35.797Z", 
    "photo": "http://b.cdnbrm.com/images/products/small/jeep_accessories/rugged_ridge_tube_bumper.gif", 
    "catalog": 35, 
    "cost": "$140.99", 
    "quantum": 10
  }, 
  "model": "products.product"
},
{
  "fields": {
    "updated": "2016-10-18T01:46:35.797Z", 
    "name": "Poison Spyder BFH Front Bumpers", 
    "created": "2016-10-18T01:46:35.797Z", 
    "photo": "http://b.cdnbrm.com/images/products/small/bumpers/poison_spyder_bfh_front_bumpers_hero.gif", 
    "catalog": 35, 
    "cost": "$269.99", 
    "quantum": 10
  }, 
  "model": "products.product"
},
{
  "fields": {
    "updated": "2016-10-18T01:46:35.797Z", 
    "name": "N-Fab PreRunner", 
    "created": "2016-10-18T01:46:35.797Z", 
    "photo": "http://b.cdnbrm.com/images/products/small/lights/n_fab_prerunner_hero.gif", 
    "catalog": 35, 
    "cost": "$309.74 each", 
    "quantum": 10
  }, 
  "model": "products.product"
},
{
  "fields": {
    "updated": "2016-10-18T01:46:35.797Z", 
    "name": "N-Fab Rear Runner", 
    "created": "2016-10-18T01:46:35.797Z", 
    "photo": "http://b.cdnbrm.com/images/products/small/lights/n_fab_rear_runner_hero.gif", 
    "catalog": 35, 
    "cost": "$292.84 each", 
    "quantum": 10
  }, 
  "model": "products.product"
},
{
  "fields": {
    "updated": "2016-10-18T01:46:35.797Z", 
    "name": "ProZ Premium Rear Bumper Guard", 
    "created": "2016-10-18T01:46:35.797Z", 
    "photo": "http://b.cdnbrm.com/images/products/small/bumpers/proz_premium_rear_bumper_guard_hero.gif", 
    "catalog": 35, 
    "cost": "$174.99", 
    "quantum": 10
  }, 
  "model": "products.product"
},
{
  "fields": {
    "updated": "2016-10-18T01:46:35.797Z", 
    "name": "Smittybilt Tubular Front Bumpers", 
    "created": "2016-10-18T01:46:35.797Z", 
    "photo": "http://b.cdnbrm.com/images/products/small/jeep_accessories/smittybilt_tubular_jeep_bumpers.gif?Lo0P=023b74876647788bc0d1351fcd5ec0646704", 
    "catalog": 35, 
    "cost": "$139.99 each", 
    "quantum": 10
  }, 
  "model": "products.product"
},
{
  "fields": {
    "updated": "2016-10-18T01:46:35.797Z", 
    "name": "Pro Comp Front Jeep Crawler Bumpers", 
    "created": "2016-10-18T01:46:35.797Z", 
    "photo": "http://b.cdnbrm.com/images/products/small/lights/pro_comp_front_jeep_crawler_bumpers_hero.gif", 
    "catalog": 35, 
    "cost": "$89.99 each", 
    "quantum": 10
  }, 
  "model": "products.product"
},
{
  "fields": {
    "updated": "2016-10-18T01:46:35.797Z", 
    "name": "Poison Spyder RockBrawler Skid Plate", 
    "created": "2016-10-18T01:46:35.797Z", 
    "photo": "http://b.cdnbrm.com/images/products/small/bumpers/poison_spyder_rockbrawler_skid_plate_hero.gif", 
    "catalog": 35, 
    "cost": "$209.99 each", 
    "quantum": 10
  }, 
  "model": "products.product"
},
{
  "fields": {
    "updated": "2016-10-18T01:46:35.797Z", 
    "name": "Iron Cross Flip Down License Plate Kit", 
    "created": "2016-10-18T01:46:35.797Z", 
    "photo": "http://b.cdnbrm.com/images/products/small/bumpers/iron_cross_flip_down_license_plate_kit_hero.gif", 
    "catalog": 35, 
    "cost": "$50.00", 
    "quantum": 10
  }, 
  "model": "products.product"
},
{
  "fields": {
    "updated": "2016-10-18T01:46:35.797Z", 
    "name": "Rugged Ridge Heavy Duty Tire Carrier", 
    "created": "2016-10-18T01:46:35.797Z", 
    "photo": "http://b.cdnbrm.com/images/products/small/bumpers/rugged_ridge_heavy_duty_tire_carrier_hero.gif", 
    "catalog": 35, 
    "cost": "$45.89 each", 
    "quantum": 10
  }, 
  "model": "products.product"
},
{
  "fields": {
    "updated": "2016-10-18T01:46:35.797Z", 
    "name": "Iron Cross Receiver Hitch Winch Plate", 
    "created": "2016-10-18T01:46:35.797Z", 
    "photo": "http://b.cdnbrm.com/images/products/small/bumpers/iron_cross_receiver_hitch_winch_plate_hero.gif", 
    "catalog": 35, 
    "cost": "$90.00", 
    "quantum": 10
  }, 
  "model": "products.product"
},
{
  "fields": {
    "updated": "2016-10-18T01:46:35.797Z", 
    "name": "Bestop HighRock 4X4 Receiver Recovery Hitch", 
    "created": "2016-10-18T01:46:35.797Z", 
    "photo": "http://b.cdnbrm.com/images/products/small/winches/bestop_highrock_4x4_receiver_recovery_hitch.gif", 
    "catalog": 35, 
    "cost": "$39.99", 
    "quantum": 10
  }, 
  "model": "products.product"
},
{
  "fields": {
    "updated": "2016-10-18T01:46:35.797Z", 
    "name": "Iron Cross RS Front Bumpers", 
    "created": "2016-10-18T01:46:35.797Z", 
    "photo": "http://b.cdnbrm.com/images/products/small/bumpers/iron_cross_rs_front_bumpers_hero.gif", 
    "catalog": 35, 
    "cost": "$1,058.40", 
    "quantum": 10
  }, 
  "model": "products.product"
},
{
  "fields": {
    "updated": "2016-10-18T01:46:35.797Z", 
    "name": "Rugged Ridge XHD Double X Striker", 
    "created": "2016-10-18T01:46:35.797Z", 
    "photo": "http://b.cdnbrm.com/images/products/small/bumpers/rugged_ridge_xhd_double_x_striker_hero.gif", 
    "catalog": 35, 
    "cost": "$285.99", 
    "quantum": 10
  }, 
  "model": "products.product"
},
{
  "fields": {
    "updated": "2016-10-18T01:46:35.797Z", 
    "name": "Smittybilt GEN2 SRC Rear Bumper", 
    "created": "2016-10-18T01:46:35.797Z", 
    "photo": "http://b.cdnbrm.com/images/products/small/bumpers/smittybilt_gen2_src_rear_bumper_hero.gif", 
    "catalog": 35, 
    "cost": "$599.99", 
    "quantum": 10
  }, 
  "model": "products.product"
},
{
  "fields": {
    "updated": "2016-10-18T01:46:35.797Z", 
    "name": "RKSport Bumper Covers", 
    "created": "2016-10-18T01:46:35.797Z", 
    "photo": "http://b.cdnbrm.com/images/products/small/body_styling/rksport_bumper_covers.gif", 
    "catalog": 35, 
    "cost": "$344.46 /kit", 
    "quantum": 10
  }, 
  "model": "products.product"
},
{
  "fields": {
    "updated": "2016-10-18T01:46:35.797Z", 
    "name": "Aries Replacement Rear Jeep Bumpers", 
    "created": "2016-10-18T01:46:35.797Z", 
    "photo": "http://b.cdnbrm.com/images/products/small/bumpers/aries_replacement_rear_jeep_bumpers.gif", 
    "catalog": 35, 
    "cost": "$557.99", 
    "quantum": 10
  }, 
  "model": "products.product"
},
{
  "fields": {
    "updated": "2016-10-18T01:46:35.797Z", 
    "name": "ProZ Premium Winch Plate", 
    "created": "2016-10-18T01:46:35.797Z", 
    "photo": "http://b.cdnbrm.com/images/products/small/winches/proz_premium_winch_plate_hero.gif", 
    "catalog": 35, 
    "cost": "$140.99 each", 
    "quantum": 10
  }, 
  "model": "products.product"
},
{
  "fields": {
    "updated": "2016-10-18T01:46:35.797Z", 
    "name": "Ranch Hand Push Bars", 
    "created": "2016-10-18T01:46:35.797Z", 
    "photo": "http://b.cdnbrm.com/images/products/small/grille_guards/ranch_hand_push_bars_hero.gif", 
    "catalog": 35, 
    "cost": "$479.00", 
    "quantum": 10
  }, 
  "model": "products.product"
},
{
  "fields": {
    "updated": "2016-10-18T01:46:35.797Z", 
    "name": "Ranch Hand Horizon Front Bumper", 
    "created": "2016-10-18T01:46:35.797Z", 
    "photo": "http://b.cdnbrm.com/images/products/small/bumpers/ranch_hand_horizon_front_bumper_hero.gif", 
    "catalog": 35, 
    "cost": "$675.00", 
    "quantum": 10
  }, 
  "model": "products.product"
},
{
  "fields": {
    "updated": "2016-10-18T01:46:35.797Z", 
    "name": "Street Scene Front Bumper Covers", 
    "created": "2016-10-18T01:46:35.797Z", 
    "photo": "http://b.cdnbrm.com/images/products/small/body_styling/street_scene_front_bumper_covers.gif", 
    "catalog": 35, 
    "cost": "$214.99", 
    "quantum": 10
  }, 
  "model": "products.product"
},
{
  "fields": {
    "updated": "2016-10-18T01:46:35.797Z", 
    "name": "Ranch Hand Sport Front Bumper", 
    "created": "2016-10-18T01:46:35.797Z", 
    "photo": "http://b.cdnbrm.com/images/products/small/bumpers/ranch_hand_sport_front_bumper_hero.gif", 
    "catalog": 35, 
    "cost": "$999.00", 
    "quantum": 10
  }, 
  "model": "products.product"
},
{
  "fields": {
    "updated": "2016-10-18T01:46:35.797Z", 
    "name": "Putco Stainless Steel Bumper Covers", 
    "created": "2016-10-18T01:46:35.797Z", 
    "photo": "http://b.cdnbrm.com/images/products/small/chrome_accessories/putco_stainless_steel_bumper_covers_hero.gif", 
    "catalog": 35, 
    "cost": "", 
    "quantum": 10
  }, 
  "model": "products.product"
},
{
  "fields": {
    "updated": "2016-10-18T01:46:35.797Z", 
    "name": "Rugged Ridge Aluminum XHD Bumper System", 
    "created": "2016-10-18T01:46:35.797Z", 
    "photo": "http://b.cdnbrm.com/images/products/small/bumpers/rugged_ridge_xhd_aluminum_rear_bumper_system.gif", 
    "catalog": 35, 
    "cost": "$218.99 each", 
    "quantum": 10
  }, 
  "model": "products.product"
},
{
  "fields": {
    "updated": "2016-10-18T01:46:35.797Z", 
    "name": "Smittybilt Tubular Rear Bumper", 
    "created": "2016-10-18T01:46:35.797Z", 
    "photo": "http://b.cdnbrm.com/images/products/small/bumpers/smittybilt_tubular_rear_bumper_hero.gif", 
    "catalog": 35, 
    "cost": "$139.99 each", 
    "quantum": 10
  }, 
  "model": "products.product"
},
{
  "fields": {
    "updated": "2016-10-18T01:46:35.797Z", 
    "name": "Body Armor Front Bumpers", 
    "created": "2016-10-18T01:46:35.797Z", 
    "photo": "http://b.cdnbrm.com/images/products/small/bumpers/body_armor_front_jeep_bumper.gif", 
    "catalog": 35, 
    "cost": "$399.95", 
    "quantum": 10
  }, 
  "model": "products.product"
}
]