[
{
  "fields": {
    "type": "E", 
    "id": 41, 
    "name": "Grille Guards & Bull Bars"
  }, 
  "model": "products.productcatalog"
},
{
  "fields": {
    "updated": "2016-10-18T01:46:35.797Z", 
    "name": "Black Horse Off Road Grille Guard", 
    "created": "2016-10-18T01:46:35.797Z", 
    "photo": "http://b.cdnbrm.com/images/products/small/grille_guards/black_horse_off_road_grille_guard_hero_1.gif?Lo0P=cb3353aaa1dcb6619803023cad75f4256953", 
    "catalog": 41, 
    "cost": "$270.00", 
    "quantum": 10
  }, 
  "model": "products.product"
},
{
  "fields": {
    "updated": "2016-10-18T01:46:35.797Z", 
    "name": "Westin HDX Grille Guard", 
    "created": "2016-10-18T01:46:35.797Z", 
    "photo": "http://b.cdnbrm.com/images/products/small/grille_guards/westin_hdx_grille_guard_new2.gif?Lo0P=d744a38c4c82ca4b226884861f57a28c4933", 
    "catalog": 41, 
    "cost": "$599.99", 
    "quantum": 10
  }, 
  "model": "products.product"
},
{
  "fields": {
    "updated": "2016-10-18T01:46:35.797Z", 
    "name": "ARB Deluxe Front Bumper Bull Bars", 
    "created": "2016-10-18T01:46:35.797Z", 
    "photo": "http://b.cdnbrm.com/images/products/small/grille_guards/arb_deluxe_bull_bars_5773.gif?Lo0P=6f5a4ccf032af5bdcdc1c0d3ed8624ee6667", 
    "catalog": 41, 
    "cost": "$729.60 ", 
    "quantum": 10
  }, 
  "model": "products.product"
},
{
  "fields": {
    "updated": "2016-10-18T01:46:35.797Z", 
    "name": "Iron Cross HD Front Bumpers", 
    "created": "2016-10-18T01:46:35.797Z", 
    "photo": "http://b.cdnbrm.com/images/products/small/bumpers/iron_cross_hd_front_bumpers_hero.gif?Lo0P=0a31a41c81e861cb417521820a0124c57159", 
    "catalog": 41, 
    "cost": "$1,058.40", 
    "quantum": 10
  }, 
  "model": "products.product"
},
{
  "fields": {
    "updated": "2016-10-18T01:46:35.797Z", 
    "name": "Aries Bull Bar", 
    "created": "2016-10-18T01:46:35.797Z", 
    "photo": "http://b.cdnbrm.com/images/products/small/grille_guards/aries_offroad_bull_bar_w_skid_plate_hero.gif?Lo0P=77c213187140f4fb960298f1ba8b1fe85799", 
    "catalog": 41, 
    "cost": "$206.99", 
    "quantum": 10
  }, 
  "model": "products.product"
},
{
  "fields": {
    "updated": "2016-10-18T01:46:35.797Z", 
    "name": "Aries Grille Guard", 
    "created": "2016-10-18T01:46:35.797Z", 
    "photo": "http://b.cdnbrm.com/images/products/small/grille_guards/aries_off_road_grille_guard_blk_hero.gif?Lo0P=96dbfa7cf9aff190564b9cae9dead05a5705", 
    "catalog": 41, 
    "cost": "$404.99", 
    "quantum": 10
  }, 
  "model": "products.product"
},
{
  "fields": {
    "updated": "2016-10-18T01:46:35.797Z", 
    "name": "Steelcraft HD Grille Guard", 
    "created": "2016-10-18T01:46:35.797Z", 
    "photo": "http://b.cdnbrm.com/images/products/small/grille_guards/steelcraft_hd_grill_guard_hero_2.gif?Lo0P=da22037568bd52692779e049e98b9edf7329", 
    "catalog": 41, 
    "cost": "$489.99", 
    "quantum": 10
  }, 
  "model": "products.product"
},
{
  "fields": {
    "updated": "2016-10-18T01:46:35.797Z", 
    "name": "Steelcraft Grille Guards", 
    "created": "2016-10-18T01:46:35.797Z", 
    "photo": "http://b.cdnbrm.com/images/products/small/grille_guards/steelcraft_grille_guards_new.gif?Lo0P=760adc7bcf1362190eb39697099dabf67310", 
    "catalog": 41, 
    "cost": "$399.99", 
    "quantum": 10
  }, 
  "model": "products.product"
},
{
  "fields": {
    "updated": "2016-10-18T01:46:35.797Z", 
    "name": "Westin Ultimate Bull Bar", 
    "created": "2016-10-18T01:46:35.797Z", 
    "photo": "http://b.cdnbrm.com/images/products/small/grille_guards/westin_ultimate_bull_bar_hero1.gif?Lo0P=181358d59a1144deec88240cd23cb82c6865", 
    "catalog": 41, 
    "cost": "$260.99", 
    "quantum": 10
  }, 
  "model": "products.product"
},
{
  "fields": {
    "updated": "2016-10-18T01:46:35.797Z", 
    "name": "Steelcraft Bull Bars", 
    "created": "2016-10-18T01:46:35.797Z", 
    "photo": "http://b.cdnbrm.com/images/products/small/grille_guards/steelcraft_bull_bars_hero.gif?Lo0P=0fb58b034493b8eea1dabf9185b93ee05516", 
    "catalog": 41, 
    "cost": "$169.99", 
    "quantum": 10
  }, 
  "model": "products.product"
},
{
  "fields": {
    "updated": "2016-10-18T01:46:35.797Z", 
    "name": "Black Horse Off Road Bull Bar", 
    "created": "2016-10-18T01:46:35.797Z", 
    "photo": "http://b.cdnbrm.com/images/products/small/grille_guards/black_horse_off_road_bull_bar_hero1.gif?Lo0P=9b611613a28ec35e7e05cc3bb790cfbe6745", 
    "catalog": 41, 
    "cost": "$206.10", 
    "quantum": 10
  }, 
  "model": "products.product"
},
{
  "fields": {
    "updated": "2016-10-18T01:46:35.797Z", 
    "name": "Black Horse Off Road Max Bull Bar", 
    "created": "2016-10-18T01:46:35.797Z", 
    "photo": "http://b.cdnbrm.com/images/products/small/grille_guards/black_horse_off_road_max_bull_bar_hero_2.gif?Lo0P=69ce5d30a1b0889b99682c83227a3dfd8026", 
    "catalog": 41, 
    "cost": "$206.10 each", 
    "quantum": 10
  }, 
  "model": "products.product"
},
{
  "fields": {
    "updated": "2016-10-18T01:46:35.797Z", 
    "name": "Westin Sportsman 1 Piece Grille Guard", 
    "created": "2016-10-18T01:46:35.797Z", 
    "photo": "http://b.cdnbrm.com/images/products/small/grille_guards/westin_sportsman_1_piece_grille_guard.gif?Lo0P=051f22be1eb1f6da33d4c7e438fe69e14120", 
    "catalog": 41, 
    "cost": "$449.99", 
    "quantum": 10
  }, 
  "model": "products.product"
},
{
  "fields": {
    "updated": "2016-10-18T01:46:35.797Z", 
    "name": "ProZ Premium Grille Guards", 
    "created": "2016-10-18T01:46:35.797Z", 
    "photo": "http://b.cdnbrm.com/images/products/small/running_boards/autoanything_pl_premium_grille_guards_hero.gif?Lo0P=0a740b768c022517c348e165611f19676993", 
    "catalog": 41, 
    "cost": "$399.99", 
    "quantum": 10
  }, 
  "model": "products.product"
},
{
  "fields": {
    "updated": "2016-10-18T01:46:35.797Z", 
    "name": "AMI Swing Step Grille Guard", 
    "created": "2016-10-18T01:46:35.797Z", 
    "photo": "http://b.cdnbrm.com/images/products/small/grille_guards/ami_swing_step_grille_guard_hero.gif?Lo0P=9ba225730f6aba594c7fd43e0a8023005730", 
    "catalog": 41, 
    "cost": "$244.99", 
    "quantum": 10
  }, 
  "model": "products.product"
},
{
  "fields": {
    "updated": "2016-10-18T01:46:35.797Z", 
    "name": "Ranch Hand Legend Grille Guard", 
    "created": "2016-10-18T01:46:35.797Z", 
    "photo": "http://b.cdnbrm.com/images/products/small/grille_guards/ranch_hand_legend_grille_guard_hero.gif?Lo0P=b8e50fabbec5d4e43c410a1d6306c6917901", 
    "catalog": 41, 
    "cost": "$499.00", 
    "quantum": 10
  }, 
  "model": "products.product"
},
{
  "fields": {
    "updated": "2016-10-18T01:46:35.797Z", 
    "name": "ProZ Premium Bull Bars", 
    "created": "2016-10-18T01:46:35.797Z", 
    "photo": "http://b.cdnbrm.com/images/products/small/grille_guards/premium_bull_bars_hero.gif?Lo0P=e09f6f1b414b9460184ff1025ccfa9b36495", 
    "catalog": 41, 
    "cost": "$199.99", 
    "quantum": 10
  }, 
  "model": "products.product"
},
{
  "fields": {
    "updated": "2016-10-18T01:46:35.797Z", 
    "name": "Go Rhino RC2 LR Bull Bar", 
    "created": "2016-10-18T01:46:35.797Z", 
    "photo": "http://b.cdnbrm.com/images/products/small/grille_guards/go_rhino_rc2_lr_bull_bar_hero.gif?Lo0P=b75117d63f2d2dd37a3b3bfcac5b0a496450", 
    "catalog": 41, 
    "cost": "$207.72", 
    "quantum": 10
  }, 
  "model": "products.product"
},
{
  "fields": {
    "updated": "2016-10-18T01:46:35.797Z", 
    "name": "Black Horse Off Road Rear Bumper Guard", 
    "created": "2016-10-18T01:46:35.797Z", 
    "photo": "http://b.cdnbrm.com/images/products/small/grille_guards/black_horse_off_road_rear_bumper_guard_hero.gif?Lo0P=6a4afe5e57e0cfa4b82f7399284884524604", 
    "catalog": 41, 
    "cost": "$206.10", 
    "quantum": 10
  }, 
  "model": "products.product"
},
{
  "fields": {
    "updated": "2016-10-18T01:46:35.797Z", 
    "name": "Go Industries Big Tex Grille Guard", 
    "created": "2016-10-18T01:46:35.797Z", 
    "photo": "http://b.cdnbrm.com/images/products/small/grille_guards/go_industries_big_tex_grille_guard.gif?Lo0P=76a1288e9162f13b25d1958213f8f22e4042", 
    "catalog": 41, 
    "cost": "$459.99 ", 
    "quantum": 10
  }, 
  "model": "products.product"
},
{
  "fields": {
    "updated": "2016-10-18T01:46:35.797Z", 
    "name": "Lund LED Bull Bars", 
    "created": "2016-10-18T01:46:35.797Z", 
    "photo": "http://b.cdnbrm.com/images/products/small/grille_guards/lund_led_bull_bars_hero.gif?Lo0P=dc64dafd6300658d816e7b88bb2ce9727623", 
    "catalog": 41, 
    "cost": "$449.99", 
    "quantum": 10
  }, 
  "model": "products.product"
},
{
  "fields": {
    "updated": "2016-10-18T01:46:35.797Z", 
    "name": "Dee Zee Euro Grille Guard", 
    "created": "2016-10-18T01:46:35.797Z", 
    "photo": "http://b.cdnbrm.com/images/products/small/grille_guards/dee_zee_euro_grille_guard_hero1.gif?Lo0P=1b0468f973469cfbb5b0d1f50f60ca9c6570", 
    "catalog": 41, 
    "cost": "$379.99", 
    "quantum": 10
  }, 
  "model": "products.product"
},
{
  "fields": {
    "updated": "2016-10-18T01:46:35.797Z", 
    "name": "Go Rhino RC2 Bull Bar", 
    "created": "2016-10-18T01:46:35.797Z", 
    "photo": "http://b.cdnbrm.com/images/products/small/grille_guards/go_rhino_rhino_charger_bull_bar_hero.gif?Lo0P=569a344e1e4cb674aad74d2c94feefd27369", 
    "catalog": 41, 
    "cost": "$205.80", 
    "quantum": 10
  }, 
  "model": "products.product"
},
{
  "fields": {
    "updated": "2016-10-18T01:46:35.797Z", 
    "name": "Go Industries Rancher Grille Guard", 
    "created": "2016-10-18T01:46:35.797Z", 
    "photo": "http://b.cdnbrm.com/images/products/small/grille_guards/go_industires_rancher_grille_guard_hero_2.gif?Lo0P=1e57018b56e120095b58eeb292f205e26480", 
    "catalog": 41, 
    "cost": "$639.99", 
    "quantum": 10
  }, 
  "model": "products.product"
},
{
  "fields": {
    "updated": "2016-10-18T01:46:35.797Z", 
    "name": "ProZ Premium LED Bull Bar", 
    "created": "2016-10-18T01:46:35.797Z", 
    "photo": "http://b.cdnbrm.com/images/products/small/grille_guards/proz_premium_led_bull_bar_hero1.gif", 
    "catalog": 41, 
    "cost": "$399.99", 
    "quantum": 10
  }, 
  "model": "products.product"
},
{
  "fields": {
    "updated": "2016-10-18T01:46:35.797Z", 
    "name": "Broadfeet Grille Guard", 
    "created": "2016-10-18T01:46:35.797Z", 
    "photo": "http://b.cdnbrm.com/images/products/small/grille_guards/broadfeet_grille_guards_hero.gif?Lo0P=ea7b9f07ffa79dafbedd09f78236efc87476", 
    "catalog": 41, 
    "cost": "$490.00", 
    "quantum": 10
  }, 
  "model": "products.product"
},
{
  "fields": {
    "updated": "2016-10-18T01:46:35.797Z", 
    "name": "Aries Big Horn Bull Bar", 
    "created": "2016-10-18T01:46:35.797Z", 
    "photo": "http://b.cdnbrm.com/images/products/small/grille_guards/aries_big_horn_bull_bar_stainless.gif?Lo0P=a7ebce186ac8117f5a8ad889b2c13eba6649", 
    "catalog": 41, 
    "cost": "$310.49", 
    "quantum": 10
  }, 
  "model": "products.product"
},
{
  "fields": {
    "updated": "2016-10-18T01:46:35.797Z", 
    "name": "Broadfeet Front Runner Bumper Guard", 
    "created": "2016-10-18T01:46:35.797Z", 
    "photo": "http://b.cdnbrm.com/images/products/small/grille_guards/broadfeet_front_runner_bumper_guard_hero.gif", 
    "catalog": 41, 
    "cost": "$295.00", 
    "quantum": 10
  }, 
  "model": "products.product"
},
{
  "fields": {
    "updated": "2016-10-18T01:46:35.797Z", 
    "name": "Smittybilt Grille Saver Bull Bar", 
    "created": "2016-10-18T01:46:35.797Z", 
    "photo": "http://b.cdnbrm.com/images/products/small/grille_guards/smittybilt_grille_saver_bull_bar.gif?Lo0P=7e234b0811a0c7fa7e55f2d40afd18d76572", 
    "catalog": 41, 
    "cost": "$179.99", 
    "quantum": 10
  }, 
  "model": "products.product"
},
{
  "fields": {
    "updated": "2016-10-18T01:46:35.797Z", 
    "name": "Westin Contour 3.5\" Bull Bar", 
    "created": "2016-10-18T01:46:35.797Z", 
    "photo": "http://b.cdnbrm.com/images/products/small/grille_guards/westin_contour_3.5_inch_bull_bar_hero.gif", 
    "catalog": 41, 
    "cost": "$399.99", 
    "quantum": 10
  }, 
  "model": "products.product"
},
{
  "fields": {
    "updated": "2016-10-18T01:46:35.797Z", 
    "name": "Black Horse Off Road Sport Bar", 
    "created": "2016-10-18T01:46:35.797Z", 
    "photo": "http://b.cdnbrm.com/images/products/small/grille_guards/black_horse_sport_bar_hero.gif?Lo0P=94c5d36c009c700dccbfd7a81eb35a015306", 
    "catalog": 41, 
    "cost": "$197.10", 
    "quantum": 10
  }, 
  "model": "products.product"
},
{
  "fields": {
    "updated": "2016-10-18T01:46:35.797Z", 
    "name": "Luverne 4\" Oval Bull Bar", 
    "created": "2016-10-18T01:46:35.797Z", 
    "photo": "http://b.cdnbrm.com/images/products/small/grille_guards/luverne_4_inch_oval_bull_bar_hero.gif", 
    "catalog": 41, 
    "cost": "$298.00", 
    "quantum": 10
  }, 
  "model": "products.product"
},
{
  "fields": {
    "updated": "2016-10-18T01:46:35.797Z", 
    "name": "Go Rhino 3000 Series Grille Guard", 
    "created": "2016-10-18T01:46:35.797Z", 
    "photo": "http://b.cdnbrm.com/images/products/small/grille_guards/go_rhino_3000_series_grille_guard_hero.gif?Lo0P=bd98066cd9abf0f55274cb6bd045388f7109", 
    "catalog": 41, 
    "cost": "$507.68", 
    "quantum": 10
  }, 
  "model": "products.product"
},
{
  "fields": {
    "updated": "2016-10-18T01:46:35.797Z", 
    "name": "Luverne Baja Guard", 
    "created": "2016-10-18T01:46:35.797Z", 
    "photo": "http://b.cdnbrm.com/images/products/small/grille_guards/luverne_baja_guard_hero.gif", 
    "catalog": 41, 
    "cost": "$760.00", 
    "quantum": 10
  }, 
  "model": "products.product"
},
{
  "fields": {
    "updated": "2016-10-18T01:46:35.797Z", 
    "name": "Westin E-Series Bull Bar", 
    "created": "2016-10-18T01:46:35.797Z", 
    "photo": "http://b.cdnbrm.com/images/products/small/grille_guards/westin_e-series_bull_bar_hero.gif?Lo0P=d9c96de65fe61e190ade6371e5fc459e6615", 
    "catalog": 41, 
    "cost": "$144.49", 
    "quantum": 10
  }, 
  "model": "products.product"
},
{
  "fields": {
    "updated": "2016-10-18T01:46:35.797Z", 
    "name": "Black Horse Off Road Front Runner Bumper Guard", 
    "created": "2016-10-18T01:46:35.797Z", 
    "photo": "http://b.cdnbrm.com/images/products/small/grille_guards/black_horse_off_road_front_runner_bumper_guard_hero.gif?Lo0P=eb624ff9f51601713865caf94e115d0b6561", 
    "catalog": 41, 
    "cost": "$251.10", 
    "quantum": 10
  }, 
  "model": "products.product"
},
{
  "fields": {
    "updated": "2016-10-18T01:46:35.797Z", 
    "name": "Go Rhino 3000 Series Center Guard", 
    "created": "2016-10-18T01:46:35.797Z", 
    "photo": "http://b.cdnbrm.com/images/products/small/grille_guards/go_rhino_3000_series_center_guard_hero.gif", 
    "catalog": 41, 
    "cost": "$276.58", 
    "quantum": 10
  }, 
  "model": "products.product"
},
{
  "fields": {
    "updated": "2016-10-18T01:46:35.797Z", 
    "name": "Broadfeet Bull Bar", 
    "created": "2016-10-18T01:46:35.797Z", 
    "photo": "http://b.cdnbrm.com/images/products/small/grille_guards/broadfeet_bull_bar_hero1.gif", 
    "catalog": 41, 
    "cost": "$230.00", 
    "quantum": 10
  }, 
  "model": "products.product"
},
{
  "fields": {
    "updated": "2016-10-18T01:46:35.797Z", 
    "name": "Luverne Tubular Grille Guard", 
    "created": "2016-10-18T01:46:35.797Z", 
    "photo": "http://b.cdnbrm.com/images/products/small/grille_guards/luverne_tubular_grille_guard_hero.gif", 
    "catalog": 41, 
    "cost": "$564.00", 
    "quantum": 10
  }, 
  "model": "products.product"
},
{
  "fields": {
    "updated": "2016-10-18T01:46:35.797Z", 
    "name": "ProZ Premium Tail Light Guards", 
    "created": "2016-10-18T01:46:35.797Z", 
    "photo": "http://b.cdnbrm.com/images/products/small/lights/proz_premium_tail_light_guards_hero.gif", 
    "catalog": 41, 
    "cost": "$45.00 /pair", 
    "quantum": 10
  }, 
  "model": "products.product"
},
{
  "fields": {
    "updated": "2016-10-18T01:46:35.797Z", 
    "name": "Aries 5.5\" AdvantEDGE Bull Bar", 
    "created": "2016-10-18T01:46:35.797Z", 
    "photo": "http://b.cdnbrm.com/images/products/small/grille_guards/aries_5_5_advantedge_bull_bar_hero.gif", 
    "catalog": 41, 
    "cost": "$386.99", 
    "quantum": 10
  }, 
  "model": "products.product"
},
{
  "fields": {
    "updated": "2016-10-18T01:46:35.797Z", 
    "name": "Luverne Prowler Max Grille Guard", 
    "created": "2016-10-18T01:46:35.797Z", 
    "photo": "http://b.cdnbrm.com/images/products/small/grille_guards/luverne_prowler_max_grille_guard_hero.gif?Lo0P=cc9cd68c3578e46894b33f9b23fa3c446431", 
    "catalog": 41, 
    "cost": "$693.00", 
    "quantum": 10
  }, 
  "model": "products.product"
},
{
  "fields": {
    "updated": "2016-10-18T01:46:35.797Z", 
    "name": "Black Horse Off Road 3.5\" Oval Bull Bar", 
    "created": "2016-10-18T01:46:35.797Z", 
    "photo": "http://b.cdnbrm.com/images/products/small/grille_guards/black_horse_off_road_3.5_in_oval_bull_bar.gif", 
    "catalog": 41, 
    "cost": "$260.10", 
    "quantum": 10
  }, 
  "model": "products.product"
},
{
  "fields": {
    "updated": "2016-10-18T01:46:35.797Z", 
    "name": "Aries Pro Series Grille Guard", 
    "created": "2016-10-18T01:46:35.797Z", 
    "photo": "http://b.cdnbrm.com/images/products/small/grille_guards/aries_pro_series_grille_guard_hero.gif", 
    "catalog": 41, 
    "cost": "$512.99", 
    "quantum": 10
  }, 
  "model": "products.product"
},
{
  "fields": {
    "updated": "2016-10-18T01:46:35.797Z", 
    "name": "Steelcraft HD Front Bumper", 
    "created": "2016-10-18T01:46:35.797Z", 
    "photo": "http://b.cdnbrm.com/images/products/small/bumpers/steelcraft_frontbumper_hd11370_hero.gif", 
    "catalog": 41, 
    "cost": "$881.10", 
    "quantum": 10
  }, 
  "model": "products.product"
},
{
  "fields": {
    "updated": "2016-10-18T01:46:35.797Z", 
    "name": "Broadfeet Rear Bumper Guard", 
    "created": "2016-10-18T01:46:35.797Z", 
    "photo": "http://b.cdnbrm.com/images/products/small/grille_guards/broadfeet_rear_bumper_guard_hero.gif", 
    "catalog": 41, 
    "cost": "$230.00", 
    "quantum": 10
  }, 
  "model": "products.product"
},
{
  "fields": {
    "updated": "2016-10-18T01:46:35.797Z", 
    "name": "Broadfeet A-Bar Sport Bar", 
    "created": "2016-10-18T01:46:35.797Z", 
    "photo": "http://b.cdnbrm.com/images/products/small/grille_guards/broadfeet_a_bar_sport_bar_hero.gif", 
    "catalog": 41, 
    "cost": "$230.00", 
    "quantum": 10
  }, 
  "model": "products.product"
},
{
  "fields": {
    "updated": "2016-10-18T01:46:35.797Z", 
    "name": "Go Rhino Winch Guard", 
    "created": "2016-10-18T01:46:35.797Z", 
    "photo": "http://b.cdnbrm.com/images/products/small/grille_guards/go_rhino_winch_guard_hero.gif", 
    "catalog": 41, 
    "cost": "$556.79", 
    "quantum": 10
  }, 
  "model": "products.product"
},
{
  "fields": {
    "updated": "2016-10-18T01:46:35.797Z", 
    "name": "Tuff-Bar Grille Guard", 
    "created": "2016-10-18T01:46:35.797Z", 
    "photo": "http://b.cdnbrm.com/images/products/small/grille_guards/westin_tuff_bar_grille_guard_6138.gif", 
    "catalog": 41, 
    "cost": "$429.99", 
    "quantum": 10
  }, 
  "model": "products.product"
},
{
  "fields": {
    "updated": "2016-10-18T01:46:35.797Z", 
    "name": "Steelcraft 3.5 Inch Oval Bull Bar", 
    "created": "2016-10-18T01:46:35.797Z", 
    "photo": "http://b.cdnbrm.com/images/products/small/grille_guards/steelcraft_3.5_inch_oval_bull_bar_hero.gif", 
    "catalog": 41, 
    "cost": "$246.49", 
    "quantum": 10
  }, 
  "model": "products.product"
},
{
  "fields": {
    "updated": "2016-10-18T01:46:35.797Z", 
    "name": "Go Industries Winch System Grille Guard", 
    "created": "2016-10-18T01:46:35.797Z", 
    "photo": "http://b.cdnbrm.com/images/products/small/grille_guards/go_industries_6377_hero.gif", 
    "catalog": 41, 
    "cost": "$539.99 ", 
    "quantum": 10
  }, 
  "model": "products.product"
},
{
  "fields": {
    "updated": "2016-10-18T01:46:35.797Z", 
    "name": "Black Horse Off Road Spartan Grille Guard", 
    "created": "2016-10-18T01:46:35.797Z", 
    "photo": "http://b.cdnbrm.com/images/products/small/grille_guards/black_horse_off_road_spartan_grille_guard_hero.gif", 
    "catalog": 41, 
    "cost": "$287.10 each", 
    "quantum": 10
  }, 
  "model": "products.product"
},
{
  "fields": {
    "updated": "2016-10-18T01:46:35.797Z", 
    "name": "Tuff-Bar Bull Bars", 
    "created": "2016-10-18T01:46:35.797Z", 
    "photo": "http://b.cdnbrm.com/images/products/small/grille_guards/tuff-bar_bull_bars_5364.gif", 
    "catalog": 41, 
    "cost": "$219.99", 
    "quantum": 10
  }, 
  "model": "products.product"
},
{
  "fields": {
    "updated": "2016-10-18T01:46:35.797Z", 
    "name": "MBRP Front Light Bar & Grille Guard", 
    "created": "2016-10-18T01:46:35.797Z", 
    "photo": "http://b.cdnbrm.com/images/products/small/jeep_accessories/mbrp_jeep_front_light_bar_grille_system.gif", 
    "catalog": 41, 
    "cost": "$119.99", 
    "quantum": 10
  }, 
  "model": "products.product"
},
{
  "fields": {
    "updated": "2016-10-18T01:46:35.797Z", 
    "name": "Westin Tail Light Guard", 
    "created": "2016-10-18T01:46:35.797Z", 
    "photo": "http://b.cdnbrm.com/images/products/small/grille_guards/westin_tail_light_guards.gif", 
    "catalog": 41, 
    "cost": "$149.99 /pair", 
    "quantum": 10
  }, 
  "model": "products.product"
},
{
  "fields": {
    "updated": "2016-10-18T01:46:35.797Z", 
    "name": "AVS Slots Tail Light Guards", 
    "created": "2016-10-18T01:46:35.797Z", 
    "photo": "http://b.cdnbrm.com/images/products/small/grille_guards/slots_tail_light_guards.gif", 
    "catalog": 41, 
    "cost": "$59.99 /pair", 
    "quantum": 10
  }, 
  "model": "products.product"
},
{
  "fields": {
    "updated": "2016-10-18T01:46:35.797Z", 
    "name": "Luverne 3\" Round Bull Bar", 
    "created": "2016-10-18T01:46:35.797Z", 
    "photo": "http://b.cdnbrm.com/images/products/small/grille_guards/luverne_3_inch_round_bull_bar_hero.gif", 
    "catalog": 41, 
    "cost": "$210.00", 
    "quantum": 10
  }, 
  "model": "products.product"
},
{
  "fields": {
    "updated": "2016-10-18T01:46:35.797Z", 
    "name": "ProZ Premium Rear Bumper Guard", 
    "created": "2016-10-18T01:46:35.797Z", 
    "photo": "http://b.cdnbrm.com/images/products/small/bumpers/proz_premium_rear_bumper_guard_hero.gif", 
    "catalog": 41, 
    "cost": "$174.99", 
    "quantum": 10
  }, 
  "model": "products.product"
},
{
  "fields": {
    "updated": "2016-10-18T01:46:35.797Z", 
    "name": "Smittybilt Euro Tail Light Guards", 
    "created": "2016-10-18T01:46:35.797Z", 
    "photo": "http://b.cdnbrm.com/images/products/small/jeep_accessories/smittybilt_jeep_euro_tail_light_guards.gif", 
    "catalog": 41, 
    "cost": "$39.99 /pair", 
    "quantum": 10
  }, 
  "model": "products.product"
},
{
  "fields": {
    "updated": "2016-10-18T01:46:35.797Z", 
    "name": "Westin HD Contour Bar Brackets", 
    "created": "2016-10-18T01:46:35.797Z", 
    "photo": "http://b.cdnbrm.com/images/products/small/lights/westin_hd_contour_bar_brackets_hero.gif", 
    "catalog": 41, 
    "cost": "$39.99 /pair", 
    "quantum": 10
  }, 
  "model": "products.product"
},
{
  "fields": {
    "updated": "2016-10-18T01:46:35.797Z", 
    "name": "ProZ Premium Rock Crawler Tail Light Guards", 
    "created": "2016-10-18T01:46:35.797Z", 
    "photo": "http://b.cdnbrm.com/images/products/small/lights/proz_premium_rock_crawler_tail_light_guards_hero.gif", 
    "catalog": 41, 
    "cost": "$30.99", 
    "quantum": 10
  }, 
  "model": "products.product"
},
{
  "fields": {
    "updated": "2016-10-18T01:46:35.797Z", 
    "name": "Dee Zee Bull Bar", 
    "created": "2016-10-18T01:46:35.797Z", 
    "photo": "http://b.cdnbrm.com/images/products/small/grille_guards/dee_zee_bull_bar_hero.gif", 
    "catalog": 41, 
    "cost": "$209.99", 
    "quantum": 10
  }, 
  "model": "products.product"
},
{
  "fields": {
    "updated": "2016-10-18T01:46:35.797Z", 
    "name": "Steelcraft Sport Bars", 
    "created": "2016-10-18T01:46:35.797Z", 
    "photo": "http://b.cdnbrm.com/images/products/small/grille_guards/steelcraft_sport_bar.gif", 
    "catalog": 41, 
    "cost": "$214.95", 
    "quantum": 10
  }, 
  "model": "products.product"
},
{
  "fields": {
    "updated": "2016-10-18T01:46:35.797Z", 
    "name": "ProZ Premium Sport Bars", 
    "created": "2016-10-18T01:46:35.797Z", 
    "photo": "http://b.cdnbrm.com/images/products/small/grille_guards/proz_premium_sport_bars_hero.gif", 
    "catalog": 41, 
    "cost": "$214.99", 
    "quantum": 10
  }, 
  "model": "products.product"
}
]