[
{
  "fields": {
    "type": "E", 
    "id": 43, 
    "name": "Lights"
  }, 
  "model": "products.productcatalog"
},
{
  "fields": {
    "updated": "2016-10-18T01:46:35.797Z", 
    "name": "Spyder Headlights", 
    "created": "2016-10-18T01:46:35.797Z", 
    "photo": "http://b.cdnbrm.com/images/products/small/lights/spyder_headlights_hero.gif?Lo0P=451f5d72b38e8977410b34be46fd13016042", 
    "catalog": 43, 
    "cost": "$64.99 /pair", 
    "quantum": 10
  }, 
  "model": "products.product"
},
{
  "fields": {
    "updated": "2016-10-18T01:46:35.797Z", 
    "name": "Spyder LED Tail Lights", 
    "created": "2016-10-18T01:46:35.797Z", 
    "photo": "http://b.cdnbrm.com/images/products/small/lights/spyder_led_tail_lights.gif?Lo0P=df0ec3053ec20b185767e78f3e87b3165850", 
    "catalog": 43, 
    "cost": "$119.99 /pair", 
    "quantum": 10
  }, 
  "model": "products.product"
},
{
  "fields": {
    "updated": "2016-10-18T01:46:35.797Z", 
    "name": "Anzo USA Headlights", 
    "created": "2016-10-18T01:46:35.797Z", 
    "photo": "http://b.cdnbrm.com/images/products/small/lights/anzo_usa_headlights_hero_3.gif?Lo0P=d0d29431e3429f40382fde23696a6f1b3981", 
    "catalog": 43, 
    "cost": "$99.99 /pair", 
    "quantum": 10
  }, 
  "model": "products.product"
},
{
  "fields": {
    "updated": "2016-10-18T01:46:35.797Z", 
    "name": "Oracle Premium LED Headlight Bulb Conversion Kits", 
    "created": "2016-10-18T01:46:35.797Z", 
    "photo": "http://b.cdnbrm.com/images/products/small/lights/oracle_premium_led_headlight_bulb_conversion_kits_hero.gif?Lo0P=28e180ecc784c19970cb68d86e3de4154050", 
    "catalog": 43, 
    "cost": "$127.47 /pair", 
    "quantum": 10
  }, 
  "model": "products.product"
},
{
  "fields": {
    "updated": "2016-10-18T01:46:35.797Z", 
    "name": "Spec-D Headlights", 
    "created": "2016-10-18T01:46:35.797Z", 
    "photo": "http://b.cdnbrm.com/images/products/small/lights/spec-d_headlights.gif?Lo0P=21c2a7f97d36cf249e6a8b28e60feb182462", 
    "catalog": 43, 
    "cost": "$84.99 /pair", 
    "quantum": 10
  }, 
  "model": "products.product"
},
{
  "fields": {
    "updated": "2016-10-18T01:46:35.797Z", 
    "name": "Anzo USA LED Tail Lights", 
    "created": "2016-10-18T01:46:35.797Z", 
    "photo": "http://b.cdnbrm.com/images/products/small/lights/anzo_usa_led_tail-lights_3984.gif?Lo0P=7602109714625832f053ff69dc34fcea4328", 
    "catalog": 43, 
    "cost": "$149.99 /pair", 
    "quantum": 10
  }, 
  "model": "products.product"
},
{
  "fields": {
    "updated": "2016-10-18T01:46:35.797Z", 
    "name": "Anzo USA LED Third Brake Light", 
    "created": "2016-10-18T01:46:35.797Z", 
    "photo": "http://b.cdnbrm.com/images/products/small/lights/anzo_usa_led_third_brake_light_3985.gif?Lo0P=18a4d696995c0848832fef56b8b5cf7e4130", 
    "catalog": 43, 
    "cost": "$69.99 each", 
    "quantum": 10
  }, 
  "model": "products.product"
},
{
  "fields": {
    "updated": "2016-10-18T01:46:35.797Z", 
    "name": "PlasmaGlow Igniters LED Headlight Bulb Conversion Kit", 
    "created": "2016-10-18T01:46:35.797Z", 
    "photo": "http://b.cdnbrm.com/images/products/small/lights/plasmaglow_igniters_led_headlight_bulb_conversion_kit_hero.gif?Lo0P=d5577bea136fe1b54683708e2802bf383161", 
    "catalog": 43, 
    "cost": "$74.99 /kit", 
    "quantum": 10
  }, 
  "model": "products.product"
},
{
  "fields": {
    "updated": "2016-10-18T01:46:35.797Z", 
    "name": "Sylvania SilverStar zXe Bulbs", 
    "created": "2016-10-18T01:46:35.797Z", 
    "photo": "http://b.cdnbrm.com/images/products/small/lights/sylvania_silverstar_zxe_bulbs_hero.gif?Lo0P=f8dc3b42b8a2f21761153337fb7432f43240", 
    "catalog": 43, 
    "cost": "$59.99", 
    "quantum": 10
  }, 
  "model": "products.product"
},
{
  "fields": {
    "updated": "2016-10-18T01:46:35.797Z", 
    "name": "Switch-Pros 8100 Switch Panel Power System", 
    "created": "2016-10-18T01:46:35.797Z", 
    "photo": "http://b.cdnbrm.com/images/products/small/lights/switch_pros_8100_switch_panel_power_system_hero.gif?Lo0P=43c218fa43c181838a70f0cb3bfe025b4597", 
    "catalog": 43, 
    "cost": "$479.00 /kit", 
    "quantum": 10
  }, 
  "model": "products.product"
},
{
  "fields": {
    "updated": "2016-10-18T01:46:35.797Z", 
    "name": "Putco Silver-Lux LED Headlight Conversion Kit", 
    "created": "2016-10-18T01:46:35.797Z", 
    "photo": "http://b.cdnbrm.com/images/products/small/lights/putco_silver_lux_led_headlight_conversion_kit_hero.gif?Lo0P=93a8b20f1f54cb640650502436ddf59b2838", 
    "catalog": 43, 
    "cost": "", 
    "quantum": 10
  }, 
  "model": "products.product"
},
{
  "fields": {
    "updated": "2016-10-18T01:46:35.797Z", 
    "name": "Oracle Headlights", 
    "created": "2016-10-18T01:46:35.797Z", 
    "photo": "http://b.cdnbrm.com/images/products/small/lights/oracle_headlights_hero.gif?Lo0P=9968879b89b3d94c3e6c3b54bf3addc85255", 
    "catalog": 43, 
    "cost": "$212.50 /pair", 
    "quantum": 10
  }, 
  "model": "products.product"
},
{
  "fields": {
    "updated": "2016-10-18T01:46:35.797Z", 
    "name": "Putco Pure Halogen Headlight Bulbs", 
    "created": "2016-10-18T01:46:35.797Z", 
    "photo": "http://b.cdnbrm.com/images/products/small/lights/putco_pure_halogen_headlight_bulbs_5246.gif?Lo0P=72d24a2f9017799c120064da97f58a282446", 
    "catalog": 43, 
    "cost": "", 
    "quantum": 10
  }, 
  "model": "products.product"
},
{
  "fields": {
    "updated": "2016-10-18T01:46:35.797Z", 
    "name": "Spyder Fog Lights", 
    "created": "2016-10-18T01:46:35.797Z", 
    "photo": "http://b.cdnbrm.com/images/products/small/lights/spyder_fog_lights.gif?Lo0P=c2fb681f73b80bbe2aa505f31a009f8e4266", 
    "catalog": 43, 
    "cost": "$44.99 /pair", 
    "quantum": 10
  }, 
  "model": "products.product"
},
{
  "fields": {
    "updated": "2016-10-18T01:46:35.797Z", 
    "name": "Vision X Superwhite Headlight Bulbs", 
    "created": "2016-10-18T01:46:35.797Z", 
    "photo": "http://b.cdnbrm.com/images/products/small/lights/vision_X_headlight_bulbs.gif?Lo0P=b38fa8dfa9af5e356b569dddeb07e4953181", 
    "catalog": 43, 
    "cost": "$24.99 /pair", 
    "quantum": 10
  }, 
  "model": "products.product"
},
{
  "fields": {
    "updated": "2016-10-18T01:46:35.797Z", 
    "name": "Spyder Euro Tail Lights", 
    "created": "2016-10-18T01:46:35.797Z", 
    "photo": "http://b.cdnbrm.com/images/products/small/lights/spyder_euro_tail_lights.gif?Lo0P=ddbf6bfff97d9a5114f22a72bc5b100c5346", 
    "catalog": 43, 
    "cost": "$54.99 /pair", 
    "quantum": 10
  }, 
  "model": "products.product"
},
{
  "fields": {
    "updated": "2016-10-18T01:46:35.797Z", 
    "name": "Rampage Tailgate LED Light Bars", 
    "created": "2016-10-18T01:46:35.797Z", 
    "photo": "http://b.cdnbrm.com/images/products/small/lights/rampage_tailgate_led_light_bars.gif?Lo0P=1796cb0ae7874e1f04fbeade3c68f5793306", 
    "catalog": 43, 
    "cost": "$34.99", 
    "quantum": 10
  }, 
  "model": "products.product"
},
{
  "fields": {
    "updated": "2016-10-18T01:46:35.797Z", 
    "name": "Black Horse Off Road Roll Bar", 
    "created": "2016-10-18T01:46:35.797Z", 
    "photo": "http://b.cdnbrm.com/images/products/small/truck_bed_accessories/black_horse_off_road_roll_bar_hero.gif?Lo0P=706cb1669995bf074ec1ea9dadb6378d6467", 
    "catalog": 43, 
    "cost": "$495.00", 
    "quantum": 10
  }, 
  "model": "products.product"
},
{
  "fields": {
    "updated": "2016-10-18T01:46:35.797Z", 
    "name": "Putco Switchblade LED Tailgate Light Bar", 
    "created": "2016-10-18T01:46:35.797Z", 
    "photo": "http://b.cdnbrm.com/images/products/small/lights/putco_switchblade_led_tailgate_light_bar_hero.gif?Lo0P=21bb5e8ee309146b45e29861b3fb613f6522", 
    "catalog": 43, 
    "cost": "$167.99 each", 
    "quantum": 10
  }, 
  "model": "products.product"
},
{
  "fields": {
    "updated": "2016-10-18T01:46:35.797Z", 
    "name": "PIAA Xtreme White Bulbs", 
    "created": "2016-10-18T01:46:35.797Z", 
    "photo": "http://b.cdnbrm.com/images/products/small/lights/piaa_bulbs_xtreme_white_hero.gif?Lo0P=996eb9a14045ef132647ea58a470b4a84377", 
    "catalog": 43, 
    "cost": "$58.65 /pair", 
    "quantum": 10
  }, 
  "model": "products.product"
},
{
  "fields": {
    "updated": "2016-10-18T01:46:35.797Z", 
    "name": "Access AA Battery LED Light", 
    "created": "2016-10-18T01:46:35.797Z", 
    "photo": "http://b.cdnbrm.com/images/products/small/truck_bed_accessories/access_smart_led_light_hero.gif?Lo0P=7ff6f11863fc016fc6b09ca11e510b597830", 
    "catalog": 43, 
    "cost": "$37.99 each", 
    "quantum": 10
  }, 
  "model": "products.product"
},
{
  "fields": {
    "updated": "2016-10-18T01:46:35.797Z", 
    "name": "IPCW LED Tail Lights", 
    "created": "2016-10-18T01:46:35.797Z", 
    "photo": "http://b.cdnbrm.com/images/products/small/lights/ipcw_led_tail_lights.gif?Lo0P=6cda0c3a877925fab3f157d21a7495654648", 
    "catalog": 43, 
    "cost": "$119.99 /pair", 
    "quantum": 10
  }, 
  "model": "products.product"
},
{
  "fields": {
    "updated": "2016-10-18T01:46:35.797Z", 
    "name": "ProZ 3\" CREE LED Light Cube", 
    "created": "2016-10-18T01:46:35.797Z", 
    "photo": "http://b.cdnbrm.com/images/products/small/lights/3in_led_light_cube_hero.gif?Lo0P=11ed35c356055cd30f417254303a22433482", 
    "catalog": 43, 
    "cost": "$30.00 each", 
    "quantum": 10
  }, 
  "model": "products.product"
},
{
  "fields": {
    "updated": "2016-10-18T01:46:35.797Z", 
    "name": "Spec-D Altezza Tail Lights", 
    "created": "2016-10-18T01:46:35.797Z", 
    "photo": "http://b.cdnbrm.com/images/products/small/lights/spec-d_altezza_taillights.gif?Lo0P=e74d1bb47f5fd3f8832032a4b5980e733927", 
    "catalog": 43, 
    "cost": "$44.99 /pair", 
    "quantum": 10
  }, 
  "model": "products.product"
},
{
  "fields": {
    "updated": "2016-10-18T01:46:35.797Z", 
    "name": "Putco Optic 360 LED Fog Lamp Bulbs", 
    "created": "2016-10-18T01:46:35.797Z", 
    "photo": "http://b.cdnbrm.com/images/products/small/lights/putco_optic_360_led_fog_lamp_bulbs_hero.gif?Lo0P=12183d10202cea936317c3acaf0ee1053353", 
    "catalog": 43, 
    "cost": "", 
    "quantum": 10
  }, 
  "model": "products.product"
},
{
  "fields": {
    "updated": "2016-10-18T01:46:35.797Z", 
    "name": "Black Horse Off Road Tail Light Guards", 
    "created": "2016-10-18T01:46:35.797Z", 
    "photo": "http://b.cdnbrm.com/images/products/small/lights/black_horse_off_road_tail_light_guards_hero.gif?Lo0P=897f5f9e6f0e50b36f9bcfa49c3fb3157570", 
    "catalog": 43, 
    "cost": "$89.99 /pair", 
    "quantum": 10
  }, 
  "model": "products.product"
},
{
  "fields": {
    "updated": "2016-10-18T01:46:35.797Z", 
    "name": "PlasmaGlow Xenon Bulbs", 
    "created": "2016-10-18T01:46:35.797Z", 
    "photo": "http://b.cdnbrm.com/images/products/small/lights/plasmaglow_xenon_bulbs.gif?Lo0P=bc3f3916222b269d4bb10c0918338c8a3838", 
    "catalog": 43, 
    "cost": "$29.99 /pair", 
    "quantum": 10
  }, 
  "model": "products.product"
},
{
  "fields": {
    "updated": "2016-10-18T01:46:35.797Z", 
    "name": "Rigid Industries E2 Series LED Light Bars", 
    "created": "2016-10-18T01:46:35.797Z", 
    "photo": "http://b.cdnbrm.com/images/products/small/lights/rigid_industries_e2_series_led_light_bars_hero.gif", 
    "catalog": 43, 
    "cost": "$284.99 each", 
    "quantum": 10
  }, 
  "model": "products.product"
},
{
  "fields": {
    "updated": "2016-10-18T01:46:35.797Z", 
    "name": "Rigid Industries Radiance LED Light Bars", 
    "created": "2016-10-18T01:46:35.797Z", 
    "photo": "http://b.cdnbrm.com/images/products/small/lights/rigid_industries_radiance_led_light_bars_hero.gif?Lo0P=f6776ac42e9ce11fa48e2f285f4c3ded2935", 
    "catalog": 43, 
    "cost": "$170.99 each", 
    "quantum": 10
  }, 
  "model": "products.product"
},
{
  "fields": {
    "updated": "2016-10-18T01:46:35.797Z", 
    "name": "ProZ Curved CREE LED Light Bars", 
    "created": "2016-10-18T01:46:35.797Z", 
    "photo": "http://b.cdnbrm.com/images/products/small/lights/curved_cree_led_light_bars_hero.gif", 
    "catalog": 43, 
    "cost": "$192.50 each", 
    "quantum": 10
  }, 
  "model": "products.product"
},
{
  "fields": {
    "updated": "2016-10-18T01:46:35.797Z", 
    "name": "X-Pel Headlight Protection", 
    "created": "2016-10-18T01:46:35.797Z", 
    "photo": "http://b.cdnbrm.com/images/products/small/lights/xpel_headlight_cover_hero.gif?Lo0P=0a36bc544c03932ffd217a8a75e207288282", 
    "catalog": 43, 
    "cost": "$49.99 /pair", 
    "quantum": 10
  }, 
  "model": "products.product"
},
{
  "fields": {
    "updated": "2016-10-18T01:46:35.797Z", 
    "name": "AVS Tail Shades Blackout Taillight Covers", 
    "created": "2016-10-18T01:46:35.797Z", 
    "photo": "http://b.cdnbrm.com/images/products/small/lights/avs_tail_shades_blackout_taillight_covers.gif", 
    "catalog": 43, 
    "cost": "$59.99 /pair", 
    "quantum": 10
  }, 
  "model": "products.product"
},
{
  "fields": {
    "updated": "2016-10-18T01:46:35.797Z", 
    "name": "Anzo USA Euro Tail Lights", 
    "created": "2016-10-18T01:46:35.797Z", 
    "photo": "http://b.cdnbrm.com/images/products/small/lights/anzo_usa_euro_tail_lights_3983.gif", 
    "catalog": 43, 
    "cost": "$64.99 /pair", 
    "quantum": 10
  }, 
  "model": "products.product"
},
{
  "fields": {
    "updated": "2016-10-18T01:46:35.797Z", 
    "name": "AVS Smoke Headlight Covers", 
    "created": "2016-10-18T01:46:35.797Z", 
    "photo": "http://b.cdnbrm.com/images/products/small/lights/avs_smoke_headlight_covers.gif", 
    "catalog": 43, 
    "cost": "$69.99 /pair", 
    "quantum": 10
  }, 
  "model": "products.product"
},
{
  "fields": {
    "updated": "2016-10-18T01:46:35.797Z", 
    "name": "ProZ Double Row CREE LED Light Bars", 
    "created": "2016-10-18T01:46:35.797Z", 
    "photo": "http://b.cdnbrm.com/images/products/small/lights/double_row_cree_led_light_bars_hero.gif", 
    "catalog": 43, 
    "cost": "$77.50 each", 
    "quantum": 10
  }, 
  "model": "products.product"
},
{
  "fields": {
    "updated": "2016-10-18T01:46:35.797Z", 
    "name": "Oracle Fog Lights", 
    "created": "2016-10-18T01:46:35.797Z", 
    "photo": "http://b.cdnbrm.com/images/products/small/lights/oracle_fog_lights_hero.gif", 
    "catalog": 43, 
    "cost": "$212.50 /pair", 
    "quantum": 10
  }, 
  "model": "products.product"
},
{
  "fields": {
    "updated": "2016-10-18T01:46:35.797Z", 
    "name": "Oracle Concept Side Marker LED Lights", 
    "created": "2016-10-18T01:46:35.797Z", 
    "photo": "http://b.cdnbrm.com/images/products/small/lights/oracle_concept_side_marker_led_lights_hero.gif", 
    "catalog": 43, 
    "cost": "$101.15 /pair", 
    "quantum": 10
  }, 
  "model": "products.product"
},
{
  "fields": {
    "updated": "2016-10-18T01:46:35.797Z", 
    "name": "Spyder LED Third Brake Lights", 
    "created": "2016-10-18T01:46:35.797Z", 
    "photo": "http://b.cdnbrm.com/images/products/small/lights/spyder_led_third_brake_lights.gif", 
    "catalog": 43, 
    "cost": "$34.99 each", 
    "quantum": 10
  }, 
  "model": "products.product"
},
{
  "fields": {
    "updated": "2016-10-18T01:46:35.797Z", 
    "name": "Spec-D LED Tail Lights", 
    "created": "2016-10-18T01:46:35.797Z", 
    "photo": "http://b.cdnbrm.com/images/products/small/lights/specd-tail-lights_hero1.gif", 
    "catalog": 43, 
    "cost": "$44.99 /pair", 
    "quantum": 10
  }, 
  "model": "products.product"
},
{
  "fields": {
    "updated": "2016-10-18T01:46:35.797Z", 
    "name": "Rigid Industries SAE Certified LED Fog Lights", 
    "created": "2016-10-18T01:46:35.797Z", 
    "photo": "http://b.cdnbrm.com/images/products/small/lights/rigid_industries_sae_certified_led_fog_lights_hero.gif", 
    "catalog": 43, 
    "cost": "$265.99 /pair", 
    "quantum": 10
  }, 
  "model": "products.product"
},
{
  "fields": {
    "updated": "2016-10-18T01:46:35.797Z", 
    "name": "Oracle Headlight Halo Kits", 
    "created": "2016-10-18T01:46:35.797Z", 
    "photo": "http://b.cdnbrm.com/images/products/small/lights/oracle_headlight_halo_kits_hero.gif?Lo0P=6eb296d15b8490144c8ce847d6a17a035595", 
    "catalog": 43, 
    "cost": "$143.65 /kit", 
    "quantum": 10
  }, 
  "model": "products.product"
},
{
  "fields": {
    "updated": "2016-10-18T01:46:35.797Z", 
    "name": "Putco Pure LED Dome Lights", 
    "created": "2016-10-18T01:46:35.797Z", 
    "photo": "http://b.cdnbrm.com/images/products/small/lights/putco_dome_lights_hero.gif", 
    "catalog": 43, 
    "cost": "$25.99", 
    "quantum": 10
  }, 
  "model": "products.product"
},
{
  "fields": {
    "updated": "2016-10-18T01:46:35.797Z", 
    "name": "Rigid Industries Dually Series LED Lights", 
    "created": "2016-10-18T01:46:35.797Z", 
    "photo": "http://b.cdnbrm.com/images/products/small/lights/rigid_industries_dually_series_led_lights_hero.gif", 
    "catalog": 43, 
    "cost": "$104.49 each", 
    "quantum": 10
  }, 
  "model": "products.product"
},
{
  "fields": {
    "updated": "2016-10-18T01:46:35.797Z", 
    "name": "ProZ Economy Double Row LED Light Bar", 
    "created": "2016-10-18T01:46:35.797Z", 
    "photo": "http://b.cdnbrm.com/images/products/small/lights/proz_economy_double_row_led_light_bar_hero.gif", 
    "catalog": 43, 
    "cost": "$57.50 each", 
    "quantum": 10
  }, 
  "model": "products.product"
},
{
  "fields": {
    "updated": "2016-10-18T01:46:35.797Z", 
    "name": "Go Rhino Lightning Series Sport Truck Bed Bars", 
    "created": "2016-10-18T01:46:35.797Z", 
    "photo": "http://b.cdnbrm.com/images/products/small/truck_bed_accessories/go_rhino_lightning_sport_bars.gif", 
    "catalog": 43, 
    "cost": "$256.29", 
    "quantum": 10
  }, 
  "model": "products.product"
},
{
  "fields": {
    "updated": "2016-10-18T01:46:35.797Z", 
    "name": "Oracle Illuminated LED Wheel Rings", 
    "created": "2016-10-18T01:46:35.797Z", 
    "photo": "http://b.cdnbrm.com/images/products/small/lights/oracle_illuminated_led_wheel_rings_hero.gif", 
    "catalog": 43, 
    "cost": "$169.99 /kit", 
    "quantum": 10
  }, 
  "model": "products.product"
},
{
  "fields": {
    "updated": "2016-10-18T01:46:35.797Z", 
    "name": "Rigid Industries E Series LED Light Bars", 
    "created": "2016-10-18T01:46:35.797Z", 
    "photo": "http://b.cdnbrm.com/images/products/small/lights/rigid_industries_e_series_led_light_bars_hero.gif?Lo0P=4ac7adaced03cd1ad94f8743b89f261e3260", 
    "catalog": 43, 
    "cost": "$223.24 each", 
    "quantum": 10
  }, 
  "model": "products.product"
},
{
  "fields": {
    "updated": "2016-10-18T01:46:35.797Z", 
    "name": "ProZ Premium Tail Light Guards", 
    "created": "2016-10-18T01:46:35.797Z", 
    "photo": "http://b.cdnbrm.com/images/products/small/lights/proz_premium_tail_light_guards_hero.gif", 
    "catalog": 43, 
    "cost": "$45.00 /pair", 
    "quantum": 10
  }, 
  "model": "products.product"
},
{
  "fields": {
    "updated": "2016-10-18T01:46:35.797Z", 
    "name": "Anzo USA Clear Parking Lights", 
    "created": "2016-10-18T01:46:35.797Z", 
    "photo": "http://b.cdnbrm.com/images/products/small/lights/anzo_usa_clear_parking_lights_3988.gif", 
    "catalog": 43, 
    "cost": "$29.99 /pair", 
    "quantum": 10
  }, 
  "model": "products.product"
},
{
  "fields": {
    "updated": "2016-10-18T01:46:35.797Z", 
    "name": "Rigid Industries SR2 Series LED Light Bars", 
    "created": "2016-10-18T01:46:35.797Z", 
    "photo": "http://b.cdnbrm.com/images/products/small/lights/rigid_industries_sr2_series_led_light_bars_hero.gif", 
    "catalog": 43, 
    "cost": "$237.49 each", 
    "quantum": 10
  }, 
  "model": "products.product"
},
{
  "fields": {
    "updated": "2016-10-18T01:46:35.797Z", 
    "name": "Sylvania Xenarc Xenon HID Bulbs", 
    "created": "2016-10-18T01:46:35.797Z", 
    "photo": "http://b.cdnbrm.com/images/products/small/lights/sylvania_xenarc_xenon_hid_bulbs_hero.gif", 
    "catalog": 43, 
    "cost": "$75.99 each", 
    "quantum": 10
  }, 
  "model": "products.product"
},
{
  "fields": {
    "updated": "2016-10-18T01:46:35.797Z", 
    "name": "PlasmaGlow Fire & Ice LED Tailgate Bar", 
    "created": "2016-10-18T01:46:35.797Z", 
    "photo": "http://b.cdnbrm.com/images/products/small/lights/plasma_glow_fire_ice_tailgate_bar_new.gif", 
    "catalog": 43, 
    "cost": "$67.49", 
    "quantum": 10
  }, 
  "model": "products.product"
},
{
  "fields": {
    "updated": "2016-10-18T01:46:35.797Z", 
    "name": "Go Industries Baja Rak Truck Bed Bars", 
    "created": "2016-10-18T01:46:35.797Z", 
    "photo": "http://b.cdnbrm.com/images/products/small/truck_bed_accessories/go_industries_baja_rak_truck_bed_bars_hero.gif", 
    "catalog": 43, 
    "cost": "$769.99", 
    "quantum": 10
  }, 
  "model": "products.product"
},
{
  "fields": {
    "updated": "2016-10-18T01:46:35.797Z", 
    "name": "Go Rhino Bed Bars", 
    "created": "2016-10-18T01:46:35.797Z", 
    "photo": "http://b.cdnbrm.com/images/products/small/truck_bed_accessories/go_rhino_bed_bars.gif", 
    "catalog": 43, 
    "cost": "$512.42 ", 
    "quantum": 10
  }, 
  "model": "products.product"
},
{
  "fields": {
    "updated": "2016-10-18T01:46:35.797Z", 
    "name": "Sylvania ZEVO Interior LED Strip Kit", 
    "created": "2016-10-18T01:46:35.797Z", 
    "photo": "http://b.cdnbrm.com/images/products/small/lights/sylvania_zevo_interior_led_strip_kit_hero.gif", 
    "catalog": 43, 
    "cost": "$29.99 /kit", 
    "quantum": 10
  }, 
  "model": "products.product"
},
{
  "fields": {
    "updated": "2016-10-18T01:46:35.797Z", 
    "name": "Putco Pure LED Third Brake Lights", 
    "created": "2016-10-18T01:46:35.797Z", 
    "photo": "http://b.cdnbrm.com/images/products/small/lights/putco_pure_led_third_break_lights_hero.gif", 
    "catalog": 43, 
    "cost": "$98.09", 
    "quantum": 10
  }, 
  "model": "products.product"
},
{
  "fields": {
    "updated": "2016-10-18T01:46:35.797Z", 
    "name": "Anzo LED Tailgate Spoiler", 
    "created": "2016-10-18T01:46:35.797Z", 
    "photo": "http://b.cdnbrm.com/images/products/small/lights/anzo_led_tailgate_spoiler_7120.gif", 
    "catalog": 43, 
    "cost": "$170.99", 
    "quantum": 10
  }, 
  "model": "products.product"
},
{
  "fields": {
    "updated": "2016-10-18T01:46:35.797Z", 
    "name": "KC HiLites C-Series LED Light Bars", 
    "created": "2016-10-18T01:46:35.797Z", 
    "photo": "http://b.cdnbrm.com/images/products/small/lights/kc_hilites_c_series_led_light_bars_hero.gif", 
    "catalog": 43, 
    "cost": "$179.99 each", 
    "quantum": 10
  }, 
  "model": "products.product"
},
{
  "fields": {
    "updated": "2016-10-18T01:46:35.797Z", 
    "name": "Rigid Industries D2 XL LED Lights", 
    "created": "2016-10-18T01:46:35.797Z", 
    "photo": "http://b.cdnbrm.com/images/products/small/lights/rigid_industries_d2_xl_led_lights_hero.gif", 
    "catalog": 43, 
    "cost": "$208.99", 
    "quantum": 10
  }, 
  "model": "products.product"
},
{
  "fields": {
    "updated": "2016-10-18T01:46:35.797Z", 
    "name": "IPCW Headlights", 
    "created": "2016-10-18T01:46:35.797Z", 
    "photo": "http://b.cdnbrm.com/images/products/small/lights/ipcw_headlights_hero.gif", 
    "catalog": 43, 
    "cost": "$139.99 /pair", 
    "quantum": 10
  }, 
  "model": "products.product"
},
{
  "fields": {
    "updated": "2016-10-18T01:46:35.797Z", 
    "name": "Hella Rallye 4000i Xenon Light Kit", 
    "created": "2016-10-18T01:46:35.797Z", 
    "photo": "http://b.cdnbrm.com/images/products/small/lights/hella_rallye_4000i_xenon_lamp_kit.gif", 
    "catalog": 43, 
    "cost": "$339.99 each", 
    "quantum": 10
  }, 
  "model": "products.product"
},
{
  "fields": {
    "updated": "2016-10-18T01:46:35.797Z", 
    "name": "Rigid Industries SR-Q Series LED Lights", 
    "created": "2016-10-18T01:46:35.797Z", 
    "photo": "http://b.cdnbrm.com/images/products/small/lights/rigid_industries_sr_q_series_led_lights_hero.gif", 
    "catalog": 43, 
    "cost": "$113.99 each", 
    "quantum": 10
  }, 
  "model": "products.product"
},
{
  "fields": {
    "updated": "2016-10-18T01:46:35.797Z", 
    "name": "Rigid Industries Truck-Lite LED Replacement Headlights", 
    "created": "2016-10-18T01:46:35.797Z", 
    "photo": "http://b.cdnbrm.com/images/products/small/lights/rigid_industries_truck_lite_headlights_hero.gif", 
    "catalog": 43, 
    "cost": "$261.24", 
    "quantum": 10
  }, 
  "model": "products.product"
},
{
  "fields": {
    "updated": "2016-10-18T01:46:35.797Z", 
    "name": "Rigid Industries D-SS Dually Side Shooter LED Lights", 
    "created": "2016-10-18T01:46:35.797Z", 
    "photo": "http://b.cdnbrm.com/images/products/small/lights/rigid_industries_d_ss_dually_side_shooter_led_lights_hero.gif", 
    "catalog": 43, 
    "cost": "$161.49", 
    "quantum": 10
  }, 
  "model": "products.product"
}
]