[
{
  "fields": {
    "type": "E", 
    "id": 44, 
    "name": "Nerf Bars & Running Boards"
  }, 
  "model": "products.productcatalog"
},
{
  "fields": {
    "updated": "2016-10-18T01:46:35.797Z", 
    "name": "Westin Pro Traxx 4\" Oval Nerf Bars", 
    "created": "2016-10-18T01:46:35.797Z", 
    "photo": "http://b.cdnbrm.com/images/products/small/running_boards/westin_pro_traxx_4in_oval_nerf_bars_hero.gif?Lo0P=cc8256f6d1fceeed5cb0db30fcdedd803738", 
    "catalog": 44, 
    "cost": "$189.99 /pair", 
    "quantum": 10
  }, 
  "model": "products.product"
},
{
  "fields": {
    "updated": "2016-10-18T01:46:35.797Z", 
    "name": "ICI Magnum RT Step Bars", 
    "created": "2016-10-18T01:46:35.797Z", 
    "photo": "http://b.cdnbrm.com/images/products/small/running_boards/ici_magnum_rt_step_bars_hero.gif?Lo0P=6a2c4f6357073c324579ac4d3f5ac8805713", 
    "catalog": 44, 
    "cost": "$299.00 /pair", 
    "quantum": 10
  }, 
  "model": "products.product"
},
{
  "fields": {
    "updated": "2016-10-18T01:46:35.797Z", 
    "name": "Dee Zee 4\" Oval Nerf Bars", 
    "created": "2016-10-18T01:46:35.797Z", 
    "photo": "http://b.cdnbrm.com/images/products/small/side_tubes/dee_zee_4in_oval_nerf_bars_hero.gif?Lo0P=40245b54b6f19363527682b4d67df85d6315", 
    "catalog": 44, 
    "cost": "$214.99 /pair", 
    "quantum": 10
  }, 
  "model": "products.product"
},
{
  "fields": {
    "updated": "2016-10-18T01:46:35.797Z", 
    "name": "AMP Power Step Running Boards", 
    "created": "2016-10-18T01:46:35.797Z", 
    "photo": "http://b.cdnbrm.com/images/products/small/side_tubes/amp_power_step_running_boards.gif?Lo0P=d63ec2e8acb3d23ad560d215c0ae25285945", 
    "catalog": 44, 
    "cost": "$999.00 /pair", 
    "quantum": 10
  }, 
  "model": "products.product"
},
{
  "fields": {
    "updated": "2016-10-18T01:46:35.797Z", 
    "name": "Lund 5\" Oval Nerf Bars", 
    "created": "2016-10-18T01:46:35.797Z", 
    "photo": "http://b.cdnbrm.com/images/products/small/running_boards/lund_5_oval_nerf_bars.gif?Lo0P=c8c5e5c535f4407f7d2841a44679c56d7047", 
    "catalog": 44, 
    "cost": "$204.99 /pair", 
    "quantum": 10
  }, 
  "model": "products.product"
},
{
  "fields": {
    "updated": "2016-10-18T01:46:35.797Z", 
    "name": "Westin 4\" Platinum Oval Nerf Bars", 
    "created": "2016-10-18T01:46:35.797Z", 
    "photo": "http://b.cdnbrm.com/images/products/small/side_tubes/westin_platinum_oval_step_bars_aa.gif?Lo0P=c3835d97fb5faaf4a310c1769fb493384204", 
    "catalog": 44, 
    "cost": "$174.99 /pair", 
    "quantum": 10
  }, 
  "model": "products.product"
},
{
  "fields": {
    "updated": "2016-10-18T01:46:35.797Z", 
    "name": "N-Fab Nerf Steps", 
    "created": "2016-10-18T01:46:35.797Z", 
    "photo": "http://b.cdnbrm.com/images/products/small/running_boards/n_fab_nerf_steps_hero.gif?Lo0P=2908e681fa6f607d72ea2b6f7dfba29f5584", 
    "catalog": 44, 
    "cost": "$335.79 /pair", 
    "quantum": 10
  }, 
  "model": "products.product"
},
{
  "fields": {
    "updated": "2016-10-18T01:46:35.797Z", 
    "name": "Raptor Series 4\" OE Style Oval Nerf Bars", 
    "created": "2016-10-18T01:46:35.797Z", 
    "photo": "http://b.cdnbrm.com/images/products/small/running_boards/raptor_series_4in_oe_style_oval_nerf_bars_hero.gif?Lo0P=dc595c15a20abb82301d200e9809d4ca4575", 
    "catalog": 44, 
    "cost": "$219.99 /pair", 
    "quantum": 10
  }, 
  "model": "products.product"
},
{
  "fields": {
    "updated": "2016-10-18T01:46:35.797Z", 
    "name": "Westin Pro Traxx 5\" Oval Nerf Bars", 
    "created": "2016-10-18T01:46:35.797Z", 
    "photo": "http://b.cdnbrm.com/images/products/small/running_boards/westin_pro_traxx_5in_oval_nerf_bars_hero.gif?Lo0P=c56df5c896d1a6d3dcb00818eb5d1dc16166", 
    "catalog": 44, 
    "cost": "$229.99 /pair", 
    "quantum": 10
  }, 
  "model": "products.product"
},
{
  "fields": {
    "updated": "2016-10-18T01:46:35.797Z", 
    "name": "Steelcraft 3\" Round Nerf Bars", 
    "created": "2016-10-18T01:46:35.797Z", 
    "photo": "http://b.cdnbrm.com/images/products/small/side_tubes/steelcraft_3inch_round_nerf_bars_4540.gif?Lo0P=6c49d80a8f390640df0e98745a0660455692", 
    "catalog": 44, 
    "cost": "$135.99 /pair", 
    "quantum": 10
  }, 
  "model": "products.product"
},
{
  "fields": {
    "updated": "2016-10-18T01:46:35.797Z", 
    "name": "Luverne Grip Step Running Boards", 
    "created": "2016-10-18T01:46:35.797Z", 
    "photo": "http://b.cdnbrm.com/images/products/small/running_boards/luverne_grip_step_running_boards_hero.gif?Lo0P=e7498508632192092e91272b092c84f55472", 
    "catalog": 44, 
    "cost": "$203.00 /pair", 
    "quantum": 10
  }, 
  "model": "products.product"
},
{
  "fields": {
    "updated": "2016-10-18T01:46:35.797Z", 
    "name": "Raptor Series 4\" Magnum Oval Nerf Bars", 
    "created": "2016-10-18T01:46:35.797Z", 
    "photo": "http://b.cdnbrm.com/images/products/small/running_boards/raptor_series_4_magnum_oval_nerf_bars.gif?Lo0P=acf6e1a0b460416247a9473a8760219a5129", 
    "catalog": 44, 
    "cost": "$219.99 /pair", 
    "quantum": 10
  }, 
  "model": "products.product"
},
{
  "fields": {
    "updated": "2016-10-18T01:46:35.797Z", 
    "name": "Raptor Series Stainless Steel Running Boards", 
    "created": "2016-10-18T01:46:35.797Z", 
    "photo": "http://b.cdnbrm.com/images/products/small/side_tubes/raptor_series_stainless_steel_running_boards.gif?Lo0P=74f1e729651877a0c1646c1e1c4e2cc05907", 
    "catalog": 44, 
    "cost": "$289.99 /pair", 
    "quantum": 10
  }, 
  "model": "products.product"
},
{
  "fields": {
    "updated": "2016-10-18T01:46:35.797Z", 
    "name": "Steelcraft 5\" Widestep Premium Oval Nerf Bars", 
    "created": "2016-10-18T01:46:35.797Z", 
    "photo": "http://b.cdnbrm.com/images/products/small/running_boards/steelcraft_5_inch_widestep_premium_oval_nerf_bars_hero.gif?Lo0P=425fe67b476cfdfac12bcc38d17f187d5597", 
    "catalog": 44, 
    "cost": "$237.99 /pair", 
    "quantum": 10
  }, 
  "model": "products.product"
},
{
  "fields": {
    "updated": "2016-10-18T01:46:35.797Z", 
    "name": "Westin HDX Drop Steps", 
    "created": "2016-10-18T01:46:35.797Z", 
    "photo": "http://b.cdnbrm.com/images/products/small/running_boards/westin_hdx_drop_steps_hero.gif?Lo0P=42ef9e6c87e14ee6321074b74a58bf7e6256", 
    "catalog": 44, 
    "cost": "$399.99 /pair", 
    "quantum": 10
  }, 
  "model": "products.product"
},
{
  "fields": {
    "updated": "2016-10-18T01:46:35.797Z", 
    "name": "ProZ 3\" Premium Round Nerf Bars", 
    "created": "2016-10-18T01:46:35.797Z", 
    "photo": "http://b.cdnbrm.com/images/products/small/running_boards/3in_premium_round_nerf_bars_hero.gif?Lo0P=91d3cba2c1ea48a76ee21f0fc0885b674736", 
    "catalog": 44, 
    "cost": "$135.99 /pair", 
    "quantum": 10
  }, 
  "model": "products.product"
},
{
  "fields": {
    "updated": "2016-10-18T01:46:35.797Z", 
    "name": "Go Rhino 3\" 4000 Series Round Nerf Bars", 
    "created": "2016-10-18T01:46:35.797Z", 
    "photo": "http://b.cdnbrm.com/images/products/small/running_boards/go_rhino_4000_series_nerf_bars_hero.gif?Lo0P=1dae031fe0740b95b0896cf61ce983856772", 
    "catalog": 44, 
    "cost": "$126.37", 
    "quantum": 10
  }, 
  "model": "products.product"
},
{
  "fields": {
    "updated": "2016-10-18T01:46:35.797Z", 
    "name": "ProZ Premium Running Boards", 
    "created": "2016-10-18T01:46:35.797Z", 
    "photo": "http://b.cdnbrm.com/images/products/small/running_boards/proz_premium_running_boards_hero.gif?Lo0P=173f4f8df7d5173ac363998a961f79185576", 
    "catalog": 44, 
    "cost": "$229.49 /pair", 
    "quantum": 10
  }, 
  "model": "products.product"
},
{
  "fields": {
    "updated": "2016-10-18T01:46:35.797Z", 
    "name": "Black Horse Off Road Cutlass Running Boards", 
    "created": "2016-10-18T01:46:35.797Z", 
    "photo": "http://b.cdnbrm.com/images/products/small/running_boards/black_horse_off_road_cutlass_running_boards_hero.gif?Lo0P=0a783e5766e78fb0563b12e7ee8dc75b4933", 
    "catalog": 44, 
    "cost": "$292.50 /pair", 
    "quantum": 10
  }, 
  "model": "products.product"
},
{
  "fields": {
    "updated": "2016-10-18T01:46:35.797Z", 
    "name": "Westin R7 Running Boards", 
    "created": "2016-10-18T01:46:35.797Z", 
    "photo": "http://b.cdnbrm.com/images/products/small/running_boards/westin_r7_running_boards_hero.gif?Lo0P=efb4680882973fc5e2d728e3197743903143", 
    "catalog": 44, 
    "cost": "$429.99 /pair", 
    "quantum": 10
  }, 
  "model": "products.product"
},
{
  "fields": {
    "updated": "2016-10-18T01:46:35.797Z", 
    "name": "Aries 3\" Round Nerf Bars", 
    "created": "2016-10-18T01:46:35.797Z", 
    "photo": "http://b.cdnbrm.com/images/products/small/side_tubes/aries_3_nerf_bars.gif?Lo0P=33a6c1c0d4f7c64654c250e7d484df745624", 
    "catalog": 44, 
    "cost": "$152.99 /pair", 
    "quantum": 10
  }, 
  "model": "products.product"
},
{
  "fields": {
    "updated": "2016-10-18T01:46:35.797Z", 
    "name": "Steelcraft 5\" Oval Nerf Bars", 
    "created": "2016-10-18T01:46:35.797Z", 
    "photo": "http://b.cdnbrm.com/images/products/small/side_tubes/steelcraft_5in_oval_nerf_bars_6312.gif?Lo0P=eb07eebae5f1332c91f6d1eb45e514455533", 
    "catalog": 44, 
    "cost": "$237.99 /pair", 
    "quantum": 10
  }, 
  "model": "products.product"
},
{
  "fields": {
    "updated": "2016-10-18T01:46:35.797Z", 
    "name": "RBP 3\" RX-3 Series Round Nerf Bars", 
    "created": "2016-10-18T01:46:35.797Z", 
    "photo": "http://b.cdnbrm.com/images/products/small/running_boards/rbp_3in_rx_3_series_hero_v3.gif", 
    "catalog": 44, 
    "cost": "$599.00 /pair", 
    "quantum": 10
  }, 
  "model": "products.product"
},
{
  "fields": {
    "updated": "2016-10-18T01:46:35.797Z", 
    "name": "Iron Cross HD Series Step Bars", 
    "created": "2016-10-18T01:46:35.797Z", 
    "photo": "http://b.cdnbrm.com/images/products/small/running_boards/iron_cross_hd_series_step_bars_hero.gif?Lo0P=dee797aaf5ccac07fc35a29bcc40251a6537", 
    "catalog": 44, 
    "cost": "$426.00 /pair", 
    "quantum": 10
  }, 
  "model": "products.product"
},
{
  "fields": {
    "updated": "2016-10-18T01:46:35.797Z", 
    "name": "Westin Sure Grip Aluminum Running Boards", 
    "created": "2016-10-18T01:46:35.797Z", 
    "photo": "http://b.cdnbrm.com/images/products/small/side_tubes/dodge_westin_sure_grip_bar.gif?Lo0P=795fcc4335a36ba3226b70f1cb9b4fc93780", 
    "catalog": 44, 
    "cost": "$305.98 /pair", 
    "quantum": 10
  }, 
  "model": "products.product"
},
{
  "fields": {
    "updated": "2016-10-18T01:46:35.797Z", 
    "name": "Luverne O-MegaStep 6\" Oval Nerf Bars", 
    "created": "2016-10-18T01:46:35.797Z", 
    "photo": "http://b.cdnbrm.com/images/products/small/running_boards/luverne_o_megastep_6_oval_nerf_bars_hero.gif?Lo0P=b8eebeff627eddae07392f836b7890b65899", 
    "catalog": 44, 
    "cost": "$233.00 /pair", 
    "quantum": 10
  }, 
  "model": "products.product"
},
{
  "fields": {
    "updated": "2016-10-18T01:46:35.797Z", 
    "name": "Broadfeet OEM Style Running Boards", 
    "created": "2016-10-18T01:46:35.797Z", 
    "photo": "http://b.cdnbrm.com/images/products/small/running_boards/broadfeet_oem_style_running_boards_hero.gif?Lo0P=c9230381dc517292d80d8480b562e2765494", 
    "catalog": 44, 
    "cost": "$355.00 /pair", 
    "quantum": 10
  }, 
  "model": "products.product"
},
{
  "fields": {
    "updated": "2016-10-18T01:46:35.797Z", 
    "name": "Go Rhino Dominator D2 Round Step Nerf Bars", 
    "created": "2016-10-18T01:46:35.797Z", 
    "photo": "http://b.cdnbrm.com/images/products/small/side_tubes/go_rhino_dominator_2_side_steps.gif?Lo0P=559e6226305aee0b647000ec42fd9f2a7239", 
    "catalog": 44, 
    "cost": "$296.96 /pair", 
    "quantum": 10
  }, 
  "model": "products.product"
},
{
  "fields": {
    "updated": "2016-10-18T01:46:35.797Z", 
    "name": "ATS Matrix Series Running Boards", 
    "created": "2016-10-18T01:46:35.797Z", 
    "photo": "http://b.cdnbrm.com/images/products/small/running_boards/ats_matrix_series_running_boards_hero.gif?Lo0P=9f7804c179cdcac1c6ecd23f37e8bdc36435", 
    "catalog": 44, 
    "cost": "$383.90 /pair", 
    "quantum": 10
  }, 
  "model": "products.product"
},
{
  "fields": {
    "updated": "2016-10-18T01:46:35.797Z", 
    "name": "Steelcraft STX300 Running Boards", 
    "created": "2016-10-18T01:46:35.797Z", 
    "photo": "http://b.cdnbrm.com/images/products/small/running_boards/steelcraft_stx300_running_boards_hero.gif", 
    "catalog": 44, 
    "cost": "$305.99 /pair", 
    "quantum": 10
  }, 
  "model": "products.product"
},
{
  "fields": {
    "updated": "2016-10-18T01:46:35.797Z", 
    "name": "Black Horse Off Road Premium Running Boards", 
    "created": "2016-10-18T01:46:35.797Z", 
    "photo": "http://b.cdnbrm.com/images/products/small/running_boards/black_horse_off_road_premium_running_boards_hero.gif?Lo0P=d3a89aad9c9b842fbb60c8e4e11248487157", 
    "catalog": 44, 
    "cost": "$270.00 /pair", 
    "quantum": 10
  }, 
  "model": "products.product"
},
{
  "fields": {
    "updated": "2016-10-18T01:46:35.797Z", 
    "name": "ICI 3\" Round Nerf Bars", 
    "created": "2016-10-18T01:46:35.797Z", 
    "photo": "http://b.cdnbrm.com/images/products/small/running_boards/ici_nerf_3in_hero.gif", 
    "catalog": 44, 
    "cost": "$139.00 /pair", 
    "quantum": 10
  }, 
  "model": "products.product"
},
{
  "fields": {
    "updated": "2016-10-18T01:46:35.797Z", 
    "name": "Raptor Series 5\" OE Style Oval Nerf Bars", 
    "created": "2016-10-18T01:46:35.797Z", 
    "photo": "http://b.cdnbrm.com/images/products/small/running_boards/raptor_series_5_inch_oe_style_oval_nerf_bars_hero.gif?Lo0P=0e9368bf02316bcaacc5264c4aa524714833", 
    "catalog": 44, 
    "cost": "$399.99 /pair", 
    "quantum": 10
  }, 
  "model": "products.product"
},
{
  "fields": {
    "updated": "2016-10-18T01:46:35.797Z", 
    "name": "Romik RB2 Running Boards", 
    "created": "2016-10-18T01:46:35.797Z", 
    "photo": "http://b.cdnbrm.com/images/products/small/running_boards/romik_rb2_running_boards_hero.gif?Lo0P=d97229005bf06542a84d42f75c5d898a5082", 
    "catalog": 44, 
    "cost": "$500.50 /pair", 
    "quantum": 10
  }, 
  "model": "products.product"
},
{
  "fields": {
    "updated": "2016-10-18T01:46:35.797Z", 
    "name": "Go Rhino Dominator D4 Round Step Nerf Bars", 
    "created": "2016-10-18T01:46:35.797Z", 
    "photo": "http://b.cdnbrm.com/images/products/small/side_tubes/go_rhino_dominator_4_dual_step_nerf_bars.gif", 
    "catalog": 44, 
    "cost": "$413.10 /pair", 
    "quantum": 10
  }, 
  "model": "products.product"
},
{
  "fields": {
    "updated": "2016-10-18T01:46:35.797Z", 
    "name": "Black Horse Off Road Summit Running Boards", 
    "created": "2016-10-18T01:46:35.797Z", 
    "photo": "http://b.cdnbrm.com/images/products/small/running_boards/black_horse_off_road_summit_running_boards_hero.gif", 
    "catalog": 44, 
    "cost": "$256.50 /pair", 
    "quantum": 10
  }, 
  "model": "products.product"
},
{
  "fields": {
    "updated": "2016-10-18T01:46:35.797Z", 
    "name": "Westin 3\" Signature Series Round Nerf Bars", 
    "created": "2016-10-18T01:46:35.797Z", 
    "photo": "http://b.cdnbrm.com/images/products/small/running_boards/westin_signature-series_hero.gif", 
    "catalog": 44, 
    "cost": "$228.99 /pair", 
    "quantum": 10
  }, 
  "model": "products.product"
},
{
  "fields": {
    "updated": "2016-10-18T01:46:35.797Z", 
    "name": "Go Rhino 4\" OE Xtreme Side Steps", 
    "created": "2016-10-18T01:46:35.797Z", 
    "photo": "http://b.cdnbrm.com/images/products/small/running_boards/go_rhino_4in_oe_xtreme_side_steps_hero.gif?Lo0P=e293fcddbbfdaeaf0de2720117d9bfee5671", 
    "catalog": 44, 
    "cost": "$224.08 /pair", 
    "quantum": 10
  }, 
  "model": "products.product"
},
{
  "fields": {
    "updated": "2016-10-18T01:46:35.797Z", 
    "name": "Raptor Series 5\" Magnum Oval Nerf Bars", 
    "created": "2016-10-18T01:46:35.797Z", 
    "photo": "http://b.cdnbrm.com/images/products/small/running_boards/raptor_series_5_magnum_oval_nerf_bars.gif", 
    "catalog": 44, 
    "cost": "$299.99 /pair", 
    "quantum": 10
  }, 
  "model": "products.product"
},
{
  "fields": {
    "updated": "2016-10-18T01:46:35.797Z", 
    "name": "Black Horse Off Road Vortex Running Boards", 
    "created": "2016-10-18T01:46:35.797Z", 
    "photo": "http://b.cdnbrm.com/images/products/small/running_boards/black_horse_off_road_vortex_running_boards_hero.gif", 
    "catalog": 44, 
    "cost": "$270.00 /pair", 
    "quantum": 10
  }, 
  "model": "products.product"
},
{
  "fields": {
    "updated": "2016-10-18T01:46:35.797Z", 
    "name": "Bestop PowerBoard Electric Running Boards", 
    "created": "2016-10-18T01:46:35.797Z", 
    "photo": "http://b.cdnbrm.com/images/products/small/side_tubes/bestop_powerboard_hero.gif", 
    "catalog": 44, 
    "cost": "$1,048.99 /pair", 
    "quantum": 10
  }, 
  "model": "products.product"
},
{
  "fields": {
    "updated": "2016-10-18T01:46:35.797Z", 
    "name": "Steelcraft STX100 Running Boards", 
    "created": "2016-10-18T01:46:35.797Z", 
    "photo": "http://b.cdnbrm.com/images/products/small/running_boards/steelcraft_running_boards_hero.gif", 
    "catalog": 44, 
    "cost": "$254.99 /pair", 
    "quantum": 10
  }, 
  "model": "products.product"
},
{
  "fields": {
    "updated": "2016-10-18T01:46:35.797Z", 
    "name": "Bestop TrekStep Retractable Tailgate Step", 
    "created": "2016-10-18T01:46:35.797Z", 
    "photo": "http://b.cdnbrm.com/images/products/small/side_tubes/trekstep_out_hero.gif", 
    "catalog": 44, 
    "cost": "$169.99", 
    "quantum": 10
  }, 
  "model": "products.product"
},
{
  "fields": {
    "updated": "2016-10-18T01:46:35.797Z", 
    "name": "Westin 3\" E Series Round Nerf Bars", 
    "created": "2016-10-18T01:46:35.797Z", 
    "photo": "http://b.cdnbrm.com/images/products/small/side_tubes/westin_e-series_hero.gif", 
    "catalog": 44, 
    "cost": "$185.99 /pair", 
    "quantum": 10
  }, 
  "model": "products.product"
},
{
  "fields": {
    "updated": "2016-10-18T01:46:35.797Z", 
    "name": "Romik RAL Running Boards", 
    "created": "2016-10-18T01:46:35.797Z", 
    "photo": "http://b.cdnbrm.com/images/products/small/running_boards/romik_ral_running_boards_hero.gif", 
    "catalog": 44, 
    "cost": "$493.90 /pair", 
    "quantum": 10
  }, 
  "model": "products.product"
},
{
  "fields": {
    "updated": "2016-10-18T01:46:35.797Z", 
    "name": "Steelcraft 4\" 4X Series Oval Nerf Bars", 
    "created": "2016-10-18T01:46:35.797Z", 
    "photo": "http://b.cdnbrm.com/images/products/small/running_boards/steelcraft_4_4x_series_oval_nerf_bars_hero_2.gif", 
    "catalog": 44, 
    "cost": "$178.49 /pair", 
    "quantum": 10
  }, 
  "model": "products.product"
},
{
  "fields": {
    "updated": "2016-10-18T01:46:35.797Z", 
    "name": "Raptor Series 6\" Magnum Oval Nerf Bars", 
    "created": "2016-10-18T01:46:35.797Z", 
    "photo": "http://b.cdnbrm.com/images/products/small/running_boards/raptor_series_6_magnum_oval_nerf_bars.gif", 
    "catalog": 44, 
    "cost": "$399.99 /pair", 
    "quantum": 10
  }, 
  "model": "products.product"
},
{
  "fields": {
    "updated": "2016-10-18T01:46:35.797Z", 
    "name": "Go Rhino RB10 Running Boards", 
    "created": "2016-10-18T01:46:35.797Z", 
    "photo": "http://b.cdnbrm.com/images/products/small/running_boards/go_rhino_rb10_running_boards_hero.gif", 
    "catalog": 44, 
    "cost": "$495.00 /pair", 
    "quantum": 10
  }, 
  "model": "products.product"
},
{
  "fields": {
    "updated": "2016-10-18T01:46:35.797Z", 
    "name": "CARR Hoop II Truck Steps", 
    "created": "2016-10-18T01:46:35.797Z", 
    "photo": "http://b.cdnbrm.com/images/products/small/side_tubes/carr_hoop_ii.gif", 
    "catalog": 44, 
    "cost": "$79.99 /pair", 
    "quantum": 10
  }, 
  "model": "products.product"
},
{
  "fields": {
    "updated": "2016-10-18T01:46:35.797Z", 
    "name": "Go Rhino 6\" OE Xtreme II Side Steps", 
    "created": "2016-10-18T01:46:35.797Z", 
    "photo": "http://b.cdnbrm.com/images/products/small/running_boards/go_rhino_6in_oe_xtreme_ii_side_steps_hero.gif", 
    "catalog": 44, 
    "cost": "$424.79 /pair", 
    "quantum": 10
  }, 
  "model": "products.product"
},
{
  "fields": {
    "updated": "2016-10-18T01:46:35.797Z", 
    "name": "Go Rhino 5\" OE Xtreme Side Steps", 
    "created": "2016-10-18T01:46:35.797Z", 
    "photo": "http://b.cdnbrm.com/images/products/small/running_boards/go_rhino_5_oval_nerf_bars1.gif", 
    "catalog": 44, 
    "cost": "$357.55 /pair", 
    "quantum": 10
  }, 
  "model": "products.product"
},
{
  "fields": {
    "updated": "2016-10-18T01:46:35.797Z", 
    "name": "Westin Thrasher Running Boards", 
    "created": "2016-10-18T01:46:35.797Z", 
    "photo": "http://b.cdnbrm.com/images/products/small/running_boards/westin_thrasher_running_boards_hero.gif", 
    "catalog": 44, 
    "cost": "$479.99 /pair", 
    "quantum": 10
  }, 
  "model": "products.product"
},
{
  "fields": {
    "updated": "2016-10-18T01:46:35.797Z", 
    "name": "Dee Zee 6\" Oval Nerf Bars", 
    "created": "2016-10-18T01:46:35.797Z", 
    "photo": "http://b.cdnbrm.com/images/products/small/running_boards/deeze_6in_oval_hero.gif", 
    "catalog": 44, 
    "cost": "$294.98 /pair", 
    "quantum": 10
  }, 
  "model": "products.product"
},
{
  "fields": {
    "updated": "2016-10-18T01:46:35.797Z", 
    "name": "Luverne Side Entry Step Running Boards", 
    "created": "2016-10-18T01:46:35.797Z", 
    "photo": "http://b.cdnbrm.com/images/products/small/running_boards/luverne_side_entry_step_running_boards_hero.gif", 
    "catalog": 44, 
    "cost": "$330.00 /pair", 
    "quantum": 10
  }, 
  "model": "products.product"
},
{
  "fields": {
    "updated": "2016-10-18T01:46:35.797Z", 
    "name": "Westin Molded Running Boards", 
    "created": "2016-10-18T01:46:35.797Z", 
    "photo": "http://b.cdnbrm.com/images/products/small/side_tubes/westin_molded_step_boards_hero_1.gif", 
    "catalog": 44, 
    "cost": "$370.98 /pair", 
    "quantum": 10
  }, 
  "model": "products.product"
},
{
  "fields": {
    "updated": "2016-10-18T01:46:35.797Z", 
    "name": "Dee Zee Rough Step Running Boards", 
    "created": "2016-10-18T01:46:35.797Z", 
    "photo": "http://b.cdnbrm.com/images/products/small/running_boards/dee_zee_rough_step_running_boards_hero.gif", 
    "catalog": 44, 
    "cost": "$309.98 /pair", 
    "quantum": 10
  }, 
  "model": "products.product"
},
{
  "fields": {
    "updated": "2016-10-18T01:46:35.797Z", 
    "name": "Steelcraft STX200 Running Boards", 
    "created": "2016-10-18T01:46:35.797Z", 
    "photo": "http://b.cdnbrm.com/images/products/small/running_boards/steelcraft_stx200_running_boards_hero.gif", 
    "catalog": 44, 
    "cost": "$246.49 /pair", 
    "quantum": 10
  }, 
  "model": "products.product"
},
{
  "fields": {
    "updated": "2016-10-18T01:46:35.797Z", 
    "name": "AMP Research PowerStep XL Running Boards", 
    "created": "2016-10-18T01:46:35.797Z", 
    "photo": "http://b.cdnbrm.com/images/products/small/running_boards/amp_research_powerstep_xl_running_boards_hero.gif", 
    "catalog": 44, 
    "cost": "$1,799.00 /pair", 
    "quantum": 10
  }, 
  "model": "products.product"
},
{
  "fields": {
    "updated": "2016-10-18T01:46:35.797Z", 
    "name": "Lund Summit Ridge Running Boards", 
    "created": "2016-10-18T01:46:35.797Z", 
    "photo": "http://b.cdnbrm.com/images/products/small/running_boards/lund_summit_ridge_chrome_on-vehicle_hero.gif", 
    "catalog": 44, 
    "cost": "$519.99 /pair", 
    "quantum": 10
  }, 
  "model": "products.product"
},
{
  "fields": {
    "updated": "2016-10-18T01:46:35.797Z", 
    "name": "Smittybilt 3\" Sure-Step Round Nerf Bars", 
    "created": "2016-10-18T01:46:35.797Z", 
    "photo": "http://b.cdnbrm.com/images/products/small/side_tubes/smittybilt_sure_step_nerf_bars.gif", 
    "catalog": 44, 
    "cost": "$159.99 /pair", 
    "quantum": 10
  }, 
  "model": "products.product"
},
{
  "fields": {
    "updated": "2016-10-18T01:46:35.797Z", 
    "name": "Luverne MegaStep Nerf Boards", 
    "created": "2016-10-18T01:46:35.797Z", 
    "photo": "http://b.cdnbrm.com/images/products/small/running_boards/luverne_megastep_nerf_boards_hero.gif", 
    "catalog": 44, 
    "cost": "$419.00 /pair", 
    "quantum": 10
  }, 
  "model": "products.product"
},
{
  "fields": {
    "updated": "2016-10-18T01:46:35.797Z", 
    "name": "Black Horse Off Road 3\" Round Nerf Bars", 
    "created": "2016-10-18T01:46:35.797Z", 
    "photo": "http://b.cdnbrm.com/images/products/small/running_boards/black_horse_off_road_3_inch_round_nerf_bars_hero.gif", 
    "catalog": 44, 
    "cost": "$175.49 /pair", 
    "quantum": 10
  }, 
  "model": "products.product"
},
{
  "fields": {
    "updated": "2016-10-18T01:46:35.797Z", 
    "name": "Steelcraft 4\" Straight Oval Nerf Bars", 
    "created": "2016-10-18T01:46:35.797Z", 
    "photo": "http://b.cdnbrm.com/images/products/small/side_tubes/steelcraft_straight_oval_nerf_bars.gif", 
    "catalog": 44, 
    "cost": "$169.99 /pair", 
    "quantum": 10
  }, 
  "model": "products.product"
},
{
  "fields": {
    "updated": "2016-10-18T01:46:35.797Z", 
    "name": "Go Rhino 415 Series 4\" Oval Side Steps", 
    "created": "2016-10-18T01:46:35.797Z", 
    "photo": "http://b.cdnbrm.com/images/products/small/running_boards/go_rhino_415_series_4in_oval_side_steps_hero.gif", 
    "catalog": 44, 
    "cost": "$218.75 /pair", 
    "quantum": 10
  }, 
  "model": "products.product"
}
]