[
{
  "fields": {
    "photo": "http://img1.rnkr-static.com/node_img/114/2268169/C350/toyota-ae85-automobile-models-photo-1.jpg", 
    "make": 1, 
    "type": "", 
    "name": " Toyota AE85", 
    "description": "The Toyota AE85, sold as the Toyota Corolla Levin, Toyota Sprinter Trueno or Toyota Corolla DX is a rear-wheel drive sportscoupe manufactured by Toyota from 1983-1987. The AE85 shares its chassis and basic design with the famous AE86, but while the AE86 was designed for performance, the AE85 was ...more "
  }, 
  "model": "cars.carmodel"
},
{
  "fields": {
    "photo": "", 
    "make": 1, 
    "type": "", 
    "name": " Toyota Progr\u00e8s", 
    "description": "Toyota Progr\u00e8s was a Toyota midsize luxury sedan which was sold in Japan from 1998 to 2007, replacing the Toyota Corona EXiV. The engine which the Toyota Progr\u00e8s used is an inline 6-cylinder of 2.5L or 3.0L with VVT-I. Since April 2001 Toyota put in Progres direct injection engines 1JZ-FSE and 2JZ-FSE.more "
  }, 
  "model": "cars.carmodel"
},
{
  "fields": {
    "photo": "http://img1.rnkr-static.com/node_img/1706/34107069/C350/toyota-scepter-automobile-models-photo-1.jpg", 
    "make": 1, 
    "type": "", 
    "name": " Toyota Camry", 
    "description": "The Toyota Camry (XV10) is a mid-size car that was produced by Toyota between 1991 and 1996 in Japan and North America, and 1993 and 1997 in Australia. The XV10 series represented the third generation of the Toyota Camry in all markets outside of Japan, which followed a different generational lineage.more "
  }, 
  "model": "cars.carmodel"
},
{
  "fields": {
    "photo": "", 
    "make": 1, 
    "type": "", 
    "name": " Toyota GT-One", 
    "description": "The Toyota GT-One is a racing car initially developed for grand touring GT1 rules, but later adapted into a Le Mans prototype LMGTP car. It raced in the 1998 and 1999 24 Hours of Le Mans.\u00a0more "
  }, 
  "model": "cars.carmodel"
},
{
  "fields": {
    "photo": "http://img1.rnkr-static.com/node_img/1706/34107080/C350/toyota-stout-automobile-models-photo-1.jpg", 
    "make": 1, 
    "type": "", 
    "name": " Toyota Stout", 
    "description": "The Toyota Stout was a light truck produced by the Japanese automaker Toyota from 1954 through 1989. The Stout shared its platform with the Toyota Dyna until 1968, when the Dyna was given its own platform, called the Toyota \"U\". In Japan, it was sold at Toyota Japanese dealerships called Toyopet Store.more "
  }, 
  "model": "cars.carmodel"
},
{
  "fields": {
    "photo": "http://img2.rnkr-static.com/node_img/114/2268264/C350/toyota-vista-automobile-models-photo-1.jpg", 
    "make": 1, 
    "type": "", 
    "name": " Toyota Vista", 
    "description": ""
  }, 
  "model": "cars.carmodel"
},
{
  "fields": {
    "photo": "http://img2.rnkr-static.com/user_node_img/1706/34107093/C350/toyota-trekker-automobile-models-photo-u1.jpg", 
    "make": 1, 
    "type": "Truck", 
    "name": " Toyota Trekker", 
    "description": ""
  }, 
  "model": "cars.carmodel"
},
{
  "fields": {
    "photo": "http://img2.rnkr-static.com/node_img/1706/34106993/C350/toyota-coaster-automobile-models-photo-1.jpg", 
    "make": 1, 
    "type": "", 
    "name": " Toyota Coaster", 
    "description": "The Toyota Coaster is a minibus produced by Toyota Motor Corporation. It was introduced in 1969, with the second generation introduced in 1982, followed by the third generation in 1993. The third generation Coaster received a facelift in 2001, and again in 2007. Since 1996, the Toyota Coaster is also ...more "
  }, 
  "model": "cars.carmodel"
}
]