[
{
  "fields": {
    "photo": "http://img2.rnkr-static.com/node_img/114/2268108/C350/toyota-chaser-automobile-models-photo-1.jpg", 
    "make": 1, 
    "type": "", 
    "name": "Toyota Chaser", 
    "description": "The Toyota Chaser is a mid-size car produced by the Toyota Motor Corporation in Japan. Most are 4-door sedans, with the 2-door coupe discontinued after the first generation. It was introduced on the 1976 Toyota Mark II platform, and was sold new by Toyota at Toyota Vista Store dealerships only in Japan, ...more "
  }, 
  "model": "cars.carmodel"
},
{
  "fields": {
    "photo": "", 
    "make": 1, 
    "type": "Mid-size car, Sport utility vehicle", 
    "name": "Toyota Land Cruiser Prado", 
    "description": "Toyota Land Cruiser Prado is a mid-size four-wheel drive vehicle in the Toyota Land Cruiser range. It is produced by the Japanese car maker, Toyota Motor Corporation. The Prado is one of the smaller vehicles in the range. The 2014 Prado is based on Toyota's J150 platform. In Europe the 2014 Prado is ...more "
  }, 
  "model": "cars.carmodel"
},
{
  "fields": {
    "photo": "http://img1.rnkr-static.com/node_img/1706/34107099/C350/toyota-vanguard-automobile-models-photo-1.jpg", 
    "make": 1, 
    "type": "Compact sport utility vehicle, Sport utility vehicle, Crossover SUV", 
    "name": "Toyota Vanguard", 
    "description": ""
  }, 
  "model": "cars.carmodel"
},
{
  "fields": {
    "photo": "http://img2.rnkr-static.com/node_img/114/2268086/C350/toyota-avensis-automobile-models-photo-1.jpg", 
    "make": 1, 
    "type": "Large family car, Sedan, Station Wagon", 
    "name": "Toyota Avensis", 
    "description": "The Toyota Avensis is a large family car built in Derbyshire, United Kingdom by Japanese carmaker Toyota since 1997. It is the direct successor to the European Carina E and is available as a four-door saloon, five-door liftback and estate. In Japan, the Avensis is exclusive to Toyota Netz dealerships, ...more "
  }, 
  "model": "cars.carmodel"
},
{
  "fields": {
    "photo": "http://img1.rnkr-static.com/node_img/114/2268153/C350/toyota-innova-automobile-models-photo-1.jpg", 
    "make": 1, 
    "type": "Minivan", 
    "name": "Toyota Innova", 
    "description": "The Toyota Innova is a compact MPV manufactured by Toyota. It is produced in Indonesia under supervision by Toyota Astra Motor since 2004. As with Toyota Kijang, which it replaced, the Innova is produced and first marketed in 2004 in Indonesia. The Innova is part of Toyota's IMV program together with ...more "
  }, 
  "model": "cars.carmodel"
},
{
  "fields": {
    "photo": "http://img1.rnkr-static.com/node_img/1706/34107101/C350/toyota-verossa-automobile-models-photo-1.jpg", 
    "make": 1, 
    "type": "Sedan", 
    "name": "Toyota Verossa", 
    "description": "The Toyota Verossa was a sedan produced by the Toyota Motor Company for Japanese domestic market, and was exclusive to Toyota Vista Store Japanese locations. The Verossa exceeded Japanese government regulations concerning external dimensions and engine displacement, offering buyers a sedan that ...more "
  }, 
  "model": "cars.carmodel"
},
{
  "fields": {
    "photo": "http://img1.rnkr-static.com/node_img/114/2268155/C350/toyota-isis-automobile-models-photo-1.jpg", 
    "make": 1, 
    "type": "", 
    "name": "Toyota Isis", 
    "description": "The Toyota Isis is a seven-seat large MPV manufactured by Kanto Auto Works under contract for Japanese automaker Toyota. It is sold in Japan and Singapore and was launched in September 2004. It features sliding doors and is available with either front or four-wheel drive and straight-4 1.8 and 2.0-litre ...more "
  }, 
  "model": "cars.carmodel"
},
{
  "fields": {
    "photo": "http://img2.rnkr-static.com/node_img/114/2268204/C350/toyota-porte-automobile-models-photo-1.jpg", 
    "make": 1, 
    "type": "", 
    "name": "Toyota Porte", 
    "description": "The Toyota Porte is a mini MPV produced by Toyota that features an electric-powered sliding door on the passenger side. The driver's door is of the conventional swing-open type. The Porte was introduced in July 2004, but is only available in Japan, so it is only produced with right hand drive. The Porte ...more "
  }, 
  "model": "cars.carmodel"
}
]