[
{
  "fields": {
    "photo": "http://img3.rnkr-static.com/user_node_img/114/2268206/C350/toyota-prius-u9.jpg", 
    "make": 1, 
    "type": "Compact, Hybrid electric vehicle", 
    "name": "Toyota Prius", 
    "description": "The Toyota Prius is a full hybrid electric mid-size hatchback, formerly a compact sedan developed and manufactured by Toyota. The EPA and California Air Resources Board rate the Prius as among the cleanest vehicles sold in the United States based on smog-forming emissions. The Prius first went on sale ...more "
  }, 
  "model": "cars.carmodel"
},
{
  "fields": {
    "photo": "http://img2.rnkr-static.com/node_img/114/2268240/C350/toyota-tacoma-automobile-models-photo-1.jpg", 
    "make": 1, 
    "type": "Truck, Pickup truck", 
    "name": "Toyota Tacoma", 
    "description": "The Toyota Tacoma is a pickup truck manufactured in the U.S. by the Japanese automobile manufacturer Toyota since 1995. The first generation Tacoma, model years 1995\u00bd through 2004, was classified as a compact pickup. The second generation was classified as mid-size. The Tacoma was Motor Trend Magazine's ...more "
  }, 
  "model": "cars.carmodel"
},
{
  "fields": {
    "photo": "http://img2.rnkr-static.com/node_img/114/2268110/C350/toyota-corolla-automobile-models-photo-2.jpg", 
    "make": 1, 
    "type": "Compact car, Subcompact car, Compact", 
    "name": "Toyota Corolla", 
    "description": "The Toyota Corolla is a line of subcompact and compact cars manufactured by Toyota. Introduced in 1966, the Corolla managed to become the best-selling car worldwide by 1974 and has been one of the best-selling cars in the world since then. In 1997, the Corolla became the best selling nameplate in the ...more "
  }, 
  "model": "cars.carmodel"
},
{
  "fields": {
    "photo": "http://img2.rnkr-static.com/node_img/114/2268275/C350/toyota-yaris-automobile-models-photo-1.jpg", 
    "make": 1, 
    "type": "", 
    "name": "Toyota Yaris", 
    "description": ""
  }, 
  "model": "cars.carmodel"
},
{
  "fields": {
    "photo": "http://img2.rnkr-static.com/node_img/114/2268275/C350/toyota-yaris-automobile-models-photo-1.jpg", 
    "make": 1, 
    "type": "Mid-size car, Sedan, Hybrid electric vehicle", 
    "name": "Toyota Camry Hybrid", 
    "description": ""
  }, 
  "model": "cars.carmodel"
},
{
  "fields": {
    "photo": "http://img2.rnkr-static.com/node_img/114/2268275/C350/toyota-yaris-automobile-models-photo-1.jpg", 
    "make": 1, 
    "type": "Compact sport utility vehicle, Sport utility vehicle", 
    "name": "Toyota FJ Cruiser", 
    "description": "The Toyota FJ Cruiser is a retro style SUV with styling and off road performance reminiscent of the original Toyota FJ40 Land Cruisers. Introduced as a concept car at the January 2003 North American International Auto Show, the FJ Cruiser was approved for production after positive consumer response and ...more "
  }, 
  "model": "cars.carmodel"
},
{
  "fields": {
    "photo": "http://img1.rnkr-static.com/node_img/114/2268096/C350/toyota-camry-automobile-models-photo-1.jpg", 
    "make": 1, 
    "type": "Compact car", 
    "name": "Toyota Camry", 
    "description": "The Toyota Camry is an automobile sold internationally by the Japanese manufacturer Toyota since 1982, spanning multiple generations. Originally compact in size, later Camry models have grown to fit the mid-size classification \u2014although the two sizes co-existed in the 1990s. Since the release of the ...more "
  }, 
  "model": "cars.carmodel"
},
{
  "fields": {
    "photo": "http://img2.rnkr-static.com/node_img/100/1988696/C350/scion-xb-automobile-models-photo-1.jpg", 
    "make": 1, 
    "type": "Compact car, Subcompact car", 
    "name": "Scion xB", 
    "description": "The Scion xB is a compact car made by Toyota for the United States market and sold under their youth-oriented Scion brand. It is a box-shaped, 5-door compact hatchback.\u00a0more "
  }, 
  "model": "cars.carmodel"
}
]