[
{
  "fields": {
    "photo": "http://img2.rnkr-static.com/node_img/114/2268238/C350/toyota-t100-automobile-models-photo-1.jpg", 
    "make": 1, 
    "type": "Pickup truck", 
    "name": "Toyota T100", 
    "description": "The Toyota T100 was a full-size pickup truck introduced by Toyota in late 1992 as a 1993 model year vehicle.\u00a0more "
  }, 
  "model": "cars.carmodel"
},
{
  "fields": {
    "photo": "http://img2.rnkr-static.com/node_img/114/2268195/C350/toyota-noah-automobile-models-photo-1.jpg", 
    "make": 1, 
    "type": "Minivan", 
    "name": "Toyota Noah", 
    "description": "The Toyota Noah is an eight-seater MPV with two rear sliding doors built by Toyota and sold only in Asia. A five-seater version without the third seat row is available. Its predecessor was the Toyota LiteAce Noah. The Noah has a twin version named Toyota Voxy, with lower ground clearance. The Noah's 154 ...more "
  }, 
  "model": "cars.carmodel"
},
{
  "fields": {
    "photo": "http://img1.rnkr-static.com/node_img/114/2268095/C350/toyota-caldina-automobile-models-photo-1.jpg", 
    "make": 1, 
    "type": "", 
    "name": "Toyota Caldina", 
    "description": "The Toyota Caldina is an automobile manufactured by Toyota for the Japanese market and was released in 1992. It replaced the Toyota Carina and Toyota Corona wagons, and was sold at both Toyota Store and Toyopet Store locations in Japan. While the Caldina has never been officially exported by Toyota ...more "
  }, 
  "model": "cars.carmodel"
},
{
  "fields": {
    "photo": "http://img2.rnkr-static.com/node_img/1706/34107015/C350/toyota-curren-automobile-models-photo-1.jpg", 
    "make": 1, 
    "type": "", 
    "name": "Toyota Curren", 
    "description": "The Toyota Curren was a Japanese automobile built by the Toyota Motor Corporation. It was based on the Toyota T200 chassis. It shared the same interior and rear end design as the 1994-1998 Toyota Celica coup\u00e9. Instead of having four round headlights like the Celica, it had a rectangular headlight design ...more "
  }, 
  "model": "cars.carmodel"
},
{
  "fields": {
    "photo": "http://img2.rnkr-static.com/node_img/114/2268146/C350/toyota-hiace-automobile-models-photo-1.jpg", 
    "make": 1, 
    "type": "", 
    "name": "Toyota HiAce", 
    "description": "The Toyota HiAce is a motor vehicle produced by the Japanese manufacturer Toyota. First launched in 1967, the HiAce has since been available in a wide range of configurations, including minivan and minibus, van, pick-up, taxi, and ambulance. In Japan the HiAce is exclusive to Toyopet Store ...more "
  }, 
  "model": "cars.carmodel"
},
{
  "fields": {
    "photo": "http://img2.rnkr-static.com/node_img/114/2268154/C350/toyota-ipsum-automobile-models-photo-1.jpg", 
    "make": 1, 
    "type": "Minivan", 
    "name": "Toyota Ipsum", 
    "description": "The Toyota Ipsum, Picnic, SportsVan or Avensis Verso is a seven-seater multi-purpose vehicle produced by Japanese automaker Toyota from 1995 to 2009. It was never produced in North America. The Ipsum, like many Toyota products, was shared as a trio of the Toyota Gaia, and sold only at Japanese Toyota ...more "
  }, 
  "model": "cars.carmodel"
},
{
  "fields": {
    "photo": "", 
    "make": 1, 
    "type": "Compact car, Full-size car, Crossover SUV", 
    "name": "Toyota Mark X ZiO", 
    "description": "The Toyota Mark X ZiO was a CUV manufactured by Toyota Motor Corporation from 2007 to 2013. It replaces the Toyota Opa MPV, and was exclusive to Toyota Japan dealerships Toyopet Store, sold alongside the Toyota Mark X sedan. The \"4+Free\" concept uses four independent seats that can accommodate four ...more "
  }, 
  "model": "cars.carmodel"
},
{
  "fields": {
    "photo": "http://img1.rnkr-static.com/node_img/114/2268228/C350/toyota-sienta-automobile-models-photo-1.jpg", 
    "make": 1, 
    "type": "Minivan", 
    "name": "Toyota Sienta", 
    "description": "The Toyota Sienta is a small five-door minivan with sliding doors sold only in Japan. Introduced in September 2003, it seats seven despite its very small size. It features avant-garde styling that is very similar to the Renault Twingo. The Toyota Sienta is a three-row, seven seater compact MPV based on ...more "
  }, 
  "model": "cars.carmodel"
}
]