[
{
  "fields": {
    "photo": "http://img2.rnkr-static.com/node_img/114/2268216/C350/toyota-ractis-automobile-models-photo-1.jpg", 
    "make": 1, 
    "type": "Subcompact car", 
    "name": "Toyota Ractis", 
    "description": "The Toyota Ractis is a subcompact car produced by the Japanese automakers Toyota and Kanto Auto Works. It is a five-seated vehicle based on the Vitz, and was introduced in October 2005 as the successor of the Yaris Verso. The name \"Ractis\" is derived from \"Run\", \"Activity\" and \"Space\".\u00a0more "
  }, 
  "model": "cars.carmodel"
},
{
  "fields": {
    "photo": "", 
    "make": 1, 
    "type": "2+2", 
    "name": "Toyota FT-HS", 
    "description": "The Toyota FT-HS is a hybrid sports car concept introduced at the 2007 North American International Auto Show. Calty Design Research designed the concept. FT-HS stands for Future Toyota Hybrid Sport. The goal of the rear wheel drive hybrid powertrain is to produce 400 hp and achieve 0-60 mph in around 4 ...more "
  }, 
  "model": "cars.carmodel"
},
{
  "fields": {
    "photo": "http://img1.rnkr-static.com/node_img/1706/34107076/C350/toyota-sprinter-automobile-models-photo-1.jpg", 
    "make": 1, 
    "type": "Compact car", 
    "name": "Toyota Sprinter", 
    "description": "The Toyota Sprinter was a compact car manufactured by Toyota as a variant of the Toyota Corolla. Exclusively sold in the Japanese domestic market, the Sprinter was aimed to be sportier than its Corolla sibling, with the Sprinter being sold at the Toyota Vista Store while the Corolla was sold at the ...more "
  }, 
  "model": "cars.carmodel"
},
{
  "fields": {
    "photo": "http://img1.rnkr-static.com/node_img/114/2268217/C350/toyota-raum-automobile-models-photo-1.jpg", 
    "make": 1, 
    "type": "Hatchback, Minivan", 
    "name": "Toyota Raum", 
    "description": "The Toyota Raum is a small, five-seat mini MPV that first appeared in May 1997. The second generation was released in May 2003. It is currently sold only in Japan at Toyota Netz retail sales channels. The vehicle's name is German for chamber, berth, room, space, expanse, scope, area, or sphere and ...more "
  }, 
  "model": "cars.carmodel"
},
{
  "fields": {
    "photo": "", 
    "make": 1, 
    "type": "Minivan", 
    "name": "Toyota Grand Hiace", 
    "description": ""
  }, 
  "model": "cars.carmodel"
},
{
  "fields": {
    "photo": "http://img1.rnkr-static.com/node_img/114/2268263/C350/toyota-vios-automobile-models-photo-1.jpg", 
    "make": 1, 
    "type": "Sedan, Subcompact car", 
    "name": "Toyota Vios", 
    "description": "The Toyota Vios is a four-door subcompact sedan manufactured by Toyota Motor Corporation primarily for emerging markets in the Asia Pacific region. Introduced in 2002, the Vios serves as the replacement to the Tercel, which filled the Asian subcompact or B-segment class, below the Corolla and Camry ...more "
  }, 
  "model": "cars.carmodel"
},
{
  "fields": {
    "photo": "", 
    "make": 1, 
    "type": "Large family car", 
    "name": "Toyota Carina II", 
    "description": "The Toyota Carina line of large family cars was introduced in Japan in 1970. This was introduced in Europe in 1971, with A40 and A60 series subsequently appearing soon after their introductions in Japan. In 1984, the A60 series Carina was replaced in the European market by the \"Carina II\" - essentially ...more "
  }, 
  "model": "cars.carmodel"
},
{
  "fields": {
    "photo": "", 
    "make": 1, 
    "type": "Sedan", 
    "name": "Toyota Hybrid X", 
    "description": ""
  }, 
  "model": "cars.carmodel"
}
]