[
{
  "fields": {
    "type": "P", 
    "id": 13, 
    "name": "Driveshafts & U-Joints"
  }, 
  "model": "products.productcatalog"
},
{
  "fields": {
    "updated": "2016-10-18T01:46:35.797Z", 
    "name": "Dorman Drive Shaft", 
    "created": "2016-10-18T01:46:35.797Z", 
    "photo": "http://b.cdnbrm.com/images/products/small/differential_parts/dorman_drive_shaft_hero.gif", 
    "catalog": 13, 
    "cost": "$88.99 each", 
    "quantum": 10
  }, 
  "model": "products.product"
},
{
  "fields": {
    "updated": "2016-10-18T01:46:35.797Z", 
    "name": "Moog U-Joint & Components", 
    "created": "2016-10-18T01:46:35.797Z", 
    "photo": "http://b.cdnbrm.com/images/products/small/drivetrain_and_differentials/moog_u_joint_and_components_hero.gif", 
    "catalog": 13, 
    "cost": "$4.99 each", 
    "quantum": 10
  }, 
  "model": "products.product"
},
{
  "fields": {
    "updated": "2016-10-18T01:46:35.797Z", 
    "name": "Dorman Drive Shaft Coupler", 
    "created": "2016-10-18T01:46:35.797Z", 
    "photo": "http://b.cdnbrm.com/images/products/small/differential_parts/dorman_drive_shaft_coupler_hero.gif", 
    "catalog": 13, 
    "cost": "$29.99 each", 
    "quantum": 10
  }, 
  "model": "products.product"
},
{
  "fields": {
    "updated": "2016-10-18T01:46:35.797Z", 
    "name": "Dorman Center Support Bearing", 
    "created": "2016-10-18T01:46:35.797Z", 
    "photo": "http://b.cdnbrm.com/images/products/small/differential_parts/dorman_center_support_bearing_hero.gif", 
    "catalog": 13, 
    "cost": "$43.99 each", 
    "quantum": 10
  }, 
  "model": "products.product"
},
{
  "fields": {
    "updated": "2016-10-18T01:46:35.797Z", 
    "name": "Timken Center Support Bearing", 
    "created": "2016-10-18T01:46:35.797Z", 
    "photo": "http://b.cdnbrm.com/images/products/small/drivetrain_and_differentials/timken_center_support_bearing_hero.gif", 
    "catalog": 13, 
    "cost": "$10.99 each", 
    "quantum": 10
  }, 
  "model": "products.product"
},
{
  "fields": {
    "updated": "2016-10-18T01:46:35.797Z", 
    "name": "Beck Arnley Center Support Bearing", 
    "created": "2016-10-18T01:46:35.797Z", 
    "photo": "http://b.cdnbrm.com/images/products/small/drivetrain_and_differentials/beck_arnley_center_support_bearing_hero.gif", 
    "catalog": 13, 
    "cost": "$17.99 each", 
    "quantum": 10
  }, 
  "model": "products.product"
},
{
  "fields": {
    "updated": "2016-10-18T01:46:35.797Z", 
    "name": "ICON Carrier Bearing Drop Kit", 
    "created": "2016-10-18T01:46:35.797Z", 
    "photo": "http://b.cdnbrm.com/images/products/small/drivetrain_and_differentials/icon_carrier_bearing_drop_kit_hero.gif", 
    "catalog": 13, 
    "cost": "$64.99 /kit", 
    "quantum": 10
  }, 
  "model": "products.product"
},
{
  "fields": {
    "updated": "2016-10-18T01:46:35.797Z", 
    "name": "Tuff Country Drive Shaft", 
    "created": "2016-10-18T01:46:35.797Z", 
    "photo": "http://b.cdnbrm.com/images/products/small/drivetrain_and_differentials/tuff_country_drive_shaft_hero.gif", 
    "catalog": 13, 
    "cost": "$639.99 each", 
    "quantum": 10
  }, 
  "model": "products.product"
},
{
  "fields": {
    "updated": "2016-10-18T01:46:35.797Z", 
    "name": "Alloy USA Slip Yoke Eliminator Kit", 
    "created": "2016-10-18T01:46:35.797Z", 
    "photo": "http://b.cdnbrm.com/images/products/small/drivetrain_and_differentials/Alloy_11400_hero.gif", 
    "catalog": 13, 
    "cost": "$229.99", 
    "quantum": 10
  }, 
  "model": "products.product"
},
{
  "fields": {
    "updated": "2016-10-18T01:46:35.797Z", 
    "name": "Beck Arnley Driveshaft Flex Disc", 
    "created": "2016-10-18T01:46:35.797Z", 
    "photo": "http://b.cdnbrm.com/images/products/small/drivetrain_and_differentials/beck_arnley_driveshaft_flex_disc_hero.gif", 
    "catalog": 13, 
    "cost": "$40.99 each", 
    "quantum": 10
  }, 
  "model": "products.product"
},
{
  "fields": {
    "updated": "2016-10-18T01:46:35.797Z", 
    "name": "Rubicon Express Transfer Case Adapter Flange", 
    "created": "2016-10-18T01:46:35.797Z", 
    "photo": "http://b.cdnbrm.com/images/products/small/drivetrain_and_differentials/rubicon_express_transfer_case_adapter_flange_hero.gif", 
    "catalog": 13, 
    "cost": "$67.99", 
    "quantum": 10
  }, 
  "model": "products.product"
},
{
  "fields": {
    "updated": "2016-10-18T01:46:35.797Z", 
    "name": "Rubicon Express Transfer Case Slip Yoke", 
    "created": "2016-10-18T01:46:35.797Z", 
    "photo": "http://b.cdnbrm.com/images/products/small/drivetrain_and_differentials/rubicon_express_transfer_case_slip_yoke_hero.gif", 
    "catalog": 13, 
    "cost": "$74.99", 
    "quantum": 10
  }, 
  "model": "products.product"
},
{
  "fields": {
    "updated": "2016-10-18T01:46:35.797Z", 
    "name": "Dorman Pinion Yoke", 
    "created": "2016-10-18T01:46:35.797Z", 
    "photo": "http://b.cdnbrm.com/images/products/small/differential_parts/dorman_pinion_yoke_hero.gif", 
    "catalog": 13, 
    "cost": "$24.99 each", 
    "quantum": 10
  }, 
  "model": "products.product"
},
{
  "fields": {
    "updated": "2016-10-18T01:46:35.797Z", 
    "name": "Rubicon Express Transfer Case Lowering Kit", 
    "created": "2016-10-18T01:46:35.797Z", 
    "photo": "http://b.cdnbrm.com/images/products/small/drivetrain_and_differentials/rubicon_express_transfer_case_lowering_kit_hero.gif", 
    "catalog": 13, 
    "cost": "$21.99 /kit", 
    "quantum": 10
  }, 
  "model": "products.product"
},
{
  "fields": {
    "updated": "2016-10-18T01:46:35.797Z", 
    "name": "Rubicon Express Transfer Case Slip Yoke Eliminator Kit", 
    "created": "2016-10-18T01:46:35.797Z", 
    "photo": "http://b.cdnbrm.com/images/products/small/drivetrain_and_differentials/rubicon_express_transfer_case_slip_yoke_eliminator_kit_hero.gif", 
    "catalog": 13, 
    "cost": "$99.99 /kit", 
    "quantum": 10
  }, 
  "model": "products.product"
},
{
  "fields": {
    "updated": "2016-10-18T01:46:35.797Z", 
    "name": "Alloy USA Pinion Yoke Conversion Kits", 
    "created": "2016-10-18T01:46:35.797Z", 
    "photo": "http://b.cdnbrm.com/images/products/small/drivetrain_and_differentials/alloy_usa_pinion_yoke_conversion_kits.gif", 
    "catalog": 13, 
    "cost": "$94.99 /kit", 
    "quantum": 10
  }, 
  "model": "products.product"
},
{
  "fields": {
    "updated": "2016-10-18T01:46:35.797Z", 
    "name": "Dorman Slip Yoke", 
    "created": "2016-10-18T01:46:35.797Z", 
    "photo": "http://b.cdnbrm.com/images/products/small/differential_parts/dorman_slip_yoke_hero.gif", 
    "catalog": 13, 
    "cost": "$97.99 each", 
    "quantum": 10
  }, 
  "model": "products.product"
},
{
  "fields": {
    "updated": "2016-10-18T01:46:35.797Z", 
    "name": "ICON Driveshafts", 
    "created": "2016-10-18T01:46:35.797Z", 
    "photo": "http://b.cdnbrm.com/images/products/small/drivetrain_and_differentials/icon_driveshafts_hero.gif", 
    "catalog": 13, 
    "cost": "$699.95 each", 
    "quantum": 10
  }, 
  "model": "products.product"
},
{
  "fields": {
    "updated": "2016-10-18T01:46:35.797Z", 
    "name": "Rubicon Express Jeep Driveshafts", 
    "created": "2016-10-18T01:46:35.797Z", 
    "photo": "http://b.cdnbrm.com/images/products/small/drivetrain_and_differentials/rubicon_express_jeep_driveshafts_hero.gif", 
    "catalog": 13, 
    "cost": "$409.99", 
    "quantum": 10
  }, 
  "model": "products.product"
},
{
  "fields": {
    "updated": "2016-10-18T01:46:35.797Z", 
    "name": "Rubicon Express CVO Jeep Driveshafts", 
    "created": "2016-10-18T01:46:35.797Z", 
    "photo": "http://b.cdnbrm.com/images/products/small/drivetrain_and_differentials/rubicon_express_cvo_jeep_driveshafts_hero.gif", 
    "catalog": 13, 
    "cost": "$349.99", 
    "quantum": 10
  }, 
  "model": "products.product"
},
{
  "fields": {
    "updated": "2016-10-18T01:46:35.797Z", 
    "name": "Alloy USA Heavy Duty U-Joints", 
    "created": "2016-10-18T01:46:35.797Z", 
    "photo": "http://b.cdnbrm.com/images/products/small/drivetrain_and_differentials/alloy_usa_heavy_duty_u_joints.gif", 
    "catalog": 13, 
    "cost": "$33.99 each", 
    "quantum": 10
  }, 
  "model": "products.product"
},
{
  "fields": {
    "updated": "2016-10-18T01:46:35.797Z", 
    "name": "Rubicon Express CVF Jeep Driveshafts", 
    "created": "2016-10-18T01:46:35.797Z", 
    "photo": "http://b.cdnbrm.com/images/products/small/drivetrain_and_differentials/rubicon_express_cvf_jeep_driveshafts_hero.gif", 
    "catalog": 13, 
    "cost": "$309.99", 
    "quantum": 10
  }, 
  "model": "products.product"
},
{
  "fields": {
    "updated": "2016-10-18T01:46:35.797Z", 
    "name": "G2 Pinion Yokes", 
    "created": "2016-10-18T01:46:35.797Z", 
    "photo": "http://b.cdnbrm.com/images/products/small/drivetrain_and_differentials/g2_pinion_yokes_hero.gif", 
    "catalog": 13, 
    "cost": "$31.99 each", 
    "quantum": 10
  }, 
  "model": "products.product"
}
]