[
{
  "fields": {
    "type": "P", 
    "id": 17, 
    "name": "Fuel Systems"
  }, 
  "model": "products.productcatalog"
},
{
  "fields": {
    "updated": "2016-10-18T01:46:35.797Z", 
    "name": "Bosch Oxygen Sensor", 
    "created": "2016-10-18T01:46:35.797Z", 
    "photo": "http://b.cdnbrm.com/images/products/small/fuel_systems/bosch_oxygen_sensor_hero.gif", 
    "catalog": 17, 
    "cost": "$13.99 each", 
    "quantum": 10
  }, 
  "model": "products.product"
},
{
  "fields": {
    "updated": "2016-10-18T01:46:35.797Z", 
    "name": "Denso Oxygen Sensor", 
    "created": "2016-10-18T01:46:35.797Z", 
    "photo": "http://b.cdnbrm.com/images/products/small/fuel_systems/denso_oxygen_sensor_hero.gif", 
    "catalog": 17, 
    "cost": "$14.99 each", 
    "quantum": 10
  }, 
  "model": "products.product"
},
{
  "fields": {
    "updated": "2016-10-18T01:46:35.797Z", 
    "name": "Fitch Fuel Catalyst", 
    "created": "2016-10-18T01:46:35.797Z", 
    "photo": "http://b.cdnbrm.com/images/products/small/performance/fitch_75_100_kits.gif", 
    "catalog": 17, 
    "cost": "$215.55 each", 
    "quantum": 10
  }, 
  "model": "products.product"
},
{
  "fields": {
    "updated": "2016-10-18T01:46:35.797Z", 
    "name": "Delphi Fuel Pump & Components", 
    "created": "2016-10-18T01:46:35.797Z", 
    "photo": "http://b.cdnbrm.com/images/products/small/fuel_systems/delphi_fuel_pump_and_components_hero.gif", 
    "catalog": 17, 
    "cost": "$3.99 each", 
    "quantum": 10
  }, 
  "model": "products.product"
},
{
  "fields": {
    "updated": "2016-10-18T01:46:35.797Z", 
    "name": "Airtex Fuel Pump & Components", 
    "created": "2016-10-18T01:46:35.797Z", 
    "photo": "http://b.cdnbrm.com/images/products/small/fuel_systems/airtex_fuel_pump_components_hero.gif", 
    "catalog": 17, 
    "cost": "$4.99 each", 
    "quantum": 10
  }, 
  "model": "products.product"
},
{
  "fields": {
    "updated": "2016-10-18T01:46:35.797Z", 
    "name": "K&N; Performance Inline Fuel Filters", 
    "created": "2016-10-18T01:46:35.797Z", 
    "photo": "http://b.cdnbrm.com/images/products/small/fuel_systems/kn_performance_inline_fuel_filters_hero.gif", 
    "catalog": 17, 
    "cost": "$14.73 each", 
    "quantum": 10
  }, 
  "model": "products.product"
},
{
  "fields": {
    "updated": "2016-10-18T01:46:35.797Z", 
    "name": "K&N; Universal Inline Fuel Pumps", 
    "created": "2016-10-18T01:46:35.797Z", 
    "photo": "http://b.cdnbrm.com/images/products/small/fuel_systems/kn_universal_inline_fuel_pumps_hero.gif", 
    "catalog": 17, 
    "cost": "$48.99 each", 
    "quantum": 10
  }, 
  "model": "products.product"
},
{
  "fields": {
    "updated": "2016-10-18T01:46:35.797Z", 
    "name": "Dorman EVAP Purge Valve", 
    "created": "2016-10-18T01:46:35.797Z", 
    "photo": "http://b.cdnbrm.com/images/products/small/fuel_systems/dorman_evap_purge_valve_hero.gif", 
    "catalog": 17, 
    "cost": "$5.99 each", 
    "quantum": 10
  }, 
  "model": "products.product"
},
{
  "fields": {
    "updated": "2016-10-18T01:46:35.797Z", 
    "name": "aFe Fuel Filters", 
    "created": "2016-10-18T01:46:35.797Z", 
    "photo": "http://b.cdnbrm.com/images/products/small/fuel_systems/afe_fuel_filters_hero.gif", 
    "catalog": 17, 
    "cost": "$24.95 each", 
    "quantum": 10
  }, 
  "model": "products.product"
},
{
  "fields": {
    "updated": "2016-10-18T01:46:35.797Z", 
    "name": "Stant Gas Cap", 
    "created": "2016-10-18T01:46:35.797Z", 
    "photo": "http://b.cdnbrm.com/images/products/small/coolers/stant_gas_cap_hero.gif", 
    "catalog": 17, 
    "cost": "$5.99 each", 
    "quantum": 10
  }, 
  "model": "products.product"
},
{
  "fields": {
    "updated": "2016-10-18T01:46:35.797Z", 
    "name": "NTK Oxygen Sensors", 
    "created": "2016-10-18T01:46:35.797Z", 
    "photo": "http://b.cdnbrm.com/images/products/small/exhaust_systems/ntk_oxygen_sensors_hero.gif", 
    "catalog": 17, 
    "cost": "$17.99 each", 
    "quantum": 10
  }, 
  "model": "products.product"
},
{
  "fields": {
    "updated": "2016-10-18T01:46:35.797Z", 
    "name": "Dorman EVAP Leak Detection Pump", 
    "created": "2016-10-18T01:46:35.797Z", 
    "photo": "http://b.cdnbrm.com/images/products/small/fuel_systems/dorman_evap_leak_detection_pump_hero.gif", 
    "catalog": 17, 
    "cost": "$25.99 each", 
    "quantum": 10
  }, 
  "model": "products.product"
},
{
  "fields": {
    "updated": "2016-10-18T01:46:35.797Z", 
    "name": "Edelbrock Performer Series Carburetors", 
    "created": "2016-10-18T01:46:35.797Z", 
    "photo": "http://b.cdnbrm.com/images/products/small/fuel_systems/edelbrock_performer_series_carburetors.gif", 
    "catalog": 17, 
    "cost": "$304.95", 
    "quantum": 10
  }, 
  "model": "products.product"
},
{
  "fields": {
    "updated": "2016-10-18T01:46:35.797Z", 
    "name": "Heatshield Products HP Fire Armor Sleeves", 
    "created": "2016-10-18T01:46:35.797Z", 
    "photo": "http://b.cdnbrm.com/images/products/small/exhaust_systems/heatshield_products_fire_armor_sleeve.gif", 
    "catalog": 17, 
    "cost": "$23.39 each", 
    "quantum": 10
  }, 
  "model": "products.product"
},
{
  "fields": {
    "updated": "2016-10-18T01:46:35.797Z", 
    "name": "Dorman Fuel Cooler", 
    "created": "2016-10-18T01:46:35.797Z", 
    "photo": "http://b.cdnbrm.com/images/products/small/fuel_systems/dorman_fuel_cooler_hero.gif", 
    "catalog": 17, 
    "cost": "$119.99 each", 
    "quantum": 10
  }, 
  "model": "products.product"
},
{
  "fields": {
    "updated": "2016-10-18T01:46:35.797Z", 
    "name": "Heatshield Products Hot Rod Sleeves", 
    "created": "2016-10-18T01:46:35.797Z", 
    "photo": "http://b.cdnbrm.com/images/products/small/fuel_systems/heatshield_products_hotrod_sleeves.gif", 
    "catalog": 17, 
    "cost": "$12.78 each", 
    "quantum": 10
  }, 
  "model": "products.product"
},
{
  "fields": {
    "updated": "2016-10-18T01:46:35.797Z", 
    "name": "Fram Fuel Filter", 
    "created": "2016-10-18T01:46:35.797Z", 
    "photo": "http://b.cdnbrm.com/images/products/small/fuel_systems/fram_fuel_filter_hero_2.gif", 
    "catalog": 17, 
    "cost": "$2.99 each", 
    "quantum": 10
  }, 
  "model": "products.product"
},
{
  "fields": {
    "updated": "2016-10-18T01:46:35.797Z", 
    "name": "Edelbrock Thunder AVS Off-Road Series Carburetors", 
    "created": "2016-10-18T01:46:35.797Z", 
    "photo": "http://b.cdnbrm.com/images/products/small/fuel_systems/edelbrock_thunder_avs_off-road_series_carburetors.gif", 
    "catalog": 17, 
    "cost": "$377.36", 
    "quantum": 10
  }, 
  "model": "products.product"
},
{
  "fields": {
    "updated": "2016-10-18T01:46:35.797Z", 
    "name": "Dorman Fuel Tank & Components", 
    "created": "2016-10-18T01:46:35.797Z", 
    "photo": "http://b.cdnbrm.com/images/products/small/fuel_systems/dorman_fuel_tank_and_components_hero.gif", 
    "catalog": 17, 
    "cost": "$3.99 each", 
    "quantum": 10
  }, 
  "model": "products.product"
},
{
  "fields": {
    "updated": "2016-10-18T01:46:35.797Z", 
    "name": "Delphi Fuel Pressure Regulator", 
    "created": "2016-10-18T01:46:35.797Z", 
    "photo": "http://b.cdnbrm.com/images/products/small/fuel_systems/delphi_fuel_pressure_regulator_hero.gif", 
    "catalog": 17, 
    "cost": "$30.99 each", 
    "quantum": 10
  }, 
  "model": "products.product"
},
{
  "fields": {
    "updated": "2016-10-18T01:46:35.797Z", 
    "name": "BBK Fuel Rails", 
    "created": "2016-10-18T01:46:35.797Z", 
    "photo": "http://b.cdnbrm.com/images/products/small/fuel_systems/bbk_fuel_rails_hero.gif", 
    "catalog": 17, 
    "cost": "$209.99", 
    "quantum": 10
  }, 
  "model": "products.product"
},
{
  "fields": {
    "updated": "2016-10-18T01:46:35.797Z", 
    "name": "Dorman EVAP Vent Solenoid", 
    "created": "2016-10-18T01:46:35.797Z", 
    "photo": "http://b.cdnbrm.com/images/products/small/fuel_systems/dorman_evap_vent_solenoid_hero.gif", 
    "catalog": 17, 
    "cost": "$15.99 each", 
    "quantum": 10
  }, 
  "model": "products.product"
},
{
  "fields": {
    "updated": "2016-10-18T01:46:35.797Z", 
    "name": "Red Line RL-2 Diesel Ignition Improver", 
    "created": "2016-10-18T01:46:35.797Z", 
    "photo": "http://b.cdnbrm.com/images/products/small/motor_oil/red_line_rl_2_diesel_ignition_improver_hero.gif", 
    "catalog": 17, 
    "cost": "$16.99 each", 
    "quantum": 10
  }, 
  "model": "products.product"
},
{
  "fields": {
    "updated": "2016-10-18T01:46:35.797Z", 
    "name": "Heatshield Products Thermaflect Sleeves", 
    "created": "2016-10-18T01:46:35.797Z", 
    "photo": "http://b.cdnbrm.com/images/products/small/exhaust_systems/heatshield_products_thermaflect_sleeve.gif", 
    "catalog": 17, 
    "cost": "$23.39 each", 
    "quantum": 10
  }, 
  "model": "products.product"
},
{
  "fields": {
    "updated": "2016-10-18T01:46:35.797Z", 
    "name": "Dorman Fuel Line", 
    "created": "2016-10-18T01:46:35.797Z", 
    "photo": "http://b.cdnbrm.com/images/products/small/fuel_systems/dorman_fuel_line_hero.gif", 
    "catalog": 17, 
    "cost": "$2.99 each", 
    "quantum": 10
  }, 
  "model": "products.product"
},
{
  "fields": {
    "updated": "2016-10-18T01:46:35.797Z", 
    "name": "Denso Fuel Pump & Components", 
    "created": "2016-10-18T01:46:35.797Z", 
    "photo": "http://b.cdnbrm.com/images/products/small/fuel_systems/denso_fuel_pump_components_hero.gif", 
    "catalog": 17, 
    "cost": "$7.99 each", 
    "quantum": 10
  }, 
  "model": "products.product"
},
{
  "fields": {
    "updated": "2016-10-18T01:46:35.797Z", 
    "name": "Delphi Oxygen Sensor", 
    "created": "2016-10-18T01:46:35.797Z", 
    "photo": "http://b.cdnbrm.com/images/products/small/fuel_systems/delphi_oxygen_sensor_hero.gif", 
    "catalog": 17, 
    "cost": "$13.99 each", 
    "quantum": 10
  }, 
  "model": "products.product"
},
{
  "fields": {
    "updated": "2016-10-18T01:46:35.797Z", 
    "name": "Wix Fuel Filter", 
    "created": "2016-10-18T01:46:35.797Z", 
    "photo": "http://b.cdnbrm.com/images/products/small/fuel_systems/wix_fuel_filter_hero.gif", 
    "catalog": 17, 
    "cost": "$1.99 each", 
    "quantum": 10
  }, 
  "model": "products.product"
},
{
  "fields": {
    "updated": "2016-10-18T01:46:35.797Z", 
    "name": "BBK O2 Sensor Extensions", 
    "created": "2016-10-18T01:46:35.797Z", 
    "photo": "http://b.cdnbrm.com/images/products/small/fuel_systems/bbk_o2_sensor_extensions_hero.gif", 
    "catalog": 17, 
    "cost": "$49.99", 
    "quantum": 10
  }, 
  "model": "products.product"
},
{
  "fields": {
    "updated": "2016-10-18T01:46:35.797Z", 
    "name": "Demon Carburetor Fuel Bowls", 
    "created": "2016-10-18T01:46:35.797Z", 
    "photo": "http://b.cdnbrm.com/images/products/small/fuel_systems/demon_carburetor_fuel_bowls_hero.gif", 
    "catalog": 17, 
    "cost": "$57.36 each", 
    "quantum": 10
  }, 
  "model": "products.product"
},
{
  "fields": {
    "updated": "2016-10-18T01:46:35.797Z", 
    "name": "Heatshield Products HP Thermal Sleeving", 
    "created": "2016-10-18T01:46:35.797Z", 
    "photo": "http://b.cdnbrm.com/images/products/small/fuel_systems/heatshield_products_hp_thermal_sleeve.gif", 
    "catalog": 17, 
    "cost": "$22.49 each", 
    "quantum": 10
  }, 
  "model": "products.product"
},
{
  "fields": {
    "updated": "2016-10-18T01:46:35.797Z", 
    "name": "Red Line SI-1 Complete Fuel System Cleaner", 
    "created": "2016-10-18T01:46:35.797Z", 
    "photo": "http://b.cdnbrm.com/images/products/small/motor_oil/red_line_si_1_complete_fuel_system_cleaner_hero.gif", 
    "catalog": 17, 
    "cost": "$16.99 each", 
    "quantum": 10
  }, 
  "model": "products.product"
},
{
  "fields": {
    "updated": "2016-10-18T01:46:35.797Z", 
    "name": "Mahle Fuel Filter", 
    "created": "2016-10-18T01:46:35.797Z", 
    "photo": "http://b.cdnbrm.com/images/products/small/fuel_systems/mahle_fuel_filter_hero.gif", 
    "catalog": 17, 
    "cost": "$2.99 each", 
    "quantum": 10
  }, 
  "model": "products.product"
},
{
  "fields": {
    "updated": "2016-10-18T01:46:35.797Z", 
    "name": "Hitachi Idle Air Control Valve", 
    "created": "2016-10-18T01:46:35.797Z", 
    "photo": "http://b.cdnbrm.com/images/products/small/fuel_systems/hitachi_idle_air_control_valve_hero.gif", 
    "catalog": 17, 
    "cost": "$32.99", 
    "quantum": 10
  }, 
  "model": "products.product"
},
{
  "fields": {
    "updated": "2016-10-18T01:46:35.797Z", 
    "name": "Demon Fuel Lines", 
    "created": "2016-10-18T01:46:35.797Z", 
    "photo": "http://b.cdnbrm.com/images/products/small/fuel_systems/demon_fuel_hoses_and_fittings_hero.gif", 
    "catalog": 17, 
    "cost": "$39.93 /kit", 
    "quantum": 10
  }, 
  "model": "products.product"
},
{
  "fields": {
    "updated": "2016-10-18T01:46:35.797Z", 
    "name": "Edelbrock Carburetor Adapters & Plates", 
    "created": "2016-10-18T01:46:35.797Z", 
    "photo": "http://b.cdnbrm.com/images/products/small/fuel_systems/edelbrock_carburetor_adapters_plates.gif", 
    "catalog": 17, 
    "cost": "$9.10", 
    "quantum": 10
  }, 
  "model": "products.product"
},
{
  "fields": {
    "updated": "2016-10-18T01:46:35.797Z", 
    "name": "Fram Fuel Water Separator", 
    "created": "2016-10-18T01:46:35.797Z", 
    "photo": "http://b.cdnbrm.com/images/products/small/fuel_systems/fram_fuel_water_separator_hero_2.gif", 
    "catalog": 17, 
    "cost": "$15.99 each", 
    "quantum": 10
  }, 
  "model": "products.product"
},
{
  "fields": {
    "updated": "2016-10-18T01:46:35.797Z", 
    "name": "Heatshield Products HP Color Heat Sleeves", 
    "created": "2016-10-18T01:46:35.797Z", 
    "photo": "http://b.cdnbrm.com/images/products/small/exhaust_systems/heatshield_products_hp_color_heat_sleeves.gif", 
    "catalog": 17, 
    "cost": "$23.39 each", 
    "quantum": 10
  }, 
  "model": "products.product"
},
{
  "fields": {
    "updated": "2016-10-18T01:46:35.797Z", 
    "name": "Red Line Lead Substitute Fuel Additive", 
    "created": "2016-10-18T01:46:35.797Z", 
    "photo": "http://b.cdnbrm.com/images/products/small/motor_oil/red_line_lead_substitute_fuel_additive_hero.gif", 
    "catalog": 17, 
    "cost": "$15.99 each", 
    "quantum": 10
  }, 
  "model": "products.product"
},
{
  "fields": {
    "updated": "2016-10-18T01:46:35.797Z", 
    "name": "Demon Carburetor Floats", 
    "created": "2016-10-18T01:46:35.797Z", 
    "photo": "http://b.cdnbrm.com/images/products/small/fuel_systems/demon_carburetor_floats_hero.gif", 
    "catalog": 17, 
    "cost": "$7.78", 
    "quantum": 10
  }, 
  "model": "products.product"
},
{
  "fields": {
    "updated": "2016-10-18T01:46:35.797Z", 
    "name": "Dorman Fuel Water Separator Components", 
    "created": "2016-10-18T01:46:35.797Z", 
    "photo": "http://b.cdnbrm.com/images/products/small/fuel_systems/dorman_fuel_water_separator_components_hero.gif", 
    "catalog": 17, 
    "cost": "$22.99 each", 
    "quantum": 10
  }, 
  "model": "products.product"
},
{
  "fields": {
    "updated": "2016-10-18T01:46:35.797Z", 
    "name": "Dorman Fuel Filter Cap", 
    "created": "2016-10-18T01:46:35.797Z", 
    "photo": "http://b.cdnbrm.com/images/products/small/fuel_systems/dorman_fuel_filter_cap_hero.gif", 
    "catalog": 17, 
    "cost": "$13.99 each", 
    "quantum": 10
  }, 
  "model": "products.product"
},
{
  "fields": {
    "updated": "2016-10-18T01:46:35.797Z", 
    "name": "Demon Fuel Bowl Gaskets", 
    "created": "2016-10-18T01:46:35.797Z", 
    "photo": "http://b.cdnbrm.com/images/products/small/fuel_systems/demon_fuel_bowl_gaskets_hero.gif", 
    "catalog": 17, 
    "cost": "$11.29", 
    "quantum": 10
  }, 
  "model": "products.product"
},
{
  "fields": {
    "updated": "2016-10-18T01:46:35.797Z", 
    "name": "Fel-Pro Fuel Injection Seal", 
    "created": "2016-10-18T01:46:35.797Z", 
    "photo": "http://b.cdnbrm.com/images/products/small/fuel_systems/fel_pro_fuel_injection_seal_hero.gif", 
    "catalog": 17, 
    "cost": "$2.99 each", 
    "quantum": 10
  }, 
  "model": "products.product"
},
{
  "fields": {
    "updated": "2016-10-18T01:46:35.797Z", 
    "name": "Beck Arnley Fuel Injection Seal", 
    "created": "2016-10-18T01:46:35.797Z", 
    "photo": "http://b.cdnbrm.com/images/products/small/fuel_systems/beck_arnley_fuel_injector_seal_hero.gif", 
    "catalog": 17, 
    "cost": "$1.99 each", 
    "quantum": 10
  }, 
  "model": "products.product"
},
{
  "fields": {
    "updated": "2016-10-18T01:46:35.797Z", 
    "name": "Beck Arnley Fuel Pump & Components", 
    "created": "2016-10-18T01:46:35.797Z", 
    "photo": "http://b.cdnbrm.com/images/products/small/fuel_systems/beck_arnley_fuel_pump_components.gif", 
    "catalog": 17, 
    "cost": "$1.99 each", 
    "quantum": 10
  }, 
  "model": "products.product"
},
{
  "fields": {
    "updated": "2016-10-18T01:46:35.797Z", 
    "name": "Dorman EVAP Canister", 
    "created": "2016-10-18T01:46:35.797Z", 
    "photo": "http://b.cdnbrm.com/images/products/small/fuel_systems/dorman_evap_canister_hero.gif", 
    "catalog": 17, 
    "cost": "$35.99 each", 
    "quantum": 10
  }, 
  "model": "products.product"
},
{
  "fields": {
    "updated": "2016-10-18T01:46:35.797Z", 
    "name": "Dorman Fuel Injection Components", 
    "created": "2016-10-18T01:46:35.797Z", 
    "photo": "http://b.cdnbrm.com/images/products/small/fuel_systems/dorman_fuel_injection_components_hero.gif", 
    "catalog": 17, 
    "cost": "$5.99 each", 
    "quantum": 10
  }, 
  "model": "products.product"
},
{
  "fields": {
    "updated": "2016-10-18T01:46:35.797Z", 
    "name": "Beck Arnley Fuel Pressure Sensor", 
    "created": "2016-10-18T01:46:35.797Z", 
    "photo": "http://b.cdnbrm.com/images/products/small/fuel_systems/beck_arnley_fuel_pressure_sensor_hero.gif", 
    "catalog": 17, 
    "cost": "$39.99 each", 
    "quantum": 10
  }, 
  "model": "products.product"
},
{
  "fields": {
    "updated": "2016-10-18T01:46:35.797Z", 
    "name": "Fel-Pro Fuel Pump Gasket", 
    "created": "2016-10-18T01:46:35.797Z", 
    "photo": "http://b.cdnbrm.com/images/products/small/fuel_systems/fel_pro_fuel_pump_gasket_hero.gif", 
    "catalog": 17, 
    "cost": "$0.99 each", 
    "quantum": 10
  }, 
  "model": "products.product"
},
{
  "fields": {
    "updated": "2016-10-18T01:46:35.797Z", 
    "name": "Beck Arnley Fuel Pump Relay", 
    "created": "2016-10-18T01:46:35.797Z", 
    "photo": "http://b.cdnbrm.com/images/products/small/fuel_systems/beck_arnley_fuel_pump_relay_hero.gif", 
    "catalog": 17, 
    "cost": "$5.99 each", 
    "quantum": 10
  }, 
  "model": "products.product"
},
{
  "fields": {
    "updated": "2016-10-18T01:46:35.797Z", 
    "name": "Bosch Fuel Filter", 
    "created": "2016-10-18T01:46:35.797Z", 
    "photo": "http://b.cdnbrm.com/images/products/small/fuel_systems/bosch_fuel_filter_hero.gif", 
    "catalog": 17, 
    "cost": "$4.99 each", 
    "quantum": 10
  }, 
  "model": "products.product"
},
{
  "fields": {
    "updated": "2016-10-18T01:46:35.797Z", 
    "name": "Beck Arnley Fuel Filter", 
    "created": "2016-10-18T01:46:35.797Z", 
    "photo": "http://b.cdnbrm.com/images/products/small/fuel_systems/beck_arnley_fuel_filter_hero.gif", 
    "catalog": 17, 
    "cost": "$2.99 each", 
    "quantum": 10
  }, 
  "model": "products.product"
},
{
  "fields": {
    "updated": "2016-10-18T01:46:35.797Z", 
    "name": "Fel-Pro Carburetor Gasket", 
    "created": "2016-10-18T01:46:35.797Z", 
    "photo": "http://b.cdnbrm.com/images/products/small/fuel_systems/fel_pro_carburetor_gasket_hero.gif", 
    "catalog": 17, 
    "cost": "$0.99 each", 
    "quantum": 10
  }, 
  "model": "products.product"
},
{
  "fields": {
    "updated": "2016-10-18T01:46:35.797Z", 
    "name": "Airtex Fuel Tank & Components", 
    "created": "2016-10-18T01:46:35.797Z", 
    "photo": "http://b.cdnbrm.com/images/products/small/fuel_systems/airtex_fuel_tank_components_hero.gif", 
    "catalog": 17, 
    "cost": "$2.99 each", 
    "quantum": 10
  }, 
  "model": "products.product"
},
{
  "fields": {
    "updated": "2016-10-18T01:46:35.797Z", 
    "name": "Snow Performance Water/Methanol Injection Boost Cooler", 
    "created": "2016-10-18T01:46:35.797Z", 
    "photo": "http://b.cdnbrm.com/images/products/small/performance/snow_perf_hero.gif", 
    "catalog": 17, 
    "cost": "$482.95 /kit", 
    "quantum": 10
  }, 
  "model": "products.product"
},
{
  "fields": {
    "updated": "2016-10-18T01:46:35.797Z", 
    "name": "Denso Fuel Tank & Components", 
    "created": "2016-10-18T01:46:35.797Z", 
    "photo": "http://b.cdnbrm.com/images/products/small/fuel_systems/denso_fuel_tank_components_hero.gif", 
    "catalog": 17, 
    "cost": "$5.99 each", 
    "quantum": 10
  }, 
  "model": "products.product"
},
{
  "fields": {
    "updated": "2016-10-18T01:46:35.797Z", 
    "name": "Delphi Idle Air Control Valve", 
    "created": "2016-10-18T01:46:35.797Z", 
    "photo": "http://b.cdnbrm.com/images/products/small/engine_components/delphi_idle_air_control_valve_hero.gif", 
    "catalog": 17, 
    "cost": "$29.99 each", 
    "quantum": 10
  }, 
  "model": "products.product"
},
{
  "fields": {
    "updated": "2016-10-18T01:46:35.797Z", 
    "name": "Beck Arnley Fuel Injector", 
    "created": "2016-10-18T01:46:35.797Z", 
    "photo": "http://b.cdnbrm.com/images/products/small/fuel_systems/beck_arnley_fuel_injector_hero.gif", 
    "catalog": 17, 
    "cost": "$1.99 each", 
    "quantum": 10
  }, 
  "model": "products.product"
},
{
  "fields": {
    "updated": "2016-10-18T01:46:35.797Z", 
    "name": "Bosch Fuel Injector", 
    "created": "2016-10-18T01:46:35.797Z", 
    "photo": "http://b.cdnbrm.com/images/products/small/fuel_systems/bosche_fuel_injector_hero.gif", 
    "catalog": 17, 
    "cost": "$29.99", 
    "quantum": 10
  }, 
  "model": "products.product"
},
{
  "fields": {
    "updated": "2016-10-18T01:46:35.797Z", 
    "name": "Denso Fuel Injector", 
    "created": "2016-10-18T01:46:35.797Z", 
    "photo": "http://b.cdnbrm.com/images/products/small/fuel_systems/denso_fuel_injector_hero.gif", 
    "catalog": 17, 
    "cost": "$43.99 each", 
    "quantum": 10
  }, 
  "model": "products.product"
},
{
  "fields": {
    "updated": "2016-10-18T01:46:35.797Z", 
    "name": "Airtex Fuel Filter", 
    "created": "2016-10-18T01:46:35.797Z", 
    "photo": "http://b.cdnbrm.com/images/products/small/fuel_systems/airtex_fuel_filter_hero.gif", 
    "catalog": 17, 
    "cost": "$10.99 each", 
    "quantum": 10
  }, 
  "model": "products.product"
},
{
  "fields": {
    "updated": "2016-10-18T01:46:35.797Z", 
    "name": "Delphi Fuel Tank & Components", 
    "created": "2016-10-18T01:46:35.797Z", 
    "photo": "http://b.cdnbrm.com/images/products/small/fuel_systems/delphi_fuel_tank_and_components_hero.gif", 
    "catalog": 17, 
    "cost": "$11.99 each", 
    "quantum": 10
  }, 
  "model": "products.product"
},
{
  "fields": {
    "updated": "2016-10-18T01:46:35.797Z", 
    "name": "BBK Fuel Pump Kits", 
    "created": "2016-10-18T01:46:35.797Z", 
    "photo": "http://b.cdnbrm.com/images/products/small/performance/bbk_fuel_pumps_hero.gif", 
    "catalog": 17, 
    "cost": "$119.99", 
    "quantum": 10
  }, 
  "model": "products.product"
}
]