[
{
  "fields": {
    "type": "P", 
    "id": 21, 
    "name": "Performance Chips & Programmers"
  }, 
  "model": "products.productcatalog"
},
{
  "fields": {
    "updated": "2016-10-18T01:46:35.797Z", 
    "name": "DiabloSport Trinity T-1000 Programmer", 
    "created": "2016-10-18T01:46:35.797Z", 
    "photo": "http://b.cdnbrm.com/images/products/small/performance/diablosport_trinity_programmer.gif", 
    "catalog": 21, 
    "cost": "$599.95", 
    "quantum": 10
  }, 
  "model": "products.product"
},
{
  "fields": {
    "updated": "2016-10-18T01:46:35.797Z", 
    "name": "Bully Dog Triple Dog GT Tuner (49-State Legal)", 
    "created": "2016-10-18T01:46:35.797Z", 
    "photo": "http://b.cdnbrm.com/images/products/small/performance/bully_dog_gt.gif", 
    "catalog": 21, 
    "cost": "$429.00", 
    "quantum": 10
  }, 
  "model": "products.product"
},
{
  "fields": {
    "updated": "2016-10-18T01:46:35.797Z", 
    "name": "Range Active Fuel Management Disable Device", 
    "created": "2016-10-18T01:46:35.797Z", 
    "photo": "http://b.cdnbrm.com/images/products/small/performance/range_active_fuel_management_disable_device.gif", 
    "catalog": 21, 
    "cost": "$199.00", 
    "quantum": 10
  }, 
  "model": "products.product"
},
{
  "fields": {
    "updated": "2016-10-18T01:46:35.797Z", 
    "name": "DiabloSport inTune i2 Tuner", 
    "created": "2016-10-18T01:46:35.797Z", 
    "photo": "http://b.cdnbrm.com/images/products/small/performance/diablosport_intune_i2_tuner_hero.gif", 
    "catalog": 21, 
    "cost": "$399.95", 
    "quantum": 10
  }, 
  "model": "products.product"
},
{
  "fields": {
    "updated": "2016-10-18T01:46:35.797Z", 
    "name": "Superchips Flashpaq F5 Tuner", 
    "created": "2016-10-18T01:46:35.797Z", 
    "photo": "http://b.cdnbrm.com/images/products/small/performance/superchips_flashpaq_f5_tuner_hero.gif", 
    "catalog": 21, 
    "cost": "$369.95", 
    "quantum": 10
  }, 
  "model": "products.product"
},
{
  "fields": {
    "updated": "2016-10-18T01:46:35.797Z", 
    "name": "Edge Evolution CTS2 Programmer", 
    "created": "2016-10-18T01:46:35.797Z", 
    "photo": "http://b.cdnbrm.com/images/products/small/performance/edge_evolution_cts2_programmer_hero.gif", 
    "catalog": 21, 
    "cost": "$599.95", 
    "quantum": 10
  }, 
  "model": "products.product"
},
{
  "fields": {
    "updated": "2016-10-18T01:46:35.797Z", 
    "name": "Hypertech Max Energy 2.0 Programmer", 
    "created": "2016-10-18T01:46:35.797Z", 
    "photo": "http://b.cdnbrm.com/images/products/small/performance/hypertech_max_energy_2_0_programmer_hero.gif", 
    "catalog": 21, 
    "cost": "$349.00", 
    "quantum": 10
  }, 
  "model": "products.product"
},
{
  "fields": {
    "updated": "2016-10-18T01:46:35.797Z", 
    "name": "Hypertech Max Energy Programmer", 
    "created": "2016-10-18T01:46:35.797Z", 
    "photo": "http://b.cdnbrm.com/images/products/small/performance/hypertech_max_energy_programmer.gif", 
    "catalog": 21, 
    "cost": "$329.00", 
    "quantum": 10
  }, 
  "model": "products.product"
},
{
  "fields": {
    "updated": "2016-10-18T01:46:35.797Z", 
    "name": "Edge Evolution CS2 Programmer", 
    "created": "2016-10-18T01:46:35.797Z", 
    "photo": "http://b.cdnbrm.com/images/products/small/performance/edge_evolution_cs2_programmer_hero.gif", 
    "catalog": 21, 
    "cost": "$449.95", 
    "quantum": 10
  }, 
  "model": "products.product"
},
{
  "fields": {
    "updated": "2016-10-18T01:46:35.797Z", 
    "name": "Jet Performance Module", 
    "created": "2016-10-18T01:46:35.797Z", 
    "photo": "http://b.cdnbrm.com/images/products/small/performance/jet_dodge.jpg", 
    "catalog": 21, 
    "cost": "$132.99", 
    "quantum": 10
  }, 
  "model": "products.product"
},
{
  "fields": {
    "updated": "2016-10-18T01:46:35.797Z", 
    "name": "Edge Juice with Attitude CTS2 Programmer", 
    "created": "2016-10-18T01:46:35.797Z", 
    "photo": "http://b.cdnbrm.com/images/products/small/performance/edge_juice_with_attitude_cts2_programmer_hero.gif", 
    "catalog": 21, 
    "cost": "$999.95", 
    "quantum": 10
  }, 
  "model": "products.product"
},
{
  "fields": {
    "updated": "2016-10-18T01:46:35.797Z", 
    "name": "Edge Insight CTS2 Monitor", 
    "created": "2016-10-18T01:46:35.797Z", 
    "photo": "http://b.cdnbrm.com/images/products/small/performance/edge_insight_cts2_monitor_hero.gif", 
    "catalog": 21, 
    "cost": "$429.95", 
    "quantum": 10
  }, 
  "model": "products.product"
},
{
  "fields": {
    "updated": "2016-10-18T01:46:35.797Z", 
    "name": "Hypertech Speedometer Calibrator", 
    "created": "2016-10-18T01:46:35.797Z", 
    "photo": "http://b.cdnbrm.com/images/products/small/performance/hypertech_speedometer_calibrator_new.gif", 
    "catalog": 21, 
    "cost": "$229.00", 
    "quantum": 10
  }, 
  "model": "products.product"
},
{
  "fields": {
    "updated": "2016-10-18T01:46:35.797Z", 
    "name": "Bully Dog Triple Dog GT Tuner (50-State Legal)", 
    "created": "2016-10-18T01:46:35.797Z", 
    "photo": "http://b.cdnbrm.com/images/products/small/performance/bully_dog_gt_50_state.gif", 
    "catalog": 21, 
    "cost": "$429.00", 
    "quantum": 10
  }, 
  "model": "products.product"
},
{
  "fields": {
    "updated": "2016-10-18T01:46:35.797Z", 
    "name": "SCT X4 Power Flash Programmer (49-State Legal)", 
    "created": "2016-10-18T01:46:35.797Z", 
    "photo": "http://b.cdnbrm.com/images/products/small/performance/sct_x4_power_flash_programmer_49_state_legal_hero.gif", 
    "catalog": 21, 
    "cost": "$399.00", 
    "quantum": 10
  }, 
  "model": "products.product"
},
{
  "fields": {
    "updated": "2016-10-18T01:46:35.797Z", 
    "name": "Superchips TrailDash2 Jeep Tuner", 
    "created": "2016-10-18T01:46:35.797Z", 
    "photo": "http://b.cdnbrm.com/images/products/small/performance/superchips_traildash2_jeep_tuner_hero.gif", 
    "catalog": 21, 
    "cost": "$499.95", 
    "quantum": 10
  }, 
  "model": "products.product"
},
{
  "fields": {
    "updated": "2016-10-18T01:46:35.797Z", 
    "name": "Jet Performance Programmer", 
    "created": "2016-10-18T01:46:35.797Z", 
    "photo": "http://b.cdnbrm.com/images/products/small/performance/jet_programmer.jpg", 
    "catalog": 21, 
    "cost": "$366.99", 
    "quantum": 10
  }, 
  "model": "products.product"
},
{
  "fields": {
    "updated": "2016-10-18T01:46:35.797Z", 
    "name": "Bully Dog BDX Tuner", 
    "created": "2016-10-18T01:46:35.797Z", 
    "photo": "http://b.cdnbrm.com/images/products/small/performance/bully_dog_bdx_tuner_hero.gif", 
    "catalog": 21, 
    "cost": "$399.00 each", 
    "quantum": 10
  }, 
  "model": "products.product"
},
{
  "fields": {
    "updated": "2016-10-18T01:46:35.797Z", 
    "name": "Edge Juice with Attitude CS2 Programmer", 
    "created": "2016-10-18T01:46:35.797Z", 
    "photo": "http://b.cdnbrm.com/images/products/small/performance/edge_juice_with_attitude_cs2_programmer_hero.gif", 
    "catalog": 21, 
    "cost": "$849.95", 
    "quantum": 10
  }, 
  "model": "products.product"
},
{
  "fields": {
    "updated": "2016-10-18T01:46:35.797Z", 
    "name": "TruXP Xtune+ Performance Tuner", 
    "created": "2016-10-18T01:46:35.797Z", 
    "photo": "http://b.cdnbrm.com/images/products/small/performance/truxp_xtune_performance_tuner_hero.gif", 
    "catalog": 21, 
    "cost": "$299.99", 
    "quantum": 10
  }, 
  "model": "products.product"
},
{
  "fields": {
    "updated": "2016-10-18T01:46:35.797Z", 
    "name": "Edge Evolution Programmer", 
    "created": "2016-10-18T01:46:35.797Z", 
    "photo": "http://b.cdnbrm.com/images/products/small/performance/edge_evolution_hero.gif", 
    "catalog": 21, 
    "cost": "$411.99", 
    "quantum": 10
  }, 
  "model": "products.product"
},
{
  "fields": {
    "updated": "2016-10-18T01:46:35.797Z", 
    "name": "Edge EvoHT2 Tuner", 
    "created": "2016-10-18T01:46:35.797Z", 
    "photo": "http://b.cdnbrm.com/images/products/small/performance/edge_evoht2_tuner_hero.gif", 
    "catalog": 21, 
    "cost": "$389.95", 
    "quantum": 10
  }, 
  "model": "products.product"
},
{
  "fields": {
    "updated": "2016-10-18T01:46:35.797Z", 
    "name": "Superchips Cortex Programmer", 
    "created": "2016-10-18T01:46:35.797Z", 
    "photo": "http://b.cdnbrm.com/images/products/small/performance/superchips_cortex.gif", 
    "catalog": 21, 
    "cost": "$379.99", 
    "quantum": 10
  }, 
  "model": "products.product"
},
{
  "fields": {
    "updated": "2016-10-18T01:46:35.797Z", 
    "name": "ScanGauge OBD II Scanner", 
    "created": "2016-10-18T01:46:35.797Z", 
    "photo": "http://b.cdnbrm.com/images/products/small/performance/scan-gauge_obd-ii-scanner.gif", 
    "catalog": 21, 
    "cost": "$159.95 each", 
    "quantum": 10
  }, 
  "model": "products.product"
},
{
  "fields": {
    "updated": "2016-10-18T01:46:35.797Z", 
    "name": "TruXP Xtune Performance Tuner", 
    "created": "2016-10-18T01:46:35.797Z", 
    "photo": "http://b.cdnbrm.com/images/products/small/performance/xtune_performance_tuner_hero.gif", 
    "catalog": 21, 
    "cost": "$229.00", 
    "quantum": 10
  }, 
  "model": "products.product"
},
{
  "fields": {
    "updated": "2016-10-18T01:46:35.797Z", 
    "name": "SCT Livewire TS Performance Tuner & Monitor", 
    "created": "2016-10-18T01:46:35.797Z", 
    "photo": "http://b.cdnbrm.com/images/products/small/performance/sct_livewire_ts_performance_tuner_monitor.gif", 
    "catalog": 21, 
    "cost": "$599.00", 
    "quantum": 10
  }, 
  "model": "products.product"
},
{
  "fields": {
    "updated": "2016-10-18T01:46:35.797Z", 
    "name": "Unichip Performance Chip", 
    "created": "2016-10-18T01:46:35.797Z", 
    "photo": "http://b.cdnbrm.com/images/products/small/performance/unichip_unichip_chip_and_harness.gif", 
    "catalog": 21, 
    "cost": "$395.00 each", 
    "quantum": 10
  }, 
  "model": "products.product"
},
{
  "fields": {
    "updated": "2016-10-18T01:46:35.797Z", 
    "name": "aFe Sprint Booster Power Converter", 
    "created": "2016-10-18T01:46:35.797Z", 
    "photo": "http://b.cdnbrm.com/images/products/small/performance/afe_sprint_booster_power_converter_hero.gif", 
    "catalog": 21, 
    "cost": "$295.00 each", 
    "quantum": 10
  }, 
  "model": "products.product"
},
{
  "fields": {
    "updated": "2016-10-18T01:46:35.797Z", 
    "name": "Banks Stinger System", 
    "created": "2016-10-18T01:46:35.797Z", 
    "photo": "http://b.cdnbrm.com/images/products/small/performance_packages/banks_stinger_system_updated.gif", 
    "catalog": 21, 
    "cost": "$565.47 /kit", 
    "quantum": 10
  }, 
  "model": "products.product"
},
{
  "fields": {
    "updated": "2016-10-18T01:46:35.797Z", 
    "name": "Edge Dash Pods", 
    "created": "2016-10-18T01:46:35.797Z", 
    "photo": "http://b.cdnbrm.com/images/products/small/performance/edge_dash_pod_hero.gif", 
    "catalog": 21, 
    "cost": "$50.00 each", 
    "quantum": 10
  }, 
  "model": "products.product"
},
{
  "fields": {
    "updated": "2016-10-18T01:46:35.797Z", 
    "name": "Smarty JR Programmer", 
    "created": "2016-10-18T01:46:35.797Z", 
    "photo": "http://b.cdnbrm.com/images/products/small/performance/smarty_jr_programmer_hero.gif", 
    "catalog": 21, 
    "cost": "$495.00", 
    "quantum": 10
  }, 
  "model": "products.product"
},
{
  "fields": {
    "updated": "2016-10-18T01:46:35.797Z", 
    "name": "Edge EZ Performance Module", 
    "created": "2016-10-18T01:46:35.797Z", 
    "photo": "http://b.cdnbrm.com/images/products/small/performance/edge_EZ_ford.gif", 
    "catalog": 21, 
    "cost": "$429.95", 
    "quantum": 10
  }, 
  "model": "products.product"
},
{
  "fields": {
    "updated": "2016-10-18T01:46:35.797Z", 
    "name": "Edge Insight Pro CTS2 Monitor", 
    "created": "2016-10-18T01:46:35.797Z", 
    "photo": "http://b.cdnbrm.com/images/products/small/performance/edge_insight_pro_cts2_monitor_hero.gif", 
    "catalog": 21, 
    "cost": "$579.95 each", 
    "quantum": 10
  }, 
  "model": "products.product"
},
{
  "fields": {
    "updated": "2016-10-18T01:46:35.797Z", 
    "name": "Banks Six-Gun Tuner", 
    "created": "2016-10-18T01:46:35.797Z", 
    "photo": "http://b.cdnbrm.com/images/products/small/performance/banks_sixgun_power_stroke.gif", 
    "catalog": 21, 
    "cost": "$352.38", 
    "quantum": 10
  }, 
  "model": "products.product"
},
{
  "fields": {
    "updated": "2016-10-18T01:46:35.797Z", 
    "name": "Bully Dog A-Pillar Mount", 
    "created": "2016-10-18T01:46:35.797Z", 
    "photo": "http://b.cdnbrm.com/images/products/small/performance/bully_dog_pmt_a-pillar_mount.gif", 
    "catalog": 21, 
    "cost": "$74.95", 
    "quantum": 10
  }, 
  "model": "products.product"
},
{
  "fields": {
    "updated": "2016-10-18T01:46:35.797Z", 
    "name": "Superchips FlashCal F5 Calibration Tool", 
    "created": "2016-10-18T01:46:35.797Z", 
    "photo": "http://b.cdnbrm.com/images/products/small/performance/superchips_flashcal_f5_calibration_tool_hero.gif", 
    "catalog": 21, 
    "cost": "$179.95", 
    "quantum": 10
  }, 
  "model": "products.product"
},
{
  "fields": {
    "updated": "2016-10-18T01:46:35.797Z", 
    "name": "Hypertech Interceptor Tuner", 
    "created": "2016-10-18T01:46:35.797Z", 
    "photo": "http://b.cdnbrm.com/images/products/small/performance/Hypertech_Interceptor.gif", 
    "catalog": 21, 
    "cost": "$359.00", 
    "quantum": 10
  }, 
  "model": "products.product"
},
{
  "fields": {
    "updated": "2016-10-18T01:46:35.797Z", 
    "name": "Hypertech Max Energy Sport Programmer", 
    "created": "2016-10-18T01:46:35.797Z", 
    "photo": "http://b.cdnbrm.com/images/products/small/performance/hypertech_max_energy_sport_programmer.gif", 
    "catalog": 21, 
    "cost": "$399.00", 
    "quantum": 10
  }, 
  "model": "products.product"
},
{
  "fields": {
    "updated": "2016-10-18T01:46:35.797Z", 
    "name": "Jet V-Force Plus Power Control Module", 
    "created": "2016-10-18T01:46:35.797Z", 
    "photo": "http://b.cdnbrm.com/images/products/small/performance/jet_performance_v_force_plus.gif", 
    "catalog": 21, 
    "cost": "$293.99", 
    "quantum": 10
  }, 
  "model": "products.product"
},
{
  "fields": {
    "updated": "2016-10-18T01:46:35.797Z", 
    "name": "Edge EAS Power Switch with Starter Kit", 
    "created": "2016-10-18T01:46:35.797Z", 
    "photo": "http://b.cdnbrm.com/images/products/small/performance/edge_eas_power_switch_with_starter_kit_hero.gif", 
    "catalog": 21, 
    "cost": "$109.95", 
    "quantum": 10
  }, 
  "model": "products.product"
},
{
  "fields": {
    "updated": "2016-10-18T01:46:35.797Z", 
    "name": "Banks AutoMind Programmer", 
    "created": "2016-10-18T01:46:35.797Z", 
    "photo": "http://b.cdnbrm.com/images/products/small/performance/banks_automind_programmer.gif", 
    "catalog": 21, 
    "cost": "$379.74", 
    "quantum": 10
  }, 
  "model": "products.product"
},
{
  "fields": {
    "updated": "2016-10-18T01:46:35.797Z", 
    "name": "Edge Insight CS2 Monitor", 
    "created": "2016-10-18T01:46:35.797Z", 
    "photo": "http://b.cdnbrm.com/images/products/small/performance/edge_insight_cs2_monitor_hero.gif", 
    "catalog": 21, 
    "cost": "$299.95", 
    "quantum": 10
  }, 
  "model": "products.product"
},
{
  "fields": {
    "updated": "2016-10-18T01:46:35.797Z", 
    "name": "Edge Insight Pro CS2 Monitor", 
    "created": "2016-10-18T01:46:35.797Z", 
    "photo": "http://b.cdnbrm.com/images/products/small/performance/edge_insight_pro_cs2_monitor_hero.gif", 
    "catalog": 21, 
    "cost": "$449.95 each", 
    "quantum": 10
  }, 
  "model": "products.product"
},
{
  "fields": {
    "updated": "2016-10-18T01:46:35.797Z", 
    "name": "Unichip Flux2 In Car Display", 
    "created": "2016-10-18T01:46:35.797Z", 
    "photo": "http://b.cdnbrm.com/images/products/small/performance/unichip_flux2_in_car_display.gif", 
    "catalog": 21, 
    "cost": "$285.95 each", 
    "quantum": 10
  }, 
  "model": "products.product"
},
{
  "fields": {
    "updated": "2016-10-18T01:46:35.797Z", 
    "name": "DiabloSport Extreme Power Puck Programmer", 
    "created": "2016-10-18T01:46:35.797Z", 
    "photo": "http://b.cdnbrm.com/images/products/small/performance/diablosport_extreme_power_puck_programmer.gif", 
    "catalog": 21, 
    "cost": "$305.95", 
    "quantum": 10
  }, 
  "model": "products.product"
},
{
  "fields": {
    "updated": "2016-10-18T01:46:35.797Z", 
    "name": "Hypertech HyperPAC", 
    "created": "2016-10-18T01:46:35.797Z", 
    "photo": "http://b.cdnbrm.com/images/products/small/performance/hypertech_hyperpac.gif", 
    "catalog": 21, 
    "cost": "$349.99", 
    "quantum": 10
  }, 
  "model": "products.product"
},
{
  "fields": {
    "updated": "2016-10-18T01:46:35.797Z", 
    "name": "DiabloSport PC Interface - USB Cable Kit", 
    "created": "2016-10-18T01:46:35.797Z", 
    "photo": "http://b.cdnbrm.com/images/products/small/performance/diablosport_pc_interface_usb_cable_kit.gif", 
    "catalog": 21, 
    "cost": "$39.99", 
    "quantum": 10
  }, 
  "model": "products.product"
},
{
  "fields": {
    "updated": "2016-10-18T01:46:35.797Z", 
    "name": "SCT iTSX Wireless OBD-II Interface (49-State Legal)", 
    "created": "2016-10-18T01:46:35.797Z", 
    "photo": "http://b.cdnbrm.com/images/products/small/performance/sct_itsx_wireless_obd_2_interface_b.gif", 
    "catalog": 21, 
    "cost": "$399.00", 
    "quantum": 10
  }, 
  "model": "products.product"
},
{
  "fields": {
    "updated": "2016-10-18T01:46:35.797Z", 
    "name": "AEM ECU Extension Harness", 
    "created": "2016-10-18T01:46:35.797Z", 
    "photo": "http://b.cdnbrm.com/images/products/small/performance/aem_ecu_harness_hero.gif", 
    "catalog": 21, 
    "cost": "$128.41 each", 
    "quantum": 10
  }, 
  "model": "products.product"
},
{
  "fields": {
    "updated": "2016-10-18T01:46:35.797Z", 
    "name": "Banks Sidewinder Turbo System", 
    "created": "2016-10-18T01:46:35.797Z", 
    "photo": "http://b.cdnbrm.com/images/products/small/performance_packages/banks_sidewinder_chevy_62_82-93.gif", 
    "catalog": 21, 
    "cost": "$3,077.64 /kit", 
    "quantum": 10
  }, 
  "model": "products.product"
},
{
  "fields": {
    "updated": "2016-10-18T01:46:35.797Z", 
    "name": "AEM Plug and Play EMS", 
    "created": "2016-10-18T01:46:35.797Z", 
    "photo": "http://b.cdnbrm.com/images/products/small/performance/aem_plug_n_play.gif", 
    "catalog": 21, 
    "cost": "$1,280.13", 
    "quantum": 10
  }, 
  "model": "products.product"
},
{
  "fields": {
    "updated": "2016-10-18T01:46:35.797Z", 
    "name": "SCT iTSX Wireless OBD-II Interface (50-State Legal)", 
    "created": "2016-10-18T01:46:35.797Z", 
    "photo": "http://b.cdnbrm.com/images/products/small/performance/sct_itsx_50_state_wireless_obd_2_interface_b_hero.gif", 
    "catalog": 21, 
    "cost": "$399.00", 
    "quantum": 10
  }, 
  "model": "products.product"
},
{
  "fields": {
    "updated": "2016-10-18T01:46:35.797Z", 
    "name": "aFe SCORCHER Module", 
    "created": "2016-10-18T01:46:35.797Z", 
    "photo": "http://b.cdnbrm.com/images/products/small/performance/afe_scorcher_module.gif", 
    "catalog": 21, 
    "cost": "$279.00", 
    "quantum": 10
  }, 
  "model": "products.product"
},
{
  "fields": {
    "updated": "2016-10-18T01:46:35.797Z", 
    "name": "Banks Big Hoss Bundle", 
    "created": "2016-10-18T01:46:35.797Z", 
    "photo": "http://b.cdnbrm.com/images/products/small/performance_packages/banks_big_hoss_bundle_updated.gif", 
    "catalog": 21, 
    "cost": "$3,008.52 /kit", 
    "quantum": 10
  }, 
  "model": "products.product"
},
{
  "fields": {
    "updated": "2016-10-18T01:46:35.797Z", 
    "name": "DiabloSport Mafia Mass Air Flow Tuner", 
    "created": "2016-10-18T01:46:35.797Z", 
    "photo": "http://b.cdnbrm.com/images/products/small/performance/diablosport_mafia_mass_air_flow_tuner_hero.gif", 
    "catalog": 21, 
    "cost": "$225.95", 
    "quantum": 10
  }, 
  "model": "products.product"
},
{
  "fields": {
    "updated": "2016-10-18T01:46:35.797Z", 
    "name": "Banks PowerPack System", 
    "created": "2016-10-18T01:46:35.797Z", 
    "photo": "http://b.cdnbrm.com/images/products/small/performance_packages/banks_powerpack_system_updated.gif", 
    "catalog": 21, 
    "cost": "$1,381.79 /kit", 
    "quantum": 10
  }, 
  "model": "products.product"
},
{
  "fields": {
    "updated": "2016-10-18T01:46:35.797Z", 
    "name": "Banks EconoMind Tuner", 
    "created": "2016-10-18T01:46:35.797Z", 
    "photo": "http://b.cdnbrm.com/images/products/small/performance/banks_economind.gif", 
    "catalog": 21, 
    "cost": "$734.99", 
    "quantum": 10
  }, 
  "model": "products.product"
},
{
  "fields": {
    "updated": "2016-10-18T01:46:35.797Z", 
    "name": "Banks Six-Gun Bundle", 
    "created": "2016-10-18T01:46:35.797Z", 
    "photo": "http://b.cdnbrm.com/images/products/small/performance_packages/banks_6_gun_bundle_dodge_59_03-04.gif", 
    "catalog": 21, 
    "cost": "$1,307.43 /kit", 
    "quantum": 10
  }, 
  "model": "products.product"
},
{
  "fields": {
    "updated": "2016-10-18T01:46:35.797Z", 
    "name": "Banks iQ Dashboard PC", 
    "created": "2016-10-18T01:46:35.797Z", 
    "photo": "http://b.cdnbrm.com/images/products/small/performance/banks_iq_dashboard_pc.gif", 
    "catalog": 21, 
    "cost": "$593.04", 
    "quantum": 10
  }, 
  "model": "products.product"
},
{
  "fields": {
    "updated": "2016-10-18T01:46:35.797Z", 
    "name": "aFe Performance Packages", 
    "created": "2016-10-18T01:46:35.797Z", 
    "photo": "http://b.cdnbrm.com/images/products/small/performance/afe_performance_packages_hero.gif", 
    "catalog": 21, 
    "cost": "$575.00 each", 
    "quantum": 10
  }, 
  "model": "products.product"
},
{
  "fields": {
    "updated": "2016-10-18T01:46:35.797Z", 
    "name": "Smarty Programmer", 
    "created": "2016-10-18T01:46:35.797Z", 
    "photo": "http://b.cdnbrm.com/images/products/small/performance/smarty_programmer_hero.gif", 
    "catalog": 21, 
    "cost": "$668.99", 
    "quantum": 10
  }, 
  "model": "products.product"
},
{
  "fields": {
    "updated": "2016-10-18T01:46:35.797Z", 
    "name": "Banks Git-Kit", 
    "created": "2016-10-18T01:46:35.797Z", 
    "photo": "http://b.cdnbrm.com/images/products/small/performance_packages/banks_git_kit_dodge_59_98-02.gif", 
    "catalog": 21, 
    "cost": "$632.13 /kit", 
    "quantum": 10
  }, 
  "model": "products.product"
},
{
  "fields": {
    "updated": "2016-10-18T01:46:35.797Z", 
    "name": "Banks Bullet", 
    "created": "2016-10-18T01:46:35.797Z", 
    "photo": "http://b.cdnbrm.com/images/products/small/performance/banks_bullet.gif", 
    "catalog": 21, 
    "cost": "$317.21", 
    "quantum": 10
  }, 
  "model": "products.product"
},
{
  "fields": {
    "updated": "2016-10-18T01:46:35.797Z", 
    "name": "Bully Dog Performance Chip - 6 Position 4 Bank for Ford", 
    "created": "2016-10-18T01:46:35.797Z", 
    "photo": "http://b.cdnbrm.com/images/products/small/performance/bully_dog_4bank_chip.gif", 
    "catalog": 21, 
    "cost": "$351.99", 
    "quantum": 10
  }, 
  "model": "products.product"
}
]