[
{
  "fields": {
    "type": "P", 
    "id": 9, 
    "name": "Clutch Parts"
  }, 
  "model": "products.productcatalog"
},
{
  "fields": {
    "updated": "2016-10-18T01:46:35.797Z", 
    "name": "ACT Xtreme Street Clutch Kits", 
    "created": "2016-10-18T01:46:35.797Z", 
    "photo": "http://b.cdnbrm.com/images/products/small/drivetrain_and_differentials/act_xtreme_street_clutch_kits_hero.gif", 
    "catalog": 9, 
    "cost": "$318.60 /kit", 
    "quantum": 10
  }, 
  "model": "products.product"
},
{
  "fields": {
    "updated": "2016-10-18T01:46:35.797Z", 
    "name": "ACT Heavy Duty Race Clutch Kits", 
    "created": "2016-10-18T01:46:35.797Z", 
    "photo": "http://b.cdnbrm.com/images/products/small/drivetrain_and_differentials/act_heavy_duty_race_clutch_kits_hero.gif", 
    "catalog": 9, 
    "cost": "$260.10 /kit", 
    "quantum": 10
  }, 
  "model": "products.product"
},
{
  "fields": {
    "updated": "2016-10-18T01:46:35.797Z", 
    "name": "Sachs Clutch Kit", 
    "created": "2016-10-18T01:46:35.797Z", 
    "photo": "http://b.cdnbrm.com/images/products/small/drivetrain_and_differentials/sachs_clutch_kit_hero.gif", 
    "catalog": 9, 
    "cost": "$93.99 each", 
    "quantum": 10
  }, 
  "model": "products.product"
},
{
  "fields": {
    "updated": "2016-10-18T01:46:35.797Z", 
    "name": "ACT Twin Disc Xtreme Street Clutch Kits", 
    "created": "2016-10-18T01:46:35.797Z", 
    "photo": "http://b.cdnbrm.com/images/products/small/drivetrain_and_differentials/act_twin_disc_xtreme_street_clutch_kits_hero.gif", 
    "catalog": 9, 
    "cost": "$927.00 /kit", 
    "quantum": 10
  }, 
  "model": "products.product"
},
{
  "fields": {
    "updated": "2016-10-18T01:46:35.797Z", 
    "name": "ACT Streetlite XACT Flywheels", 
    "created": "2016-10-18T01:46:35.797Z", 
    "photo": "http://b.cdnbrm.com/images/products/small/drivetrain_and_differentials/act_streetlite_xact_flywheels_hero.gif", 
    "catalog": 9, 
    "cost": "$162.00", 
    "quantum": 10
  }, 
  "model": "products.product"
},
{
  "fields": {
    "updated": "2016-10-18T01:46:35.797Z", 
    "name": "ACT Sport Street Clutch Kits", 
    "created": "2016-10-18T01:46:35.797Z", 
    "photo": "http://b.cdnbrm.com/images/products/small/drivetrain_and_differentials/act_sport_street_clutch_kits_hero.gif", 
    "catalog": 9, 
    "cost": "$242.10 /kit", 
    "quantum": 10
  }, 
  "model": "products.product"
},
{
  "fields": {
    "updated": "2016-10-18T01:46:35.797Z", 
    "name": "ACT Heavy Duty Pressure Plates", 
    "created": "2016-10-18T01:46:35.797Z", 
    "photo": "http://b.cdnbrm.com/images/products/small/drivetrain_and_differentials/act_heavy_duty_pressure_plates_hero.gif", 
    "catalog": 9, 
    "cost": "$140.40", 
    "quantum": 10
  }, 
  "model": "products.product"
},
{
  "fields": {
    "updated": "2016-10-18T01:46:35.797Z", 
    "name": "ACT Heavy Duty Street Clutch Kits", 
    "created": "2016-10-18T01:46:35.797Z", 
    "photo": "http://b.cdnbrm.com/images/products/small/drivetrain_and_differentials/act_heavy_duty_street_clutch_kits_hero.gif", 
    "catalog": 9, 
    "cost": "$270.45 /kit", 
    "quantum": 10
  }, 
  "model": "products.product"
},
{
  "fields": {
    "updated": "2016-10-18T01:46:35.797Z", 
    "name": "ACT MAXX Xtreme Race Clutch Kits", 
    "created": "2016-10-18T01:46:35.797Z", 
    "photo": "http://b.cdnbrm.com/images/products/small/drivetrain_and_differentials/act_maxx_xtreme_race_clutch_kits_hero.gif", 
    "catalog": 9, 
    "cost": "$370.80 /kit", 
    "quantum": 10
  }, 
  "model": "products.product"
},
{
  "fields": {
    "updated": "2016-10-18T01:46:35.797Z", 
    "name": "Sachs Flywheel", 
    "created": "2016-10-18T01:46:35.797Z", 
    "photo": "http://b.cdnbrm.com/images/products/small/drivetrain_and_differentials/sachs_flywheel_hero.gif", 
    "catalog": 9, 
    "cost": "$47.99 each", 
    "quantum": 10
  }, 
  "model": "products.product"
},
{
  "fields": {
    "updated": "2016-10-18T01:46:35.797Z", 
    "name": "Sachs Clutch Master Cylinder", 
    "created": "2016-10-18T01:46:35.797Z", 
    "photo": "http://b.cdnbrm.com/images/products/small/drivetrain_and_differentials/sachs_clutch_master_cylinder_hero.gif", 
    "catalog": 9, 
    "cost": "$14.99 each", 
    "quantum": 10
  }, 
  "model": "products.product"
},
{
  "fields": {
    "updated": "2016-10-18T01:46:35.797Z", 
    "name": "ACT Prolite XACT Flywheels", 
    "created": "2016-10-18T01:46:35.797Z", 
    "photo": "http://b.cdnbrm.com/images/products/small/drivetrain_and_differentials/act_prolite_xact_flywheel_hero.gif", 
    "catalog": 9, 
    "cost": "$186.30", 
    "quantum": 10
  }, 
  "model": "products.product"
},
{
  "fields": {
    "updated": "2016-10-18T01:46:35.797Z", 
    "name": "ACT Street Clutch Discs", 
    "created": "2016-10-18T01:46:35.797Z", 
    "photo": "http://b.cdnbrm.com/images/products/small/drivetrain_and_differentials/act_street_clutch_discs_hero.gif", 
    "catalog": 9, 
    "cost": "$62.10", 
    "quantum": 10
  }, 
  "model": "products.product"
},
{
  "fields": {
    "updated": "2016-10-18T01:46:35.797Z", 
    "name": "Sachs Clutch Slave Cylinder", 
    "created": "2016-10-18T01:46:35.797Z", 
    "photo": "http://b.cdnbrm.com/images/products/small/drivetrain_and_differentials/sachs_slave_cylinder_hero.gif", 
    "catalog": 9, 
    "cost": "$12.99 each", 
    "quantum": 10
  }, 
  "model": "products.product"
},
{
  "fields": {
    "updated": "2016-10-18T01:46:35.797Z", 
    "name": "Dorman Clutch Line", 
    "created": "2016-10-18T01:46:35.797Z", 
    "photo": "http://b.cdnbrm.com/images/products/small/differential_parts/dorman_clutch_line_hero.gif", 
    "catalog": 9, 
    "cost": "$24.99 each", 
    "quantum": 10
  }, 
  "model": "products.product"
},
{
  "fields": {
    "updated": "2016-10-18T01:46:35.797Z", 
    "name": "ACT Race Clutch Discs", 
    "created": "2016-10-18T01:46:35.797Z", 
    "photo": "http://b.cdnbrm.com/images/products/small/drivetrain_and_differentials/act_race_clutch_discs_hero.gif", 
    "catalog": 9, 
    "cost": "$94.50", 
    "quantum": 10
  }, 
  "model": "products.product"
},
{
  "fields": {
    "updated": "2016-10-18T01:46:35.797Z", 
    "name": "Beck Arnley Clutch Slave Cylinder", 
    "created": "2016-10-18T01:46:35.797Z", 
    "photo": "http://b.cdnbrm.com/images/products/small/drivetrain_and_differentials/beck_arnley_clutch_slave_cylinder_hero.gif", 
    "catalog": 9, 
    "cost": "$11.99 each", 
    "quantum": 10
  }, 
  "model": "products.product"
},
{
  "fields": {
    "updated": "2016-10-18T01:46:35.797Z", 
    "name": "Beck Arnley Clutch Master Cylinder", 
    "created": "2016-10-18T01:46:35.797Z", 
    "photo": "http://b.cdnbrm.com/images/products/small/drivetrain_and_differentials/beck_arnley_clutch_master_cylinder_hero.gif", 
    "catalog": 9, 
    "cost": "$19.99 each", 
    "quantum": 10
  }, 
  "model": "products.product"
},
{
  "fields": {
    "updated": "2016-10-18T01:46:35.797Z", 
    "name": "Timken Pilot Bearing", 
    "created": "2016-10-18T01:46:35.797Z", 
    "photo": "http://b.cdnbrm.com/images/products/small/drivetrain_and_differentials/timken_pilot_bearing_hero.gif", 
    "catalog": 9, 
    "cost": "$1.99 each", 
    "quantum": 10
  }, 
  "model": "products.product"
},
{
  "fields": {
    "updated": "2016-10-18T01:46:35.797Z", 
    "name": "Sachs Throw-out Bearing", 
    "created": "2016-10-18T01:46:35.797Z", 
    "photo": "http://b.cdnbrm.com/images/products/small/drivetrain_and_differentials/sachs_throw_out_bearing_hero.gif", 
    "catalog": 9, 
    "cost": "$20.99 each", 
    "quantum": 10
  }, 
  "model": "products.product"
},
{
  "fields": {
    "updated": "2016-10-18T01:46:35.797Z", 
    "name": "Sachs Clutch Pressure Plate", 
    "created": "2016-10-18T01:46:35.797Z", 
    "photo": "http://b.cdnbrm.com/images/products/small/drivetrain_and_differentials/sachs_pressure_plate_hero.gif", 
    "catalog": 9, 
    "cost": "$59.99 each", 
    "quantum": 10
  }, 
  "model": "products.product"
},
{
  "fields": {
    "updated": "2016-10-18T01:46:35.797Z", 
    "name": "Timken Throw-out Bearing", 
    "created": "2016-10-18T01:46:35.797Z", 
    "photo": "http://b.cdnbrm.com/images/products/small/drivetrain_and_differentials/timken_throw_out_bearing_hero.gif", 
    "catalog": 9, 
    "cost": "$19.99 each", 
    "quantum": 10
  }, 
  "model": "products.product"
},
{
  "fields": {
    "updated": "2016-10-18T01:46:35.797Z", 
    "name": "ACT Sport Pressure Plates", 
    "created": "2016-10-18T01:46:35.797Z", 
    "photo": "http://b.cdnbrm.com/images/products/small/drivetrain_and_differentials/act_sport_pressure_plates_hero.gif", 
    "catalog": 9, 
    "cost": "$126.00", 
    "quantum": 10
  }, 
  "model": "products.product"
},
{
  "fields": {
    "updated": "2016-10-18T01:46:35.797Z", 
    "name": "Beck Arnley Clutch Kit", 
    "created": "2016-10-18T01:46:35.797Z", 
    "photo": "http://b.cdnbrm.com/images/products/small/drivetrain_and_differentials/beck_arnley_clutch_kit_hero.gif", 
    "catalog": 9, 
    "cost": "$90.99 each", 
    "quantum": 10
  }, 
  "model": "products.product"
},
{
  "fields": {
    "updated": "2016-10-18T01:46:35.797Z", 
    "name": "ACT Xtreme Race Clutch Kits", 
    "created": "2016-10-18T01:46:35.797Z", 
    "photo": "http://b.cdnbrm.com/images/products/small/drivetrain_and_differentials/act_xtreme_race_clutch_kits_hero.gif", 
    "catalog": 9, 
    "cost": "$315.90 /kit", 
    "quantum": 10
  }, 
  "model": "products.product"
},
{
  "fields": {
    "updated": "2016-10-18T01:46:35.797Z", 
    "name": "Sachs Clutch Disc", 
    "created": "2016-10-18T01:46:35.797Z", 
    "photo": "http://b.cdnbrm.com/images/products/small/drivetrain_and_differentials/sachs_clutch_disc_hero.gif", 
    "catalog": 9, 
    "cost": "$44.99 each", 
    "quantum": 10
  }, 
  "model": "products.product"
},
{
  "fields": {
    "updated": "2016-10-18T01:46:35.797Z", 
    "name": "ACT Clutch Release Bearings", 
    "created": "2016-10-18T01:46:35.797Z", 
    "photo": "http://b.cdnbrm.com/images/products/small/drivetrain_and_differentials/act_clutch_release_bearings_hero.gif", 
    "catalog": 9, 
    "cost": "$14.40", 
    "quantum": 10
  }, 
  "model": "products.product"
},
{
  "fields": {
    "updated": "2016-10-18T01:46:35.797Z", 
    "name": "Beck Arnley Clutch Cable", 
    "created": "2016-10-18T01:46:35.797Z", 
    "photo": "http://b.cdnbrm.com/images/products/small/drivetrain_and_differentials/beck_arnley_clutch_cable_hero.gif", 
    "catalog": 9, 
    "cost": "$7.99 each", 
    "quantum": 10
  }, 
  "model": "products.product"
},
{
  "fields": {
    "updated": "2016-10-18T01:46:35.797Z", 
    "name": "ACT Twin Disc MAXX Xtreme Race Clutch Kits", 
    "created": "2016-10-18T01:46:35.797Z", 
    "photo": "http://b.cdnbrm.com/images/products/small/drivetrain_and_differentials/act_twin_disc_maxx_xtreme_race_clutch_kits_hero.gif", 
    "catalog": 9, 
    "cost": "$902.70 /kit", 
    "quantum": 10
  }, 
  "model": "products.product"
},
{
  "fields": {
    "updated": "2016-10-18T01:46:35.797Z", 
    "name": "ACT Twin Disc Heavy Duty Street Clutch Kits", 
    "created": "2016-10-18T01:46:35.797Z", 
    "photo": "http://b.cdnbrm.com/images/products/small/drivetrain_and_differentials/act_twin_disc_heavy_duty_street_clutch_kits_hero.gif", 
    "catalog": 9, 
    "cost": "$912.60 /kit", 
    "quantum": 10
  }, 
  "model": "products.product"
},
{
  "fields": {
    "updated": "2016-10-18T01:46:35.797Z", 
    "name": "ACT Xtreme Pressure Plates", 
    "created": "2016-10-18T01:46:35.797Z", 
    "photo": "http://b.cdnbrm.com/images/products/small/drivetrain_and_differentials/act_xtreme_pressure_plates_hero.gif", 
    "catalog": 9, 
    "cost": "$199.80", 
    "quantum": 10
  }, 
  "model": "products.product"
},
{
  "fields": {
    "updated": "2016-10-18T01:46:35.797Z", 
    "name": "ACT Twin Disc Xtreme Race Clutch Kits", 
    "created": "2016-10-18T01:46:35.797Z", 
    "photo": "http://b.cdnbrm.com/images/products/small/drivetrain_and_differentials/act_twin_disc_xtreme_race_clutch_kits_hero.gif", 
    "catalog": 9, 
    "cost": "$891.90 /kit", 
    "quantum": 10
  }, 
  "model": "products.product"
},
{
  "fields": {
    "updated": "2016-10-18T01:46:35.797Z", 
    "name": "ACDelco Pilot Bearing", 
    "created": "2016-10-18T01:46:35.797Z", 
    "photo": "http://b.cdnbrm.com/images/products/small/drivetrain_and_differentials/acdelco_pilot_bearing_hero.gif", 
    "catalog": 9, 
    "cost": "$11.99 each", 
    "quantum": 10
  }, 
  "model": "products.product"
},
{
  "fields": {
    "updated": "2016-10-18T01:46:35.797Z", 
    "name": "Wagner Clutch Master Cylinder", 
    "created": "2016-10-18T01:46:35.797Z", 
    "photo": "http://b.cdnbrm.com/images/products/small/brakes/wagner_clutch_master_cylinder_hero.gif", 
    "catalog": 9, 
    "cost": "$41.99", 
    "quantum": 10
  }, 
  "model": "products.product"
},
{
  "fields": {
    "updated": "2016-10-18T01:46:35.797Z", 
    "name": "ACT Twin Disc Heavy Duty Race Clutch Kits", 
    "created": "2016-10-18T01:46:35.797Z", 
    "photo": "http://b.cdnbrm.com/images/products/small/drivetrain_and_differentials/act_twin_disc_heavy_duty_race_clutch_kits_hero.gif", 
    "catalog": 9, 
    "cost": "$876.60 /kit", 
    "quantum": 10
  }, 
  "model": "products.product"
},
{
  "fields": {
    "updated": "2016-10-18T01:46:35.797Z", 
    "name": "ACDelco Clutch Line", 
    "created": "2016-10-18T01:46:35.797Z", 
    "photo": "http://b.cdnbrm.com/images/products/small/clutch_parts/acdelco_clutch_line_hero.gif", 
    "catalog": 9, 
    "cost": "$69.99 each", 
    "quantum": 10
  }, 
  "model": "products.product"
},
{
  "fields": {
    "updated": "2016-10-18T01:46:35.797Z", 
    "name": "ACT MAXX Xtreme Pressure Plates", 
    "created": "2016-10-18T01:46:35.797Z", 
    "photo": "http://b.cdnbrm.com/images/products/small/drivetrain_and_differentials/act_maxx_xtreme_pressure_plates_hero.gif", 
    "catalog": 9, 
    "cost": "$228.60", 
    "quantum": 10
  }, 
  "model": "products.product"
},
{
  "fields": {
    "updated": "2016-10-18T01:46:35.797Z", 
    "name": "Beck Arnley Clutch Hose", 
    "created": "2016-10-18T01:46:35.797Z", 
    "photo": "http://b.cdnbrm.com/images/products/small/drivetrain_and_differentials/beck_arnley_clutch_hose_hero.gif", 
    "catalog": 9, 
    "cost": "$10.99 each", 
    "quantum": 10
  }, 
  "model": "products.product"
},
{
  "fields": {
    "updated": "2016-10-18T01:46:35.797Z", 
    "name": "ACT Twin Disc MAXX Xtreme Street Clutch Kits", 
    "created": "2016-10-18T01:46:35.797Z", 
    "photo": "http://b.cdnbrm.com/images/products/small/drivetrain_and_differentials/act_twin_disc_maxx_xtreme_street_clutch_kits_hero.gif", 
    "catalog": 9, 
    "cost": "$938.70 /kit", 
    "quantum": 10
  }, 
  "model": "products.product"
},
{
  "fields": {
    "updated": "2016-10-18T01:46:35.797Z", 
    "name": "ACT Monoloc Clutch Wedge Collar", 
    "created": "2016-10-18T01:46:35.797Z", 
    "photo": "http://b.cdnbrm.com/images/products/small/drivetrain_and_differentials/act_monoloc_clutch_wedge_collar_hero.gif", 
    "catalog": 9, 
    "cost": "$59.40 each", 
    "quantum": 10
  }, 
  "model": "products.product"
},
{
  "fields": {
    "updated": "2016-10-18T01:46:35.797Z", 
    "name": "Cardone Select Clutch Master Cylinder", 
    "created": "2016-10-18T01:46:35.797Z", 
    "photo": "http://b.cdnbrm.com/images/products/small/drivetrain_and_differentials/cardone_select_clutch_master_cylinder_hero.gif", 
    "catalog": 9, 
    "cost": "$22.99 each", 
    "quantum": 10
  }, 
  "model": "products.product"
},
{
  "fields": {
    "updated": "2016-10-18T01:46:35.797Z", 
    "name": "ACDelco Throw-out Bearing", 
    "created": "2016-10-18T01:46:35.797Z", 
    "photo": "http://b.cdnbrm.com/images/products/small/clutch_parts/acdelco_throw_out_bearing_hero.gif", 
    "catalog": 9, 
    "cost": "$50.99 each", 
    "quantum": 10
  }, 
  "model": "products.product"
},
{
  "fields": {
    "updated": "2016-10-18T01:46:35.797Z", 
    "name": "ACDelco Clutch Master Cylinder", 
    "created": "2016-10-18T01:46:35.797Z", 
    "photo": "http://b.cdnbrm.com/images/products/small/clutch_parts/acdelco_clutch_master_cylinder_hero.gif", 
    "catalog": 9, 
    "cost": "$162.99 each", 
    "quantum": 10
  }, 
  "model": "products.product"
},
{
  "fields": {
    "updated": "2016-10-18T01:46:35.797Z", 
    "name": "BBK Adjustable Clutch Cable", 
    "created": "2016-10-18T01:46:35.797Z", 
    "photo": "http://b.cdnbrm.com/images/products/small/clutch_parts/bbk_adjustable_clutch_cable_hero.gif", 
    "catalog": 9, 
    "cost": "$49.99 each", 
    "quantum": 10
  }, 
  "model": "products.product"
},
{
  "fields": {
    "updated": "2016-10-18T01:46:35.797Z", 
    "name": "Wagner Clutch Slave Cylinder", 
    "created": "2016-10-18T01:46:35.797Z", 
    "photo": "http://b.cdnbrm.com/images/products/small/brakes/wagner_clutch_slave_cylinder_hero.gif", 
    "catalog": 9, 
    "cost": "$10.99", 
    "quantum": 10
  }, 
  "model": "products.product"
},
{
  "fields": {
    "updated": "2016-10-18T01:46:35.797Z", 
    "name": "ACDelco Clutch Slave Cylinder", 
    "created": "2016-10-18T01:46:35.797Z", 
    "photo": "http://b.cdnbrm.com/images/products/small/clutch_parts/acdelco_clutch_slave_cylinder_hero.gif", 
    "catalog": 9, 
    "cost": "$16.99 each", 
    "quantum": 10
  }, 
  "model": "products.product"
},
{
  "fields": {
    "updated": "2016-10-18T01:46:35.797Z", 
    "name": "ACDelco Flywheel", 
    "created": "2016-10-18T01:46:35.797Z", 
    "photo": "http://b.cdnbrm.com/images/products/small/clutch_parts/acdelco_flywheel_hero.gif", 
    "catalog": 9, 
    "cost": "$74.99 each", 
    "quantum": 10
  }, 
  "model": "products.product"
},
{
  "fields": {
    "updated": "2016-10-18T01:46:35.797Z", 
    "name": "Dorman Clutch Master Cylinder", 
    "created": "2016-10-18T01:46:35.797Z", 
    "photo": "http://b.cdnbrm.com/images/products/small/differential_parts/dorman_clutch_master_cylinder_hero.gif", 
    "catalog": 9, 
    "cost": "$194.99 each", 
    "quantum": 10
  }, 
  "model": "products.product"
},
{
  "fields": {
    "updated": "2016-10-18T01:46:35.797Z", 
    "name": "ACDelco Clutch Hose", 
    "created": "2016-10-18T01:46:35.797Z", 
    "photo": "http://b.cdnbrm.com/images/products/small/clutch_parts/acdelco_clutch_hose_hero.gif", 
    "catalog": 9, 
    "cost": "$12.99 each", 
    "quantum": 10
  }, 
  "model": "products.product"
},
{
  "fields": {
    "updated": "2016-10-18T01:46:35.797Z", 
    "name": "ACDelco Clutch Kit", 
    "created": "2016-10-18T01:46:35.797Z", 
    "photo": "http://b.cdnbrm.com/images/products/small/clutch_parts/acdelco_clutch_kit_hero.gif", 
    "catalog": 9, 
    "cost": "$145.99 each", 
    "quantum": 10
  }, 
  "model": "products.product"
}
]